\relax 
\providecommand\hyper@newdestlabel[2]{}
\providecommand\HyperFirstAtBeginDocument{\AtBeginDocument}
\HyperFirstAtBeginDocument{\ifx\hyper@anchor\@undefined
\global\let\oldcontentsline\contentsline
\gdef\contentsline#1#2#3#4{\oldcontentsline{#1}{#2}{#3}}
\global\let\oldnewlabel\newlabel
\gdef\newlabel#1#2{\newlabelxx{#1}#2}
\gdef\newlabelxx#1#2#3#4#5#6{\oldnewlabel{#1}{{#2}{#3}}}
\AtEndDocument{\ifx\hyper@anchor\@undefined
\let\contentsline\oldcontentsline
\let\newlabel\oldnewlabel
\fi}
\fi}
\global\let\hyper@last\relax 
\gdef\HyperFirstAtBeginDocument#1{#1}
\providecommand\HyField@AuxAddToFields[1]{}
\providecommand\HyField@AuxAddToCoFields[2]{}
\catcode `:\active 
\catcode `!\active 
\catcode `=\active 
\citation{hhtap}
\citation{datawarehouse}
\citation{hhtap}
\citation{datawarehouse}
\citation{conn}
\citation{hhtap}
\citation{zheng2018database}
\citation{praveen}
\providecommand \oddpage@label [2]{}
\babel@aux{turkish}{}
\@writefile{toc}{\contentsline {section}{\numberline {1}Arka Plan}{1}{section.1}}
\@writefile{toc}{\contentsline {subsection}{\numberline {1.1}\IeC {\.I}\IeC {\c s} Y\IeC {\"u}k\IeC {\"u} Tipleri}{1}{subsection.1.1}}
\@writefile{toc}{\contentsline {subsubsection}{\numberline {1.1.1}\IeC {\c C}evrimi\IeC {\c c}i Aktar\IeC {\i }m \IeC {\.I}\IeC {\c s} Y\IeC {\"u}k\IeC {\"u} \textit  {OLTP}}{1}{subsubsection.1.1.1}}
\@writefile{toc}{\contentsline {subsubsection}{\numberline {1.1.2}\IeC {\c C}evrimi\IeC {\c c}i Analitik Hesaplama \IeC {\.I}\IeC {\c s} Y\IeC {\"u}k\IeC {\"u} \textit  {OLAP}}{1}{subsubsection.1.1.2}}
\@writefile{toc}{\contentsline {subsubsection}{\numberline {1.1.3}Hibrid Aktar\IeC {\i }m ve Analitik Hesaplama \IeC {\.I}\IeC {\c s} y\IeC {\"u}k\IeC {\"u} \textit  {HTAP}}{1}{subsubsection.1.1.3}}
\citation{praveen}
\citation{praveen}
\citation{praveen}
\@writefile{lof}{\contentsline {figure}{\numberline {1}{\ignorespaces OLTP ve OLAP i\IeC {\c s} y\IeC {\"u}k\IeC {\"u} i\IeC {\c s}leme modelleri\relax }}{2}{figure.caption.1}}
\providecommand*\caption@xref[2]{\@setref\relax\@undefined{#1}}
\newlabel{fig:frog}{{1}{2}{OLTP ve OLAP iş yükü işleme modelleri\relax }{figure.caption.1}{}}
\@writefile{toc}{\contentsline {subsection}{\numberline {1.2}Veritaban\IeC {\i } Modelleri}{2}{subsection.1.2}}
\@writefile{toc}{\contentsline {subsubsection}{\numberline {1.2.1}\IeC {\.I}li\IeC {\c s}kisel Veritabanlar\IeC {\i } \textit  {Relational Database}}{2}{subsubsection.1.2.1}}
\@writefile{toc}{\contentsline {subsubsection}{\numberline {1.2.2}Obje Tabanl\IeC {\i } \IeC {\.I}li\IeC {\c s}kisel Veritabanlar\IeC {\i } \textit  {Object Relational Database}}{2}{subsubsection.1.2.2}}
\@writefile{toc}{\contentsline {subsubsection}{\numberline {1.2.3}Obje Tabanl\IeC {\i } Veritabanlar\IeC {\i } \textit  {Object Oriented Database}}{2}{subsubsection.1.2.3}}
\@writefile{toc}{\contentsline {subsubsection}{\numberline {1.2.4}\IeC {\c C}ok Boyutlu Veritabanlar\IeC {\i } \textit  {Multi Dimensional Database}}{2}{subsubsection.1.2.4}}
\citation{nosqls}
\citation{nosqls}
\citation{nosqls}
\citation{nosqls}
\citation{nosqls2}
\citation{nosqls}
\citation{nosqls}
\citation{nosqls}
\@writefile{toc}{\contentsline {subsubsection}{\numberline {1.2.5}NoSQL Veritabanlar\IeC {\i }}{3}{subsubsection.1.2.5}}
\@writefile{lof}{\contentsline {figure}{\numberline {2}{\ignorespaces NoSQL veritaban\IeC {\i } modelleri\relax }}{3}{figure.caption.2}}
\newlabel{fig:frog}{{2}{3}{NoSQL veritabanı modelleri\relax }{figure.caption.2}{}}
\@writefile{toc}{\contentsline {paragraph}{\numberline {1.2.5.1}Anahtar De\IeC {\u g}er NoSQL \textit  {Key Value}}{3}{paragraph.1.2.5.1}}
\@writefile{toc}{\contentsline {paragraph}{\numberline {1.2.5.2}S\IeC {\"u}tun Tabanl\IeC {\i } NoSQL \textit  {Column Family}}{3}{paragraph.1.2.5.2}}
\@writefile{toc}{\contentsline {paragraph}{\numberline {1.2.5.3}D\IeC {\"o}k\IeC {\"u}man Tabanl\IeC {\i } NoSQL \textit  {Document Oriented}}{3}{paragraph.1.2.5.3}}
\@writefile{toc}{\contentsline {paragraph}{\numberline {1.2.5.4}\IeC {\c C}izge Tabanl\IeC {\i } NoSQL \textit  {Graph Databases}}{3}{paragraph.1.2.5.4}}
\citation{nosqls}
\citation{praveen}
\citation{moneytalks}
\citation{hybridworkloadgpu}
\citation{apache}
\citation{apache}
\citation{apache}
\citation{andypavlov}
\citation{andypavlov}
\@writefile{toc}{\contentsline {subsubsection}{\numberline {1.2.6}New-SQL Veritabanlar\IeC {\i }}{4}{subsubsection.1.2.6}}
\@writefile{toc}{\contentsline {section}{\numberline {2}Donan\IeC {\i }msal H\IeC {\i }zland\IeC {\i }r\IeC {\i }c\IeC {\i } Kullanan Veritabanlar\IeC {\i }}{4}{section.2}}
\@writefile{toc}{\contentsline {subsection}{\numberline {2.1}Donan\IeC {\i }msal H\IeC {\i }zland\IeC {\i }r\IeC {\i }c\IeC {\i } \IeC {\"U}zerinde \IeC {\c C}al\IeC {\i }\IeC {\c s}an Veritabanlar\IeC {\i }n\IeC {\i }n Kulland\IeC {\i }\IeC {\u g}\IeC {\i } Ba\IeC {\c s}l\IeC {\i }ca Teknikler}{4}{subsection.2.1}}
\@writefile{toc}{\contentsline {paragraph}{\numberline {2.1.0.1}S\IeC {\"u}tun Tabanl\IeC {\i } Veri Yap\IeC {\i }s\IeC {\i } \textit  {Columnar Memory Layout}}{4}{paragraph.2.1.0.1}}
\@writefile{lof}{\contentsline {figure}{\numberline {3}{\ignorespaces S\IeC {\"u}tun Tabanl\IeC {\i } Veri Yap\IeC {\i }s\IeC {\i } \cite  {apache}\relax }}{4}{figure.caption.3}}
\newlabel{fig:sub2}{{3}{4}{Sütun Tabanlı Veri Yapısı \cite {apache}\relax }{figure.caption.3}{}}
\@writefile{toc}{\contentsline {paragraph}{\numberline {2.1.0.2}H\IeC {\i }zl\IeC {\i } Sorgu Yarat\IeC {\i }m\IeC {\i } \textit  {Rapid Query Compilation}}{4}{paragraph.2.1.0.2}}
\citation{andypavlov}
\citation{andypavlov}
\citation{sqreamtechnical}
\citation{andypavlov}
\citation{andypavlov}
\newlabel{fig:sub1}{{4a}{5}{Sorgu Yürütme Süresi\relax }{figure.caption.4}{}}
\newlabel{sub@fig:sub1}{{a}{5}{Sorgu Yürütme Süresi\relax }{figure.caption.4}{}}
\newlabel{fig:sub2}{{4b}{5}{Sorgu Yaratımı Süresi\relax }{figure.caption.4}{}}
\newlabel{sub@fig:sub2}{{b}{5}{Sorgu Yaratımı Süresi\relax }{figure.caption.4}{}}
\@writefile{lof}{\contentsline {figure}{\numberline {4}{\ignorespaces H\IeC {\i }zl\IeC {\i } Sorgu Yarat\IeC {\i }m\IeC {\i }n\IeC {\i }n Birle\IeC {\c s}me \textit  {(join)} Zaman\IeC {\i } \IeC {\"U}zerine Etkisi, HIQUE sorgu yarat\IeC {\i }m\IeC {\i }n\IeC {\i } ifade etmektedir.\relax }}{5}{figure.caption.4}}
\newlabel{fig:test}{{4}{5}{Hızlı Sorgu Yaratımının Birleşme \textit {(join)} Zamanı Üzerine Etkisi, HIQUE sorgu yaratımını ifade etmektedir.\relax }{figure.caption.4}{}}
\@writefile{toc}{\contentsline {paragraph}{\numberline {2.1.0.3}D\IeC {\"u}\IeC {\c s}\IeC {\"u}k Seviye Sanal Makine \textit  {Low Level Virtual Machine}}{5}{paragraph.2.1.0.3}}
\newlabel{fig:sub1}{{5a}{5}{Sorgu Yürütme Süresi\relax }{figure.caption.5}{}}
\newlabel{sub@fig:sub1}{{a}{5}{Sorgu Yürütme Süresi\relax }{figure.caption.5}{}}
\newlabel{fig:sub2}{{5b}{5}{Sorgu Yaratımı Süresi\relax }{figure.caption.5}{}}
\newlabel{sub@fig:sub2}{{b}{5}{Sorgu Yaratımı Süresi\relax }{figure.caption.5}{}}
\@writefile{lof}{\contentsline {figure}{\numberline {5}{\ignorespaces LLVM kullanan H\IeC {\i }zl\IeC {\i } Sorgu Yarat\IeC {\i }m\IeC {\i }n\IeC {\i }n Sorgu ve Derleme S\IeC {\"u}releri\relax }}{5}{figure.caption.5}}
\newlabel{fig:test}{{5}{5}{LLVM kullanan Hızlı Sorgu Yaratımının Sorgu ve Derleme Süreleri\relax }{figure.caption.5}{}}
\@writefile{toc}{\contentsline {paragraph}{\numberline {2.1.0.4}\IeC {\.I}li\IeC {\c s}kisel Cebir veya Sorgu Planlama \textit  {Relational Algebra or Query Planner}}{5}{paragraph.2.1.0.4}}
\citation{omnitechnical}
\citation{omnitechnical}
\citation{omnidocs}
\@writefile{lof}{\contentsline {figure}{\numberline {6}{\ignorespaces Sorgu Planlama ile Sorgunun Ba\IeC {\u g}\IeC {\i }ms\IeC {\i }z Par\IeC {\c c}alar haline getirilmesi \cite  {andypavlov}\relax }}{6}{figure.caption.6}}
\newlabel{fig:sub2}{{6}{6}{Sorgu Planlama ile Sorgunun Bağımsız Parçalar haline getirilmesi \cite {andypavlov}\relax }{figure.caption.6}{}}
\@writefile{toc}{\contentsline {subsubsection}{\numberline {2.1.1}Omni-Sci}{6}{subsubsection.2.1.1}}
\@writefile{lof}{\contentsline {figure}{\numberline {7}{\ignorespaces Omni-Sci Three-Tier Caching \relax }}{6}{figure.caption.7}}
\newlabel{fig:frog}{{7}{6}{Omni-Sci Three-Tier Caching \relax }{figure.caption.7}{}}
\@writefile{toc}{\contentsline {paragraph}{\numberline {2.1.1.1}Veri Yap\IeC {\i }lar\IeC {\i } ve Sorgu}{6}{paragraph.2.1.1.1}}
\@writefile{toc}{\contentsline {paragraph}{\numberline {2.1.1.2}Veri G\IeC {\"o}rselle\IeC {\c s}tirme}{6}{paragraph.2.1.1.2}}
\citation{kineticfaq}
\@writefile{lot}{\contentsline {table}{\numberline {1}{\ignorespaces Omni-Sci Veritaban\IeC {\i }n\IeC {\i }n Destekledi\IeC {\u g}i Veri Tipleri\relax }}{7}{table.caption.8}}
\@writefile{toc}{\contentsline {subsubsection}{\numberline {2.1.2}Kinetica}{7}{subsubsection.2.1.2}}
\@writefile{toc}{\contentsline {paragraph}{\numberline {2.1.2.1}Veri Yap\IeC {\i }lar\IeC {\i } ve Sorgu}{7}{paragraph.2.1.2.1}}
\@writefile{toc}{\contentsline {paragraph}{\numberline {2.1.2.2}Makine \IeC {\"O}\IeC {\u g}renmesi}{7}{paragraph.2.1.2.2}}
\citation{sqreamtechnical}
\citation{ibmzerocopy}
\newlabel{fig:sub1}{{8a}{8}{Sütun tabanlı veri depolama\relax }{figure.caption.9}{}}
\newlabel{sub@fig:sub1}{{a}{8}{Sütun tabanlı veri depolama\relax }{figure.caption.9}{}}
\newlabel{fig:sub2}{{8b}{8}{Sütunun sözlüklere sıkıştırılması\relax }{figure.caption.9}{}}
\newlabel{sub@fig:sub2}{{b}{8}{Sütunun sözlüklere sıkıştırılması\relax }{figure.caption.9}{}}
\newlabel{fig:test}{{\caption@xref {fig:test}{ on input line 279}}{8}{Makine Öğrenmesi}{figure.caption.9}{}}
\@writefile{toc}{\contentsline {subsubsection}{\numberline {2.1.3}SQream}{8}{subsubsection.2.1.3}}
\@writefile{toc}{\contentsline {paragraph}{\numberline {2.1.3.1}Zero-Copy Read}{8}{paragraph.2.1.3.1}}
\newlabel{fig:sub1}{{9a}{8}{Geleneksel Veri Kopyalama\relax }{figure.caption.10}{}}
\newlabel{sub@fig:sub1}{{a}{8}{Geleneksel Veri Kopyalama\relax }{figure.caption.10}{}}
\newlabel{fig:sub2}{{9b}{8}{Geleneksel Bağlam Değiştirme \textit {(Context Switching)}\relax }{figure.caption.10}{}}
\newlabel{sub@fig:sub2}{{b}{8}{Geleneksel Bağlam Değiştirme \textit {(Context Switching)}\relax }{figure.caption.10}{}}
\newlabel{fig:test}{{\caption@xref {fig:test}{ on input line 301}}{8}{Zero-Copy Read}{figure.caption.10}{}}
\citation{sqreamscales}
\citation{sqreamzonemap}
\newlabel{fig:sub1}{{10a}{9}{Zero-Copy Read Veri Kopyalama\relax }{figure.caption.11}{}}
\newlabel{sub@fig:sub1}{{a}{9}{Zero-Copy Read Veri Kopyalama\relax }{figure.caption.11}{}}
\newlabel{fig:sub2}{{10b}{9}{Zero-Copy Read Bağlam Değiştirme \textit {(Context Switching)}\relax }{figure.caption.11}{}}
\newlabel{sub@fig:sub2}{{b}{9}{Zero-Copy Read Bağlam Değiştirme \textit {(Context Switching)}\relax }{figure.caption.11}{}}
\newlabel{fig:test}{{\caption@xref {fig:test}{ on input line 318}}{9}{Zero-Copy Read}{figure.caption.11}{}}
\@writefile{lof}{\contentsline {figure}{\numberline {11}{\ignorespaces Zero-Copy Read, S\IeC {\i }k\IeC {\i }\IeC {\c s}t\IeC {\i }rma, \IeC {\.I}ndekssiz i\IeC {\c s}leme ve \IeC {\.I}li\IeC {\c s}kisel Cebir Sorgu Planlama ile \IeC {\"O}l\IeC {\c c}eklenebilirlikde \textit  {State-of-Art} SQream \IeC {\"o}l\IeC {\c c}eklenmesi\relax }}{9}{figure.caption.12}}
\newlabel{fig:frog}{{11}{9}{Zero-Copy Read, Sıkıştırma, İndekssiz işleme ve İlişkisel Cebir Sorgu Planlama ile Ölçeklenebilirlikde \textit {State-of-Art} SQream ölçeklenmesi\relax }{figure.caption.12}{}}
\@writefile{toc}{\contentsline {paragraph}{\numberline {2.1.3.2}Zone-Map Index}{9}{paragraph.2.1.3.2}}
\@writefile{lof}{\contentsline {figure}{\numberline {12}{\ignorespaces Zone-Map \IeC {\.I}ndeks \IeC {\.I}le \IeC {\.I}\IeC {\c c}inde \IeC {\.I}stenen Sonu\IeC {\c c} Bulunmayan Paketlerin atlanmas\IeC {\i } \textit  {State-of-Art} SQream \IeC {\"o}l\IeC {\c c}eklenmesi\relax }}{10}{figure.caption.13}}
\newlabel{fig:frog}{{12}{10}{Zone-Map İndeks İle İçinde İstenen Sonuç Bulunmayan Paketlerin atlanması \textit {State-of-Art} SQream ölçeklenmesi\relax }{figure.caption.13}{}}
\@writefile{toc}{\contentsline {section}{\numberline {3}IDP}{10}{section.3}}
\@writefile{toc}{\contentsline {subsection}{\numberline {3.1}IDP VERI YUKLEMESI \textit  {Ingest}}{10}{subsection.3.1}}
\@writefile{loa}{\contentsline {algocf}{\numberline {1}{\ignorespaces IDP Dosyadan Veri Yukleme\relax }}{10}{algocf.1}}
\bibstyle{unsrt}
\bibcite{hhtap}{1}
\@writefile{lof}{\contentsline {figure}{\numberline {13}{\ignorespaces IDP S\IeC {\"u}tun Format\IeC {\i }nda Veri Y\IeC {\"u}klemesi\relax }}{11}{figure.caption.14}}
\newlabel{fig:frog}{{13}{11}{IDP Sütun Formatında Veri Yüklemesi\relax }{figure.caption.14}{}}
\@writefile{toc}{\contentsline {subsection}{\numberline {3.2}IDP ENDEKS\IeC {\.I}}{11}{subsection.3.2}}
\@writefile{toc}{\contentsline {subsection}{\numberline {3.3}IDP SORGUSU}{11}{subsection.3.3}}
\@writefile{lof}{\contentsline {figure}{\numberline {14}{\ignorespaces \relax }}{11}{figure.caption.15}}
\newlabel{fig:frog}{{14}{11}{\relax }{figure.caption.15}{}}
\@writefile{toc}{\contentsline {section}{\numberline {4}Sonu\IeC {\c c}}{11}{section.4}}
\bibcite{datawarehouse}{2}
\bibcite{conn}{3}
\bibcite{zheng2018database}{4}
\bibcite{praveen}{5}
\bibcite{nosqls}{6}
\bibcite{nosqls2}{7}
\bibcite{moneytalks}{8}
\bibcite{hybridworkloadgpu}{9}
\bibcite{apache}{10}
\bibcite{andypavlov}{11}
\bibcite{omnitechnical}{12}
\bibcite{omnidocs}{13}
\bibcite{kineticfaq}{14}
\bibcite{kinetictechnical}{15}
\bibcite{sqreamtechnical}{16}
\bibcite{ibmzerocopy}{17}
\bibcite{sqreamscales}{18}
\bibcite{sqreamzonemap}{19}
