20483
1024
181272
38915
9216
0
0
0
0
80908
0
1024
0
7168
1024
33798
4096
0
0
0
20481
1024
181256
38913
9216
0
0
0
0
72708
0
1024
0
7168
1024
33794
4096
0
0
0
20484
1024
181280
38916
9216
0
0
0
0
80912
0
1024
0
7168
1024
33800
4096
0
0
0
20482
1024
181264
38914
9216
0
0
0
0
80904
0
1024
0
7168
1024
33796
4096
0
0
0
20482
1024
181264
38914
9216
0
0
0
0
72712
0
1024
0
7168
1024
33796
4096
0
0
0
20482
1024
181264
38914
9216
0
0
0
0
72712
0
1024
0
7168
1024
33796
4096
0
0
0
20482
1024
181264
38914
9216
0
0
0
0
80904
0
1024
0
7168
1024
33796
4096
0
0
0
20481
1024
181256
38913
9216
0
0
0
0
72708
0
1024
0
7168
1024
33794
4096
0
0
0
20480
1024
181248
38912
9216
0
0
0
0
72704
0
1024
0
7168
1024
33792
4096
0
0
0
20483
1024
181272
38915
9216
0
0
0
0
72716
0
1024
0
7168
1024
33798
4096
0
0
0
20483
1024
181272
38915
9216
0
0
0
0
80908
0
1024
0
7168
1024
33798
4096
0
0
0
20483
1024
181272
38915
9216
0
0
0
0
72716
0
1024
0
7168
1024
33798
4096
0
0
0
20484
1024
181280
38916
9216
0
0
0
0
80912
0
1024
0
7168
1024
33800
4096
0
0
0
20480
1024
181248
38912
9216
0
0
0
0
72704
0
1024
0
7168
1024
33792
4096
0
0
0
20484
1024
181280
38916
9216
0
0
0
0
80912
0
1024
0
7168
1024
33800
4096
0
0
0
20485
1024
181288
38917
9216
0
0
0
0
80916
0
1024
0
7168
1024
33802
4096
0
0
0
20482
1024
181264
38914
9216
0
0
0
0
80904
0
1024
0
7168
1024
33796
4096
0
0
0
20484
1024
181280
38916
9216
0
0
0
0
80912
0
1024
0
7168
1024
33800
4096
0
0
0
20485
1024
181288
38917
9216
0
0
0
0
80916
0
1024
0
7168
1024
33802
4096
0
0
0
20482
1024
181264
38914
9216
0
0
0
0
72712
0
1024
0
7168
1024
33796
4096
0
0
0
20482
1024
181264
38914
9216
0
0
0
0
80904
0
1024
0
7168
1024
33796
4096
0
0
0
20483
1024
181272
38915
9216
0
0
0
0
80908
0
1024
0
7168
1024
33798
4096
0
0
0
20483
1024
181272
38915
9216
0
0
0
0
80908
0
1024
0
7168
1024
33798
4096
0
0
0
20481
1024
181256
38913
9216
0
0
0
0
80900
0
1024
0
7168
1024
33794
4096
0
0
0
20482
1024
181264
38914
9216
0
0
0
0
72712
0
1024
0
7168
1024
33796
4096
0
0
0
20480
1024
181248
38912
9216
0
0
0
0
72704
0
1024
0
7168
1024
33792
4096
0
0
0
20481
1024
181256
38913
9216
0
0
0
0
72708
0
1024
0
7168
1024
33794
4096
0
0
0
20483
1024
181272
38915
9216
0
0
0
0
80908
0
1024
0
7168
1024
33798
4096
0
0
0
20483
1024
181272
38915
9216
0
0
0
0
80908
0
1024
0
7168
1024
33798
4096
0
0
0
20481
1024
181256
38913
9216
0
0
0
0
72708
0
1024
0
7168
1024
33794
4096
0
0
0
20486
1024
181296
38918
9216
0
0
0
0
80920
0
1024
0
7168
1024
33804
4096
0
0
0
20483
1024
181272
38915
9216
0
0
0
0
80908
0
1024
0
7168
1024
33798
4096
0
0
0
20481
1024
181256
38913
9216
0
0
0
0
72708
0
1024
0
7168
1024
33794
4096
0
0
0
20486
1024
181296
38918
9216
0
0
0
0
80920
0
1024
0
7168
1024
33804
4096
0
0
0
20482
1024
181264
38914
9216
0
0
0
0
72712
0
1024
0
7168
1024
33796
4096
0
0
0
20483
1024
181272
38915
9216
0
0
0
0
80908
0
1024
0
7168
1024
33798
4096
0
0
0
20482
1024
181264
38914
9216
0
0
0
0
80904
0
1024
0
7168
1024
33796
4096
0
0
0
20484
1024
181280
38916
9216
0
0
0
0
72720
0
1024
0
7168
1024
33800
4096
0
0
0
20483
1024
181272
38915
9216
0
0
0
0
72716
0
1024
0
7168
1024
33798
4096
0
0
0
20481
1024
181256
38913
9216
0
0
0
0
72708
0
1024
0
7168
1024
33794
4096
0
0
0
20485
1024
181288
38917
9216
0
0
0
0
80916
0
1024
0
7168
1024
33802
4096
0
0
0
20483
1024
181272
38915
9216
0
0
0
0
80908
0
1024
0
7168
1024
33798
4096
0
0
0
20485
1024
181288
38917
9216
0
0
0
0
80916
0
1024
0
7168
1024
33802
4096
0
0
0
20491
1024
181336
38923
9216
0
0
0
0
80940
0
1024
0
7168
1024
33814
4096
0
0
0
20484
1024
181280
38916
9216
0
0
0
0
72720
0
1024
0
7168
1024
33800
4096
0
0
0
20483
1024
181272
38915
9216
0
0
0
0
80908
0
1024
0
7168
1024
33798
4096
0
0
0
20483
1024
181272
38915
9216
0
0
0
0
80908
0
1024
0
7168
1024
33798
4096
0
0
0
20484
1024
181280
38916
9216
0
0
0
0
80912
0
1024
0
7168
1024
33800
4096
0
0
0
20481
1024
181256
38913
9216
0
0
0
0
72708
0
1024
0
7168
1024
33794
4096
0
0
0
20482
1024
181264
38914
9216
0
0
0
0
80904
0
1024
0
7168
1024
33796
4096
0
0
0
20484
1024
181280
38916
9216
0
0
0
0
89104
0
1024
0
7168
1024
33800
4096
0
0
0
20485
1024
181288
38917
9216
0
0
0
0
80916
0
1024
0
7168
1024
33802
4096
0
0
0
20481
1024
181256
38913
9216
0
0
0
0
72708
0
1024
0
7168
1024
33794
4096
0
0
0
20483
1024
181272
38915
9216
0
0
0
0
80908
0
1024
0
7168
1024
33798
4096
0
0
0
20485
1024
181288
38917
9216
0
0
0
0
80916
0
1024
0
7168
1024
33802
4096
0
0
0
20483
1024
181272
38915
9216
0
0
0
0
80908
0
1024
0
7168
1024
33798
4096
0
0
0
20483
1024
181272
38915
9216
0
0
0
0
72716
0
1024
0
7168
1024
33798
4096
0
0
0
20483
1024
181272
38915
9216
0
0
0
0
80908
0
1024
0
7168
1024
33798
4096
0
0
0
20484
1024
181280
38916
9216
0
0
0
0
80912
0
1024
0
7168
1024
33800
4096
0
0
0
20484
1024
181280
38916
9216
0
0
0
0
80912
0
1024
0
7168
1024
33800
4096
0
0
0
20485
1024
181288
38917
9216
0
0
0
0
80916
0
1024
0
7168
1024
33802
4096
0
0
0
20484
1024
181280
38916
9216
0
0
0
0
80912
0
1024
0
7168
1024
33800
4096
0
0
0
20483
1024
181272
38915
9216
0
0
0
0
80908
0
1024
0
7168
1024
33798
4096
0
0
0
20481
1024
181256
38913
9216
0
0
0
0
72708
0
1024
0
7168
1024
33794
4096
0
0
0
20484
1024
181280
38916
9216
0
0
0
0
72720
0
1024
0
7168
1024
33800
4096
0
0
0
20485
1024
181288
38917
9216
0
0
0
0
80916
0
1024
0
7168
1024
33802
4096
0
0
0
20486
1024
181296
38918
9216
0
0
0
0
80920
0
1024
0
7168
1024
33804
4096
0
0
0
20482
1024
181264
38914
9216
0
0
0
0
72712
0
1024
0
7168
1024
33796
4096
0
0
0
20482
1024
181264
38914
9216
0
0
0
0
72712
0
1024
0
7168
1024
33796
4096
0
0
0
20482
1024
181264
38914
9216
0
0
0
0
72712
0
1024
0
7168
1024
33796
4096
0
0
0
20484
1024
181280
38916
9216
0
0
0
0
72720
0
1024
0
7168
1024
33800
4096
0
0
0
20485
1024
181288
38917
9216
0
0
0
0
80916
0
1024
0
7168
1024
33802
4096
0
0
0
20483
1024
181272
38915
9216
0
0
0
0
80908
0
1024
0
7168
1024
33798
4096
0
0
0
20486
1024
181296
38918
9216
0
0
0
0
80920
0
1024
0
7168
1024
33804
4096
0
0
0
20486
1024
181296
38918
9216
0
0
0
0
80920
0
1024
0
7168
1024
33804
4096
0
0
0
20481
1024
181256
38913
9216
0
0
0
0
72708
0
1024
0
7168
1024
33794
4096
0
0
0
20481
1024
181256
38913
9216
0
0
0
0
72708
0
1024
0
7168
1024
33794
4096
0
0
0
20482
1024
181264
38914
9216
0
0
0
0
80904
0
1024
0
7168
1024
33796
4096
0
0
0
20486
1024
181296
38918
9216
0
0
0
0
72728
0
1024
0
7168
1024
33804
4096
0
0
0
20481
1024
181256
38913
9216
0
0
0
0
72708
0
1024
0
7168
1024
33794
4096
0
0
0
20484
1024
181280
38916
9216
0
0
0
0
80912
0
1024
0
7168
1024
33800
4096
0
0
0
20482
1024
181264
38914
9216
0
0
0
0
80904
0
1024
0
7168
1024
33796
4096
0
0
0
20482
1024
181264
38914
9216
0
0
0
0
72712
0
1024
0
7168
1024
33796
4096
0
0
0
20486
1024
181296
38918
9216
0
0
0
0
80920
0
1024
0
7168
1024
33804
4096
0
0
0
20483
1024
181272
38915
9216
0
0
0
0
80908
0
1024
0
7168
1024
33798
4096
0
0
0
20483
1024
181272
38915
9216
0
0
0
0
72716
0
1024
0
7168
1024
33798
4096
0
0
0
20482
1024
181264
38914
9216
0
0
0
0
72712
0
1024
0
7168
1024
33796
4096
0
0
0
20484
1024
181280
38916
9216
0
0
0
0
80912
0
1024
0
7168
1024
33800
4096
0
0
0
20485
1024
181288
38917
9216
0
0
0
0
80916
0
1024
0
7168
1024
33802
4096
0
0
0
20483
1024
181272
38915
9216
0
0
0
0
72716
0
1024
0
7168
1024
33798
4096
0
0
0
20482
1024
181264
38914
9216
0
0
0
0
80904
0
1024
0
7168
1024
33796
4096
0
0
0
20481
1024
181256
38913
9216
0
0
0
0
80900
0
1024
0
7168
1024
33794
4096
0
0
0
20483
1024
181272
38915
9216
0
0
0
0
72716
0
1024
0
7168
1024
33798
4096
0
0
0
20482
1024
181264
38914
9216
0
0
0
0
72712
0
1024
0
7168
1024
33796
4096
0
0
0
20485
1024
181288
38917
9216
0
0
0
0
80916
0
1024
0
7168
1024
33802
4096
0
0
0
20482
1024
181264
38914
9216
0
0
0
0
80904
0
1024
0
7168
1024
33796
4096
0
0
0
20481
1024
181256
38913
9216
0
0
0
0
80900
0
1024
0
7168
1024
33794
4096
0
0
0
20484
1024
181280
38916
9216
0
0
0
0
80912
0
1024
0
7168
1024
33800
4096
0
0
0
20485
1024
181288
38917
9216
0
0
0
0
72724
0
1024
0
7168
1024
33802
4096
0
0
0
20481
1024
181256
38913
9216
0
0
0
0
80900
0
1024
0
7168
1024
33794
4096
0
0
0
20486
1024
181296
38918
9216
0
0
0
0
80920
0
1024
0
7168
1024
33804
4096
0
0
0
20480
1024
181248
38912
9216
0
0
0
0
72704
0
1024
0
7168
1024
33792
4096
0
0
0
20483
1024
181272
38915
9216
0
0
0
0
72716
0
1024
0
7168
1024
33798
4096
0
0
0
20483
1024
181272
38915
9216
0
0
0
0
80908
0
1024
0
7168
1024
33798
4096
0
0
0
20481
1024
181256
38913
9216
0
0
0
0
72708
0
1024
0
7168
1024
33794
4096
0
0
0
20485
1024
181288
38917
9216
0
0
0
0
72724
0
1024
0
7168
1024
33802
4096
0
0
0
20481
1024
181256
38913
9216
0
0
0
0
80900
0
1024
0
7168
1024
33794
4096
0
0
0
20487
1024
181304
38919
9216
0
0
0
0
80924
0
1024
0
7168
1024
33806
4096
0
0
0
20485
1024
181288
38917
9216
0
0
0
0
80916
0
1024
0
7168
1024
33802
4096
0
0
0
20484
1024
181280
38916
9216
0
0
0
0
72720
0
1024
0
7168
1024
33800
4096
0
0
0
20484
1024
181280
38916
9216
0
0
0
0
80912
0
1024
0
7168
1024
33800
4096
0
0
0
20484
1024
181280
38916
9216
0
0
0
0
80912
0
1024
0
7168
1024
33800
4096
0
0
0
20486
1024
181296
38918
9216
0
0
0
0
80920
0
1024
0
7168
1024
33804
4096
0
0
0
20483
1024
181272
38915
9216
0
0
0
0
80908
0
1024
0
7168
1024
33798
4096
0
0
0
20484
1024
181280
38916
9216
0
0
0
0
80912
0
1024
0
7168
1024
33800
4096
0
0
0
20483
1024
181272
38915
9216
0
0
0
0
80908
0
1024
0
7168
1024
33798
4096
0
0
0
20483
1024
181272
38915
9216
0
0
0
0
72716
0
1024
0
7168
1024
33798
4096
0
0
0
20481
1024
181256
38913
9216
0
0
0
0
72708
0
1024
0
7168
1024
33794
4096
0
0
0
20482
1024
181264
38914
9216
0
0
0
0
80904
0
1024
0
7168
1024
33796
4096
0
0
0
20480
1024
181248
38912
9216
0
0
0
0
72704
0
1024
0
7168
1024
33792
4096
0
0
0
20483
1024
181272
38915
9216
0
0
0
0
80908
0
1024
0
7168
1024
33798
4096
0
0
0
20485
1024
181288
38917
9216
0
0
0
0
80916
0
1024
0
7168
1024
33802
4096
0
0
0
20480
1024
181248
38912
9216
0
0
0
0
72704
0
1024
0
7168
1024
33792
4096
0
0
0
20482
1024
181264
38914
9216
0
0
0
0
72712
0
1024
0
7168
1024
33796
4096
0
0
0
20481
1024
181256
38913
9216
0
0
0
0
80900
0
1024
0
7168
1024
33794
4096
0
0
0
20485
1024
181288
38917
9216
0
0
0
0
80916
0
1024
0
7168
1024
33802
4096
0
0
0
20484
1024
181280
38916
9216
0
0
0
0
80912
0
1024
0
7168
1024
33800
4096
0
0
0
20481
1024
181256
38913
9216
0
0
0
0
80900
0
1024
0
7168
1024
33794
4096
0
0
0
20482
1024
181264
38914
9216
0
0
0
0
80904
0
1024
0
7168
1024
33796
4096
0
0
0
20484
1024
181280
38916
9216
0
0
0
0
80912
0
1024
0
7168
1024
33800
4096
0
0
0
20480
1024
181248
38912
9216
0
0
0
0
72704
0
1024
0
7168
1024
33792
4096
0
0
0
20483
1024
181272
38915
9216
0
0
0
0
80908
0
1024
0
7168
1024
33798
4096
0
0
0
20482
1024
181264
38914
9216
0
0
0
0
80904
0
1024
0
7168
1024
33796
4096
0
0
0
20481
1024
181256
38913
9216
0
0
0
0
72708
0
1024
0
7168
1024
33794
4096
0
0
0
20488
1024
181312
38920
9216
0
0
0
0
80928
0
1024
0
7168
1024
33808
4096
0
0
0
20483
1024
181272
38915
9216
0
0
0
0
72716
0
1024
0
7168
1024
33798
4096
0
0
0
20483
1024
181272
38915
9216
0
0
0
0
72716
0
1024
0
7168
1024
33798
4096
0
0
0
20482
1024
181264
38914
9216
0
0
0
0
72712
0
1024
0
7168
1024
33796
4096
0
0
0
20485
1024
181288
38917
9216
0
0
0
0
80916
0
1024
0
7168
1024
33802
4096
0
0
0
20485
1024
181288
38917
9216
0
0
0
0
80916
0
1024
0
7168
1024
33802
4096
0
0
0
20484
1024
181280
38916
9216
0
0
0
0
80912
0
1024
0
7168
1024
33800
4096
0
0
0
20485
1024
181288
38917
9216
0
0
0
0
89108
0
1024
0
7168
1024
33802
4096
0
0
0
20485
1024
181288
38917
9216
0
0
0
0
89108
0
1024
0
7168
1024
33802
4096
0
0
0
20482
1024
181264
38914
9216
0
0
0
0
72712
0
1024
0
7168
1024
33796
4096
0
0
0
20483
1024
181272
38915
9216
0
0
0
0
80908
0
1024
0
7168
1024
33798
4096
0
0
0
20481
1024
181256
38913
9216
0
0
0
0
72708
0
1024
0
7168
1024
33794
4096
0
0
0
20481
1024
181256
38913
9216
0
0
0
0
72708
0
1024
0
7168
1024
33794
4096
0
0
0
20485
1024
181288
38917
9216
0
0
0
0
80916
0
1024
0
7168
1024
33802
4096
0
0
0
20482
1024
181264
38914
9216
0
0
0
0
80904
0
1024
0
7168
1024
33796
4096
0
0
0
20484
1024
181280
38916
9216
0
0
0
0
80912
0
1024
0
7168
1024
33800
4096
0
0
0
20483
1024
181272
38915
9216
0
0
0
0
80908
0
1024
0
7168
1024
33798
4096
0
0
0
20481
1024
181256
38913
9216
0
0
0
0
72708
0
1024
0
7168
1024
33794
4096
0
0
0
20482
1024
181264
38914
9216
0
0
0
0
72712
0
1024
0
7168
1024
33796
4096
0
0
0
20482
1024
181264
38914
9216
0
0
0
0
80904
0
1024
0
7168
1024
33796
4096
0
0
0
20488
1024
181312
38920
9216
0
0
0
0
80928
0
1024
0
7168
1024
33808
4096
0
0
0
20484
1024
181280
38916
9216
0
0
0
0
80912
0
1024
0
7168
1024
33800
4096
0
0
0
20484
1024
181280
38916
9216
0
0
0
0
80912
0
1024
0
7168
1024
33800
4096
0
0
0
20482
1024
181264
38914
9216
0
0
0
0
72712
0
1024
0
7168
1024
33796
4096
0
0
0
20482
1024
181264
38914
9216
0
0
0
0
72712
0
1024
0
7168
1024
33796
4096
0
0
0
20484
1024
181280
38916
9216
0
0
0
0
80912
0
1024
0
7168
1024
33800
4096
0
0
0
20482
1024
181264
38914
9216
0
0
0
0
80904
0
1024
0
7168
1024
33796
4096
0
0
0
20484
1024
181280
38916
9216
0
0
0
0
80912
0
1024
0
7168
1024
33800
4096
0
0
0
20481
1024
181256
38913
9216
0
0
0
0
72708
0
1024
0
7168
1024
33794
4096
0
0
0
20484
1024
181280
38916
9216
0
0
0
0
80912
0
1024
0
7168
1024
33800
4096
0
0
0
20482
1024
181264
38914
9216
0
0
0
0
80904
0
1024
0
7168
1024
33796
4096
0
0
0
20483
1024
181272
38915
9216
0
0
0
0
80908
0
1024
0
7168
1024
33798
4096
0
0
0
20484
1024
181280
38916
9216
0
0
0
0
80912
0
1024
0
7168
1024
33800
4096
0
0
0
20482
1024
181264
38914
9216
0
0
0
0
72712
0
1024
0
7168
1024
33796
4096
0
0
0
20483
1024
181272
38915
9216
0
0
0
0
80908
0
1024
0
7168
1024
33798
4096
0
0
0
20483
1024
181272
38915
9216
0
0
0
0
80908
0
1024
0
7168
1024
33798
4096
0
0
0
20488
1024
181312
38920
9216
0
0
0
0
80928
0
1024
0
7168
1024
33808
4096
0
0
0
20483
1024
181272
38915
9216
0
0
0
0
80908
0
1024
0
7168
1024
33798
4096
0
0
0
20481
1024
181256
38913
9216
0
0
0
0
72708
0
1024
0
7168
1024
33794
4096
0
0
0
20483
1024
181272
38915
9216
0
0
0
0
80908
0
1024
0
7168
1024
33798
4096
0
0
0
20481
1024
181256
38913
9216
0
0
0
0
72708
0
1024
0
7168
1024
33794
4096
0
0
0
20486
1024
181296
38918
9216
0
0
0
0
80920
0
1024
0
7168
1024
33804
4096
0
0
0
20482
1024
181264
38914
9216
0
0
0
0
80904
0
1024
0
7168
1024
33796
4096
0
0
0
20481
1024
181256
38913
9216
0
0
0
0
72708
0
1024
0
7168
1024
33794
4096
0
0
0
20482
1024
181264
38914
9216
0
0
0
0
80904
0
1024
0
7168
1024
33796
4096
0
0
0
20480
1024
181248
38912
9216
0
0
0
0
72704
0
1024
0
7168
1024
33792
4096
0
0
0
20483
1024
181272
38915
9216
0
0
0
0
80908
0
1024
0
7168
1024
33798
4096
0
0
0
20481
1024
181256
38913
9216
0
0
0
0
80900
0
1024
0
7168
1024
33794
4096
0
0
0
20480
1024
181248
38912
9216
0
0
0
0
72704
0
1024
0
7168
1024
33792
4096
0
0
0
20484
1024
181280
38916
9216
0
0
0
0
80912
0
1024
0
7168
1024
33800
4096
0
0
0
20484
1024
181280
38916
9216
0
0
0
0
80912
0
1024
0
7168
1024
33800
4096
0
0
0
20481
1024
181256
38913
9216
0
0
0
0
80900
0
1024
0
7168
1024
33794
4096
0
0
0
20481
1024
181256
38913
9216
0
0
0
0
72708
0
1024
0
7168
1024
33794
4096
0
0
0
20481
1024
181256
38913
9216
0
0
0
0
72708
0
1024
0
7168
1024
33794
4096
0
0
0
20485
1024
181288
38917
9216
0
0
0
0
80916
0
1024
0
7168
1024
33802
4096
0
0
0
20483
1024
181272
38915
9216
0
0
0
0
72716
0
1024
0
7168
1024
33798
4096
0
0
0
20483
1024
181272
38915
9216
0
0
0
0
72716
0
1024
0
7168
1024
33798
4096
0
0
0
20483
1024
181272
38915
9216
0
0
0
0
72716
0
1024
0
7168
1024
33798
4096
0
0
0
20480
1024
181248
38912
9216
0
0
0
0
72704
0
1024
0
7168
1024
33792
4096
0
0
0
20484
1024
181280
38916
9216
0
0
0
0
80912
0
1024
0
7168
1024
33800
4096
0
0
0
20481
1024
181256
38913
9216
0
0
0
0
72708
0
1024
0
7168
1024
33794
4096
0
0
0
20484
1024
181280
38916
9216
0
0
0
0
80912
0
1024
0
7168
1024
33800
4096
0
0
0
20486
1024
181296
38918
9216
0
0
0
0
80920
0
1024
0
7168
1024
33804
4096
0
0
0
20487
1024
181304
38919
9216
0
0
0
0
80924
0
1024
0
7168
1024
33806
4096
0
0
0
20480
1024
181248
38912
9216
0
0
0
0
72704
0
1024
0
7168
1024
33792
4096
0
0
0
20480
1024
181248
38912
9216
0
0
0
0
72704
0
1024
0
7168
1024
33792
4096
0
0
0
20482
1024
181264
38914
9216
0
0
0
0
80904
0
1024
0
7168
1024
33796
4096
0
0
0
20484
1024
181280
38916
9216
0
0
0
0
80912
0
1024
0
7168
1024
33800
4096
0
0
0
20481
1024
181256
38913
9216
0
0
0
0
72708
0
1024
0
7168
1024
33794
4096
0
0
0
20483
1024
181272
38915
9216
0
0
0
0
72716
0
1024
0
7168
1024
33798
4096
0
0
0
20484
1024
181280
38916
9216
0
0
0
0
80912
0
1024
0
7168
1024
33800
4096
0
0
0
20484
1024
181280
38916
9216
0
0
0
0
72720
0
1024
0
7168
1024
33800
4096
0
0
0
20483
1024
181272
38915
9216
0
0
0
0
80908
0
1024
0
7168
1024
33798
4096
0
0
0
20483
1024
181272
38915
9216
0
0
0
0
89100
0
1024
0
7168
1024
33798
4096
0
0
0
20481
1024
181256
38913
9216
0
0
0
0
80900
0
1024
0
7168
1024
33794
4096
0
0
0
20489
1024
181320
38921
9216
0
0
0
0
89124
0
1024
0
7168
1024
33810
4096
0
0
0
20482
1024
181264
38914
9216
0
0
0
0
80904
0
1024
0
7168
1024
33796
4096
0
0
0
20480
1024
181248
38912
9216
0
0
0
0
72704
0
1024
0
7168
1024
33792
4096
0
0
0
20483
1024
181272
38915
9216
0
0
0
0
80908
0
1024
0
7168
1024
33798
4096
0
0
0
20486
1024
181296
38918
9216
0
0
0
0
80920
0
1024
0
7168
1024
33804
4096
0
0
0
20483
1024
181272
38915
9216
0
0
0
0
72716
0
1024
0
7168
1024
33798
4096
0
0
0
20486
1024
181296
38918
9216
0
0
0
0
80920
0
1024
0
7168
1024
33804
4096
0
0
0
20483
1024
181272
38915
9216
0
0
0
0
72716
0
1024
0
7168
1024
33798
4096
0
0
0
20480
1024
181248
38912
9216
0
0
0
0
72704
0
1024
0
7168
1024
33792
4096
0
0
0
20482
1024
181264
38914
9216
0
0
0
0
80904
0
1024
0
7168
1024
33796
4096
0
0
0
20481
1024
181256
38913
9216
0
0
0
0
80900
0
1024
0
7168
1024
33794
4096
0
0
0
20481
1024
181256
38913
9216
0
0
0
0
72708
0
1024
0
7168
1024
33794
4096
0
0
0
20482
1024
181264
38914
9216
0
0
0
0
80904
0
1024
0
7168
1024
33796
4096
0
0
0
20483
1024
181272
38915
9216
0
0
0
0
80908
0
1024
0
7168
1024
33798
4096
0
0
0
20484
1024
181280
38916
9216
0
0
0
0
80912
0
1024
0
7168
1024
33800
4096
0
0
0
20483
1024
181272
38915
9216
0
0
0
0
80908
0
1024
0
7168
1024
33798
4096
0
0
0
20482
1024
181264
38914
9216
0
0
0
0
72712
0
1024
0
7168
1024
33796
4096
0
0
0
20484
1024
181280
38916
9216
0
0
0
0
80912
0
1024
0
7168
1024
33800
4096
0
0
0
20481
1024
181256
38913
9216
0
0
0
0
72708
0
1024
0
7168
1024
33794
4096
0
0
0
20487
1024
181304
38919
9216
0
0
0
0
80924
0
1024
0
7168
1024
33806
4096
0
0
0
20483
1024
181272
38915
9216
0
0
0
0
80908
0
1024
0
7168
1024
33798
4096
0
0
0
20485
1024
181288
38917
9216
0
0
0
0
80916
0
1024
0
7168
1024
33802
4096
0
0
0
20482
1024
181264
38914
9216
0
0
0
0
80904
0
1024
0
7168
1024
33796
4096
0
0
0
20483
1024
181272
38915
9216
0
0
0
0
72716
0
1024
0
7168
1024
33798
4096
0
0
0
20483
1024
181272
38915
9216
0
0
0
0
80908
0
1024
0
7168
1024
33798
4096
0
0
0
20485
1024
181288
38917
9216
0
0
0
0
80916
0
1024
0
7168
1024
33802
4096
0
0
0
20483
1024
181272
38915
9216
0
0
0
0
80908
0
1024
0
7168
1024
33798
4096
0
0
0
20482
1024
181264
38914
9216
0
0
0
0
72712
0
1024
0
7168
1024
33796
4096
0
0
0
20483
1024
181272
38915
9216
0
0
0
0
80908
0
1024
0
7168
1024
33798
4096
0
0
0
20486
1024
181296
38918
9216
0
0
0
0
89112
0
1024
0
7168
1024
33804
4096
0
0
0
20484
1024
181280
38916
9216
0
0
0
0
80912
0
1024
0
7168
1024
33800
4096
0
0
0
20485
1024
181288
38917
9216
0
0
0
0
80916
0
1024
0
7168
1024
33802
4096
0
0
0
20484
1024
181280
38916
9216
0
0
0
0
80912
0
1024
0
7168
1024
33800
4096
0
0
0
20485
1024
181288
38917
9216
0
0
0
0
72724
0
1024
0
7168
1024
33802
4096
0
0
0
20482
1024
181264
38914
9216
0
0
0
0
80904
0
1024
0
7168
1024
33796
4096
0
0
0
20485
1024
181288
38917
9216
0
0
0
0
80916
0
1024
0
7168
1024
33802
4096
0
0
0
20481
1024
181256
38913
9216
0
0
0
0
80900
0
1024
0
7168
1024
33794
4096
0
0
0
20483
1024
181272
38915
9216
0
0
0
0
72716
0
1024
0
7168
1024
33798
4096
0
0
0
20481
1024
181256
38913
9216
0
0
0
0
72708
0
1024
0
7168
1024
33794
4096
0
0
0
20484
1024
181280
38916
9216
0
0
0
0
80912
0
1024
0
7168
1024
33800
4096
0
0
0
20487
1024
181304
38919
9216
0
0
0
0
80924
0
1024
0
7168
1024
33806
4096
0
0
0
20483
1024
181272
38915
9216
0
0
0
0
80908
0
1024
0
7168
1024
33798
4096
0
0
0
20481
1024
181256
38913
9216
0
0
0
0
72708
0
1024
0
7168
1024
33794
4096
0
0
0
20485
1024
181288
38917
9216
0
0
0
0
80916
0
1024
0
7168
1024
33802
4096
0
0
0
20481
1024
181256
38913
9216
0
0
0
0
72708
0
1024
0
7168
1024
33794
4096
0
0
0
20483
1024
181272
38915
9216
0
0
0
0
72716
0
1024
0
7168
1024
33798
4096
0
0
0
20484
1024
181280
38916
9216
0
0
0
0
80912
0
1024
0
7168
1024
33800
4096
0
0
0
20483
1024
181272
38915
9216
0
0
0
0
80908
0
1024
0
7168
1024
33798
4096
0
0
0
20483
1024
181272
38915
9216
0
0
0
0
80908
0
1024
0
7168
1024
33798
4096
0
0
0
20482
1024
181264
38914
9216
0
0
0
0
80904
0
1024
0
7168
1024
33796
4096
0
0
0
20487
1024
181304
38919
9216
0
0
0
0
80924
0
1024
0
7168
1024
33806
4096
0
0
0
20482
1024
181264
38914
9216
0
0
0
0
80904
0
1024
0
7168
1024
33796
4096
0
0
0
20482
1024
181264
38914
9216
0
0
0
0
80904
0
1024
0
7168
1024
33796
4096
0
0
0
20482
1024
181264
38914
9216
0
0
0
0
80904
0
1024
0
7168
1024
33796
4096
0
0
0
20486
1024
181296
38918
9216
0
0
0
0
80920
0
1024
0
7168
1024
33804
4096
0
0
0
20482
1024
181264
38914
9216
0
0
0
0
80904
0
1024
0
7168
1024
33796
4096
0
0
0
20484
1024
181280
38916
9216
0
0
0
0
80912
0
1024
0
7168
1024
33800
4096
0
0
0
20484
1024
181280
38916
9216
0
0
0
0
80912
0
1024
0
7168
1024
33800
4096
0
0
0
20483
1024
181272
38915
9216
0
0
0
0
80908
0
1024
0
7168
1024
33798
4096
0
0
0
20480
1024
181248
38912
9216
0
0
0
0
72704
0
1024
0
7168
1024
33792
4096
0
0
0
20483
1024
181272
38915
9216
0
0
0
0
80908
0
1024
0
7168
1024
33798
4096
0
0
0
20483
1024
181272
38915
9216
0
0
0
0
72716
0
1024
0
7168
1024
33798
4096
0
0
0
20481
1024
181256
38913
9216
0
0
0
0
80900
0
1024
0
7168
1024
33794
4096
0
0
0
20481
1024
181256
38913
9216
0
0
0
0
72708
0
1024
0
7168
1024
33794
4096
0
0
0
20481
1024
181256
38913
9216
0
0
0
0
80900
0
1024
0
7168
1024
33794
4096
0
0
0
20483
1024
181272
38915
9216
0
0
0
0
80908
0
1024
0
7168
1024
33798
4096
0
0
0
20486
1024
181296
38918
9216
0
0
0
0
89112
0
1024
0
7168
1024
33804
4096
0
0
0
20483
1024
181272
38915
9216
0
0
0
0
80908
0
1024
0
7168
1024
33798
4096
0
0
0
20484
1024
181280
38916
9216
0
0
0
0
72720
0
1024
0
7168
1024
33800
4096
0
0
0
20481
1024
181256
38913
9216
0
0
0
0
80900
0
1024
0
7168
1024
33794
4096
0
0
0
20481
1024
181256
38913
9216
0
0
0
0
72708
0
1024
0
7168
1024
33794
4096
0
0
0
20485
1024
181288
38917
9216
0
0
0
0
80916
0
1024
0
7168
1024
33802
4096
0
0
0
20482
1024
181264
38914
9216
0
0
0
0
80904
0
1024
0
7168
1024
33796
4096
0
0
0
20481
1024
181256
38913
9216
0
0
0
0
72708
0
1024
0
7168
1024
33794
4096
0
0
0
20485
1024
181288
38917
9216
0
0
0
0
80916
0
1024
0
7168
1024
33802
4096
0
0
0
20483
1024
181272
38915
9216
0
0
0
0
72716
0
1024
0
7168
1024
33798
4096
0
0
0
20486
1024
181296
38918
9216
0
0
0
0
80920
0
1024
0
7168
1024
33804
4096
0
0
0
20483
1024
181272
38915
9216
0
0
0
0
80908
0
1024
0
7168
1024
33798
4096
0
0
0
20481
1024
181256
38913
9216
0
0
0
0
80900
0
1024
0
7168
1024
33794
4096
0
0
0
20485
1024
181288
38917
9216
0
0
0
0
80916
0
1024
0
7168
1024
33802
4096
0
0
0
20482
1024
181264
38914
9216
0
0
0
0
80904
0
1024
0
7168
1024
33796
4096
0
0
0
20480
1024
181248
38912
9216
0
0
0
0
72704
0
1024
0
7168
1024
33792
4096
0
0
0
20481
1024
181256
38913
9216
0
0
0
0
72708
0
1024
0
7168
1024
33794
4096
0
0
0
20482
1024
181264
38914
9216
0
0
0
0
80904
0
1024
0
7168
1024
33796
4096
0
0
0
20484
1024
181280
38916
9216
0
0
0
0
80912
0
1024
0
7168
1024
33800
4096
0
0
0
20481
1024
181256
38913
9216
0
0
0
0
72708
0
1024
0
7168
1024
33794
4096
0
0
0
20485
1024
181288
38917
9216
0
0
0
0
80916
0
1024
0
7168
1024
33802
4096
0
0
0
20483
1024
181272
38915
9216
0
0
0
0
80908
0
1024
0
7168
1024
33798
4096
0
0
0
20483
1024
181272
38915
9216
0
0
0
0
80908
0
1024
0
7168
1024
33798
4096
0
0
0
20481
1024
181256
38913
9216
0
0
0
0
72708
0
1024
0
7168
1024
33794
4096
0
0
0
20482
1024
181264
38914
9216
0
0
0
0
72712
0
1024
0
7168
1024
33796
4096
0
0
0
20480
1024
181248
38912
9216
0
0
0
0
72704
0
1024
0
7168
1024
33792
4096
0
0
0
20483
1024
181272
38915
9216
0
0
0
0
80908
0
1024
0
7168
1024
33798
4096
0
0
0
20482
1024
181264
38914
9216
0
0
0
0
72712
0
1024
0
7168
1024
33796
4096
0
0
0
20484
1024
181280
38916
9216
0
0
0
0
80912
0
1024
0
7168
1024
33800
4096
0
0
0
20480
1024
181248
38912
9216
0
0
0
0
72704
0
1024
0
7168
1024
33792
4096
0
0
0
20484
1024
181280
38916
9216
0
0
0
0
80912
0
1024
0
7168
1024
33800
4096
0
0
0
20482
1024
181264
38914
9216
0
0
0
0
72712
0
1024
0
7168
1024
33796
4096
0
0
0
20482
1024
181264
38914
9216
0
0
0
0
80904
0
1024
0
7168
1024
33796
4096
0
0
0
20484
1024
181280
38916
9216
0
0
0
0
80912
0
1024
0
7168
1024
33800
4096
0
0
0
20484
1024
181280
38916
9216
0
0
0
0
80912
0
1024
0
7168
1024
33800
4096
0
0
0
20483
1024
181272
38915
9216
0
0
0
0
80908
0
1024
0
7168
1024
33798
4096
0
0
0
20481
1024
181256
38913
9216
0
0
0
0
72708
0
1024
0
7168
1024
33794
4096
0
0
0
20484
1024
181280
38916
9216
0
0
0
0
80912
0
1024
0
7168
1024
33800
4096
0
0
0
20488
1024
181312
38920
9216
0
0
0
0
89120
0
1024
0
7168
1024
33808
4096
0
0
0
20482
1024
181264
38914
9216
0
0
0
0
80904
0
1024
0
7168
1024
33796
4096
0
0
0
20482
1024
181264
38914
9216
0
0
0
0
72712
0
1024
0
7168
1024
33796
4096
0
0
0
20485
1024
181288
38917
9216
0
0
0
0
80916
0
1024
0
7168
1024
33802
4096
0
0
0
20486
1024
181296
38918
9216
0
0
0
0
80920
0
1024
0
7168
1024
33804
4096
0
0
0
20480
1024
181248
38912
9216
0
0
0
0
72704
0
1024
0
7168
1024
33792
4096
0
0
0
20483
1024
181272
38915
9216
0
0
0
0
80908
0
1024
0
7168
1024
33798
4096
0
0
0
20482
1024
181264
38914
9216
0
0
0
0
72712
0
1024
0
7168
1024
33796
4096
0
0
0
20486
1024
181296
38918
9216
0
0
0
0
80920
0
1024
0
7168
1024
33804
4096
0
0
0
20482
1024
181264
38914
9216
0
0
0
0
72712
0
1024
0
7168
1024
33796
4096
0
0
0
20480
1024
181248
38912
9216
0
0
0
0
72704
0
1024
0
7168
1024
33792
4096
0
0
0
20483
1024
181272
38915
9216
0
0
0
0
72716
0
1024
0
7168
1024
33798
4096
0
0
0
20483
1024
181272
38915
9216
0
0
0
0
80908
0
1024
0
7168
1024
33798
4096
0
0
0
20483
1024
181272
38915
9216
0
0
0
0
80908
0
1024
0
7168
1024
33798
4096
0
0
0
20487
1024
181304
38919
9216
0
0
0
0
80924
0
1024
0
7168
1024
33806
4096
0
0
0
20483
1024
181272
38915
9216
0
0
0
0
80908
0
1024
0
7168
1024
33798
4096
0
0
0
20482
1024
181264
38914
9216
0
0
0
0
80904
0
1024
0
7168
1024
33796
4096
0
0
0
20483
1024
181272
38915
9216
0
0
0
0
80908
0
1024
0
7168
1024
33798
4096
0
0
0
20484
1024
181280
38916
9216
0
0
0
0
72720
0
1024
0
7168
1024
33800
4096
0
0
0
20484
1024
181280
38916
9216
0
0
0
0
80912
0
1024
0
7168
1024
33800
4096
0
0
0
20483
1024
181272
38915
9216
0
0
0
0
80908
0
1024
0
7168
1024
33798
4096
0
0
0
20484
1024
181280
38916
9216
0
0
0
0
80912
0
1024
0
7168
1024
33800
4096
0
0
0
20483
1024
181272
38915
9216
0
0
0
0
80908
0
1024
0
7168
1024
33798
4096
0
0
0
20481
1024
181256
38913
9216
0
0
0
0
72708
0
1024
0
7168
1024
33794
4096
0
0
0
20481
1024
181256
38913
9216
0
0
0
0
80900
0
1024
0
7168
1024
33794
4096
0
0
0
20485
1024
181288
38917
9216
0
0
0
0
80916
0
1024
0
7168
1024
33802
4096
0
0
0
20484
1024
181280
38916
9216
0
0
0
0
80912
0
1024
0
7168
1024
33800
4096
0
0
0
20485
1024
181288
38917
9216
0
0
0
0
80916
0
1024
0
7168
1024
33802
4096
0
0
0
20482
1024
181264
38914
9216
0
0
0
0
80904
0
1024
0
7168
1024
33796
4096
0
0
0
20486
1024
181296
38918
9216
0
0
0
0
80920
0
1024
0
7168
1024
33804
4096
0
0
0
20480
1024
181248
38912
9216
0
0
0
0
72704
0
1024
0
7168
1024
33792
4096
0
0
0
20485
1024
181288
38917
9216
0
0
0
0
80916
0
1024
0
7168
1024
33802
4096
0
0
0
20485
1024
181288
38917
9216
0
0
0
0
80916
0
1024
0
7168
1024
33802
4096
0
0
0
20488
1024
181312
38920
9216
0
0
0
0
80928
0
1024
0
7168
1024
33808
4096
0
0
0
20482
1024
181264
38914
9216
0
0
0
0
80904
0
1024
0
7168
1024
33796
4096
0
0
0
20482
1024
181264
38914
9216
0
0
0
0
72712
0
1024
0
7168
1024
33796
4096
0
0
0
20480
1024
181248
38912
9216
0
0
0
0
72704
0
1024
0
7168
1024
33792
4096
0
0
0
20483
1024
181272
38915
9216
0
0
0
0
72716
0
1024
0
7168
1024
33798
4096
0
0
0
20483
1024
181272
38915
9216
0
0
0
0
80908
0
1024
0
7168
1024
33798
4096
0
0
0
20487
1024
181304
38919
9216
0
0
0
0
80924
0
1024
0
7168
1024
33806
4096
0
0
0
20481
1024
181256
38913
9216
0
0
0
0
72708
0
1024
0
7168
1024
33794
4096
0
0
0
20485
1024
181288
38917
9216
0
0
0
0
80916
0
1024
0
7168
1024
33802
4096
0
0
0
20481
1024
181256
38913
9216
0
0
0
0
72708
0
1024
0
7168
1024
33794
4096
0
0
0
20482
1024
181264
38914
9216
0
0
0
0
72712
0
1024
0
7168
1024
33796
4096
0
0
0
20480
1024
181248
38912
9216
0
0
0
0
72704
0
1024
0
7168
1024
33792
4096
0
0
0
20484
1024
181280
38916
9216
0
0
0
0
72720
0
1024
0
7168
1024
33800
4096
0
0
0
20486
1024
181296
38918
9216
0
0
0
0
80920
0
1024
0
7168
1024
33804
4096
0
0
0
20484
1024
181280
38916
9216
0
0
0
0
80912
0
1024
0
7168
1024
33800
4096
0
0
0
20485
1024
181288
38917
9216
0
0
0
0
80916
0
1024
0
7168
1024
33802
4096
0
0
0
20485
1024
181288
38917
9216
0
0
0
0
80916
0
1024
0
7168
1024
33802
4096
0
0
0
20481
1024
181256
38913
9216
0
0
0
0
80900
0
1024
0
7168
1024
33794
4096
0
0
0
20483
1024
181272
38915
9216
0
0
0
0
72716
0
1024
0
7168
1024
33798
4096
0
0
0
20482
1024
181264
38914
9216
0
0
0
0
72712
0
1024
0
7168
1024
33796
4096
0
0
0
20484
1024
181280
38916
9216
0
0
0
0
72720
0
1024
0
7168
1024
33800
4096
0
0
0
20481
1024
181256
38913
9216
0
0
0
0
72708
0
1024
0
7168
1024
33794
4096
0
0
0
20482
1024
181264
38914
9216
0
0
0
0
80904
0
1024
0
7168
1024
33796
4096
0
0
0
20485
1024
181288
38917
9216
0
0
0
0
80916
0
1024
0
7168
1024
33802
4096
0
0
0
20486
1024
181296
38918
9216
0
0
0
0
89112
0
1024
0
7168
1024
33804
4096
0
0
0
20488
1024
181312
38920
9216
0
0
0
0
80928
0
1024
0
7168
1024
33808
4096
0
0
0
20481
1024
181256
38913
9216
0
0
0
0
72708
0
1024
0
7168
1024
33794
4096
0
0
0
20483
1024
181272
38915
9216
0
0
0
0
80908
0
1024
0
7168
1024
33798
4096
0
0
0
20483
1024
181272
38915
9216
0
0
0
0
72716
0
1024
0
7168
1024
33798
4096
0
0
0
20482
1024
181264
38914
9216
0
0
0
0
80904
0
1024
0
7168
1024
33796
4096
0
0
0
20482
1024
181264
38914
9216
0
0
0
0
72712
0
1024
0
7168
1024
33796
4096
0
0
0
20483
1024
181272
38915
9216
0
0
0
0
80908
0
1024
0
7168
1024
33798
4096
0
0
0
20483
1024
181272
38915
9216
0
0
0
0
80908
0
1024
0
7168
1024
33798
4096
0
0
0
20482
1024
181264
38914
9216
0
0
0
0
80904
0
1024
0
7168
1024
33796
4096
0
0
0
20484
1024
181280
38916
9216
0
0
0
0
72720
0
1024
0
7168
1024
33800
4096
0
0
0
20486
1024
181296
38918
9216
0
0
0
0
80920
0
1024
0
7168
1024
33804
4096
0
0
0
20482
1024
181264
38914
9216
0
0
0
0
80904
0
1024
0
7168
1024
33796
4096
0
0
0
20483
1024
181272
38915
9216
0
0
0
0
80908
0
1024
0
7168
1024
33798
4096
0
0
0
20483
1024
181272
38915
9216
0
0
0
0
72716
0
1024
0
7168
1024
33798
4096
0
0
0
20483
1024
181272
38915
9216
0
0
0
0
80908
0
1024
0
7168
1024
33798
4096
0
0
0
20481
1024
181256
38913
9216
0
0
0
0
72708
0
1024
0
7168
1024
33794
4096
0
0
0
20482
1024
181264
38914
9216
0
0
0
0
72712
0
1024
0
7168
1024
33796
4096
0
0
0
20481
1024
181256
38913
9216
0
0
0
0
72708
0
1024
0
7168
1024
33794
4096
0
0
0
20487
1024
181304
38919
9216
0
0
0
0
80924
0
1024
0
7168
1024
33806
4096
0
0
0
20482
1024
181264
38914
9216
0
0
0
0
80904
0
1024
0
7168
1024
33796
4096
0
0
0
20483
1024
181272
38915
9216
0
0
0
0
72716
0
1024
0
7168
1024
33798
4096
0
0
0
20483
1024
181272
38915
9216
0
0
0
0
80908
0
1024
0
7168
1024
33798
4096
0
0
0
20482
1024
181264
38914
9216
0
0
0
0
72712
0
1024
0
7168
1024
33796
4096
0
0
0
20481
1024
181256
38913
9216
0
0
0
0
72708
0
1024
0
7168
1024
33794
4096
0
0
0
20488
1024
181312
38920
9216
0
0
0
0
80928
0
1024
0
7168
1024
33808
4096
0
0
0
20480
1024
181248
38912
9216
0
0
0
0
72704
0
1024
0
7168
1024
33792
4096
0
0
0
20486
1024
181296
38918
9216
0
0
0
0
80920
0
1024
0
7168
1024
33804
4096
0
0
0
20481
1024
181256
38913
9216
0
0
0
0
80900
0
1024
0
7168
1024
33794
4096
0
0
0
20483
1024
181272
38915
9216
0
0
0
0
80908
0
1024
0
7168
1024
33798
4096
0
0
0
20484
1024
181280
38916
9216
0
0
0
0
72720
0
1024
0
7168
1024
33800
4096
0
0
0
20482
1024
181264
38914
9216
0
0
0
0
80904
0
1024
0
7168
1024
33796
4096
0
0
0
20484
1024
181280
38916
9216
0
0
0
0
80912
0
1024
0
7168
1024
33800
4096
0
0
0
20481
1024
181256
38913
9216
0
0
0
0
72708
0
1024
0
7168
1024
33794
4096
0
0
0
20487
1024
181304
38919
9216
0
0
0
0
80924
0
1024
0
7168
1024
33806
4096
0
0
0
20481
1024
181256
38913
9216
0
0
0
0
80900
0
1024
0
7168
1024
33794
4096
0
0
0
20484
1024
181280
38916
9216
0
0
0
0
80912
0
1024
0
7168
1024
33800
4096
0
0
0
20480
1024
181248
38912
9216
0
0
0
0
72704
0
1024
0
7168
1024
33792
4096
0
0
0
20486
1024
181296
38918
9216
0
0
0
0
80920
0
1024
0
7168
1024
33804
4096
0
0
0
20484
1024
181280
38916
9216
0
0
0
0
80912
0
1024
0
7168
1024
33800
4096
0
0
0
20488
1024
181312
38920
9216
0
0
0
0
80928
0
1024
0
7168
1024
33808
4096
0
0
0
20482
1024
181264
38914
9216
0
0
0
0
80904
0
1024
0
7168
1024
33796
4096
0
0
0
20485
1024
181288
38917
9216
0
0
0
0
80916
0
1024
0
7168
1024
33802
4096
0
0
0
20482
1024
181264
38914
9216
0
0
0
0
80904
0
1024
0
7168
1024
33796
4096
0
0
0
20483
1024
181272
38915
9216
0
0
0
0
72716
0
1024
0
7168
1024
33798
4096
0
0
0
20483
1024
181272
38915
9216
0
0
0
0
80908
0
1024
0
7168
1024
33798
4096
0
0
0
20483
1024
181272
38915
9216
0
0
0
0
72716
0
1024
0
7168
1024
33798
4096
0
0
0
20484
1024
181280
38916
9216
0
0
0
0
80912
0
1024
0
7168
1024
33800
4096
0
0
0
20487
1024
181304
38919
9216
0
0
0
0
72732
0
1024
0
7168
1024
33806
4096
0
0
0
20483
1024
181272
38915
9216
0
0
0
0
80908
0
1024
0
7168
1024
33798
4096
0
0
0
20483
1024
181272
38915
9216
0
0
0
0
80908
0
1024
0
7168
1024
33798
4096
0
0
0
20482
1024
181264
38914
9216
0
0
0
0
80904
0
1024
0
7168
1024
33796
4096
0
0
0
20480
1024
181248
38912
9216
0
0
0
0
72704
0
1024
0
7168
1024
33792
4096
0
0
0
20485
1024
181288
38917
9216
0
0
0
0
80916
0
1024
0
7168
1024
33802
4096
0
0
0
20482
1024
181264
38914
9216
0
0
0
0
80904
0
1024
0
7168
1024
33796
4096
0
0
0
20486
1024
181296
38918
9216
0
0
0
0
80920
0
1024
0
7168
1024
33804
4096
0
0
0
20489
1024
181320
38921
9216
0
0
0
0
80932
0
1024
0
7168
1024
33810
4096
0
0
0
20486
1024
181296
38918
9216
0
0
0
0
80920
0
1024
0
7168
1024
33804
4096
0
0
0
20482
1024
181264
38914
9216
0
0
0
0
72712
0
1024
0
7168
1024
33796
4096
0
0
0
20483
1024
181272
38915
9216
0
0
0
0
80908
0
1024
0
7168
1024
33798
4096
0
0
0
20480
1024
181248
38912
9216
0
0
0
0
72704
0
1024
0
7168
1024
33792
4096
0
0
0
20482
1024
181264
38914
9216
0
0
0
0
72712
0
1024
0
7168
1024
33796
4096
0
0
0
20483
1024
181272
38915
9216
0
0
0
0
80908
0
1024
0
7168
1024
33798
4096
0
0
0
20481
1024
181256
38913
9216
0
0
0
0
80900
0
1024
0
7168
1024
33794
4096
0
0
0
20482
1024
181264
38914
9216
0
0
0
0
72712
0
1024
0
7168
1024
33796
4096
0
0
0
20483
1024
181272
38915
9216
0
0
0
0
80908
0
1024
0
7168
1024
33798
4096
0
0
0
20481
1024
181256
38913
9216
0
0
0
0
72708
0
1024
0
7168
1024
33794
4096
0
0
0
20484
1024
181280
38916
9216
0
0
0
0
80912
0
1024
0
7168
1024
33800
4096
0
0
0
20480
1024
181248
38912
9216
0
0
0
0
72704
0
1024
0
7168
1024
33792
4096
0
0
0
20482
1024
181264
38914
9216
0
0
0
0
72712
0
1024
0
7168
1024
33796
4096
0
0
0
20486
1024
181296
38918
9216
0
0
0
0
80920
0
1024
0
7168
1024
33804
4096
0
0
0
20483
1024
181272
38915
9216
0
0
0
0
72716
0
1024
0
7168
1024
33798
4096
0
0
0
20481
1024
181256
38913
9216
0
0
0
0
72708
0
1024
0
7168
1024
33794
4096
0
0
0
20486
1024
181296
38918
9216
0
0
0
0
80920
0
1024
0
7168
1024
33804
4096
0
0
0
20482
1024
181264
38914
9216
0
0
0
0
80904
0
1024
0
7168
1024
33796
4096
0
0
0
20482
1024
181264
38914
9216
0
0
0
0
72712
0
1024
0
7168
1024
33796
4096
0
0
0
20482
1024
181264
38914
9216
0
0
0
0
72712
0
1024
0
7168
1024
33796
4096
0
0
0
20481
1024
181256
38913
9216
0
0
0
0
72708
0
1024
0
7168
1024
33794
4096
0
0
0
20484
1024
181280
38916
9216
0
0
0
0
80912
0
1024
0
7168
1024
33800
4096
0
0
0
20483
1024
181272
38915
9216
0
0
0
0
80908
0
1024
0
7168
1024
33798
4096
0
0
0
20486
1024
181296
38918
9216
0
0
0
0
80920
0
1024
0
7168
1024
33804
4096
0
0
0
20484
1024
181280
38916
9216
0
0
0
0
80912
0
1024
0
7168
1024
33800
4096
0
0
0
20483
1024
181272
38915
9216
0
0
0
0
80908
0
1024
0
7168
1024
33798
4096
0
0
0
20486
1024
181296
38918
9216
0
0
0
0
80920
0
1024
0
7168
1024
33804
4096
0
0
0
20484
1024
181280
38916
9216
0
0
0
0
80912
0
1024
0
7168
1024
33800
4096
0
0
0
20482
1024
181264
38914
9216
0
0
0
0
80904
0
1024
0
7168
1024
33796
4096
0
0
0
20484
1024
181280
38916
9216
0
0
0
0
80912
0
1024
0
7168
1024
33800
4096
0
0
0
20484
1024
181280
38916
9216
0
0
0
0
80912
0
1024
0
7168
1024
33800
4096
0
0
0
20486
1024
181296
38918
9216
0
0
0
0
80920
0
1024
0
7168
1024
33804
4096
0
0
0
20482
1024
181264
38914
9216
0
0
0
0
80904
0
1024
0
7168
1024
33796
4096
0
0
0
20482
1024
181264
38914
9216
0
0
0
0
80904
0
1024
0
7168
1024
33796
4096
0
0
0
20482
1024
181264
38914
9216
0
0
0
0
80904
0
1024
0
7168
1024
33796
4096
0
0
0
20483
1024
181272
38915
9216
0
0
0
0
80908
0
1024
0
7168
1024
33798
4096
0
0
0
20487
1024
181304
38919
9216
0
0
0
0
89116
0
1024
0
7168
1024
33806
4096
0
0
0
20483
1024
181272
38915
9216
0
0
0
0
72716
0
1024
0
7168
1024
33798
4096
0
0
0
20483
1024
181272
38915
9216
0
0
0
0
80908
0
1024
0
7168
1024
33798
4096
0
0
0
20485
1024
181288
38917
9216
0
0
0
0
80916
0
1024
0
7168
1024
33802
4096
0
0
0
20482
1024
181264
38914
9216
0
0
0
0
72712
0
1024
0
7168
1024
33796
4096
0
0
0
20485
1024
181288
38917
9216
0
0
0
0
80916
0
1024
0
7168
1024
33802
4096
0
0
0
20482
1024
181264
38914
9216
0
0
0
0
72712
0
1024
0
7168
1024
33796
4096
0
0
0
20481
1024
181256
38913
9216
0
0
0
0
72708
0
1024
0
7168
1024
33794
4096
0
0
0
20485
1024
181288
38917
9216
0
0
0
0
80916
0
1024
0
7168
1024
33802
4096
0
0
0
20486
1024
181296
38918
9216
0
0
0
0
80920
0
1024
0
7168
1024
33804
4096
0
0
0
20483
1024
181272
38915
9216
0
0
0
0
80908
0
1024
0
7168
1024
33798
4096
0
0
0
20484
1024
181280
38916
9216
0
0
0
0
80912
0
1024
0
7168
1024
33800
4096
0
0
0
20482
1024
181264
38914
9216
0
0
0
0
80904
0
1024
0
7168
1024
33796
4096
0
0
0
20484
1024
181280
38916
9216
0
0
0
0
80912
0
1024
0
7168
1024
33800
4096
0
0
0
20480
1024
181248
38912
9216
0
0
0
0
72704
0
1024
0
7168
1024
33792
4096
0
0
0
20483
1024
181272
38915
9216
0
0
0
0
80908
0
1024
0
7168
1024
33798
4096
0
0
0
20482
1024
181264
38914
9216
0
0
0
0
80904
0
1024
0
7168
1024
33796
4096
0
0
0
20482
1024
181264
38914
9216
0
0
0
0
80904
0
1024
0
7168
1024
33796
4096
0
0
0
20481
1024
181256
38913
9216
0
0
0
0
72708
0
1024
0
7168
1024
33794
4096
0
0
0
20484
1024
181280
38916
9216
0
0
0
0
80912
0
1024
0
7168
1024
33800
4096
0
0
0
20485
1024
181288
38917
9216
0
0
0
0
80916
0
1024
0
7168
1024
33802
4096
0
0
0
20486
1024
181296
38918
9216
0
0
0
0
80920
0
1024
0
7168
1024
33804
4096
0
0
0
20482
1024
181264
38914
9216
0
0
0
0
80904
0
1024
0
7168
1024
33796
4096
0
0
0
20483
1024
181272
38915
9216
0
0
0
0
80908
0
1024
0
7168
1024
33798
4096
0
0
0
20482
1024
181264
38914
9216
0
0
0
0
80904
0
1024
0
7168
1024
33796
4096
0
0
0
20484
1024
181280
38916
9216
0
0
0
0
80912
0
1024
0
7168
1024
33800
4096
0
0
0
20484
1024
181280
38916
9216
0
0
0
0
80912
0
1024
0
7168
1024
33800
4096
0
0
0
20482
1024
181264
38914
9216
0
0
0
0
80904
0
1024
0
7168
1024
33796
4096
0
0
0
20483
1024
181272
38915
9216
0
0
0
0
80908
0
1024
0
7168
1024
33798
4096
0
0
0
20485
1024
181288
38917
9216
0
0
0
0
80916
0
1024
0
7168
1024
33802
4096
0
0
0
20481
1024
181256
38913
9216
0
0
0
0
72708
0
1024
0
7168
1024
33794
4096
0
0
0
20481
1024
181256
38913
9216
0
0
0
0
72708
0
1024
0
7168
1024
33794
4096
0
0
0
20482
1024
181264
38914
9216
0
0
0
0
72712
0
1024
0
7168
1024
33796
4096
0
0
0
20485
1024
181288
38917
9216
0
0
0
0
80916
0
1024
0
7168
1024
33802
4096
0
0
0
20480
1024
181248
38912
9216
0
0
0
0
72704
0
1024
0
7168
1024
33792
4096
0
0
0
20480
1024
181248
38912
9216
0
0
0
0
72704
0
1024
0
7168
1024
33792
4096
0
0
0
20481
1024
181256
38913
9216
0
0
0
0
80900
0
1024
0
7168
1024
33794
4096
0
0
0
20481
1024
181256
38913
9216
0
0
0
0
80900
0
1024
0
7168
1024
33794
4096
0
0
0
20485
1024
181288
38917
9216
0
0
0
0
80916
0
1024
0
7168
1024
33802
4096
0
0
0
20484
1024
181280
38916
9216
0
0
0
0
80912
0
1024
0
7168
1024
33800
4096
0
0
0
20485
1024
181288
38917
9216
0
0
0
0
80916
0
1024
0
7168
1024
33802
4096
0
0
0
20482
1024
181264
38914
9216
0
0
0
0
72712
0
1024
0
7168
1024
33796
4096
0
0
0
20483
1024
181272
38915
9216
0
0
0
0
80908
0
1024
0
7168
1024
33798
4096
0
0
0
20483
1024
181272
38915
9216
0
0
0
0
80908
0
1024
0
7168
1024
33798
4096
0
0
0
20484
1024
181280
38916
9216
0
0
0
0
80912
0
1024
0
7168
1024
33800
4096
0
0
0
20482
1024
181264
38914
9216
0
0
0
0
80904
0
1024
0
7168
1024
33796
4096
0
0
0
20482
1024
181264
38914
9216
0
0
0
0
72712
0
1024
0
7168
1024
33796
4096
0
0
0
20483
1024
181272
38915
9216
0
0
0
0
80908
0
1024
0
7168
1024
33798
4096
0
0
0
20483
1024
181272
38915
9216
0
0
0
0
72716
0
1024
0
7168
1024
33798
4096
0
0
0
20485
1024
181288
38917
9216
0
0
0
0
80916
0
1024
0
7168
1024
33802
4096
0
0
0
20483
1024
181272
38915
9216
0
0
0
0
72716
0
1024
0
7168
1024
33798
4096
0
0
0
20484
1024
181280
38916
9216
0
0
0
0
80912
0
1024
0
7168
1024
33800
4096
0
0
0
20483
1024
181272
38915
9216
0
0
0
0
72716
0
1024
0
7168
1024
33798
4096
0
0
0
20481
1024
181256
38913
9216
0
0
0
0
72708
0
1024
0
7168
1024
33794
4096
0
0
0
20484
1024
181280
38916
9216
0
0
0
0
80912
0
1024
0
7168
1024
33800
4096
0
0
0
20485
1024
181288
38917
9216
0
0
0
0
80916
0
1024
0
7168
1024
33802
4096
0
0
0
20482
1024
181264
38914
9216
0
0
0
0
80904
0
1024
0
7168
1024
33796
4096
0
0
0
20484
1024
181280
38916
9216
0
0
0
0
80912
0
1024
0
7168
1024
33800
4096
0
0
0
20481
1024
181256
38913
9216
0
0
0
0
80900
0
1024
0
7168
1024
33794
4096
0
0
0
20483
1024
181272
38915
9216
0
0
0
0
72716
0
1024
0
7168
1024
33798
4096
0
0
0
20483
1024
181272
38915
9216
0
0
0
0
80908
0
1024
0
7168
1024
33798
4096
0
0
0
20485
1024
181288
38917
9216
0
0
0
0
80916
0
1024
0
7168
1024
33802
4096
0
0
0
20484
1024
181280
38916
9216
0
0
0
0
80912
0
1024
0
7168
1024
33800
4096
0
0
0
20486
1024
181296
38918
9216
0
0
0
0
80920
0
1024
0
7168
1024
33804
4096
0
0
0
20485
1024
181288
38917
9216
0
0
0
0
80916
0
1024
0
7168
1024
33802
4096
0
0
0
20481
1024
181256
38913
9216
0
0
0
0
72708
0
1024
0
7168
1024
33794
4096
0
0
0
20480
1024
181248
38912
9216
0
0
0
0
72704
0
1024
0
7168
1024
33792
4096
0
0
0
20486
1024
181296
38918
9216
0
0
0
0
80920
0
1024
0
7168
1024
33804
4096
0
0
0
20482
1024
181264
38914
9216
0
0
0
0
72712
0
1024
0
7168
1024
33796
4096
0
0
0
20482
1024
181264
38914
9216
0
0
0
0
72712
0
1024
0
7168
1024
33796
4096
0
0
0
20482
1024
181264
38914
9216
0
0
0
0
72712
0
1024
0
7168
1024
33796
4096
0
0
0
20483
1024
181272
38915
9216
0
0
0
0
80908
0
1024
0
7168
1024
33798
4096
0
0
0
20484
1024
181280
38916
9216
0
0
0
0
80912
0
1024
0
7168
1024
33800
4096
0
0
0
20483
1024
181272
38915
9216
0
0
0
0
80908
0
1024
0
7168
1024
33798
4096
0
0
0
20481
1024
181256
38913
9216
0
0
0
0
72708
0
1024
0
7168
1024
33794
4096
0
0
0
20483
1024
181272
38915
9216
0
0
0
0
80908
0
1024
0
7168
1024
33798
4096
0
0
0
20484
1024
181280
38916
9216
0
0
0
0
80912
0
1024
0
7168
1024
33800
4096
0
0
0
20485
1024
181288
38917
9216
0
0
0
0
80916
0
1024
0
7168
1024
33802
4096
0
0
0
20482
1024
181264
38914
9216
0
0
0
0
80904
0
1024
0
7168
1024
33796
4096
0
0
0
20482
1024
181264
38914
9216
0
0
0
0
80904
0
1024
0
7168
1024
33796
4096
0
0
0
20481
1024
181256
38913
9216
0
0
0
0
80900
0
1024
0
7168
1024
33794
4096
0
0
0
20481
1024
181256
38913
9216
0
0
0
0
80900
0
1024
0
7168
1024
33794
4096
0
0
0
20482
1024
181264
38914
9216
0
0
0
0
72712
0
1024
0
7168
1024
33796
4096
0
0
0
20484
1024
181280
38916
9216
0
0
0
0
80912
0
1024
0
7168
1024
33800
4096
0
0
0
20482
1024
181264
38914
9216
0
0
0
0
80904
0
1024
0
7168
1024
33796
4096
0
0
0
20485
1024
181288
38917
9216
0
0
0
0
80916
0
1024
0
7168
1024
33802
4096
0
0
0
20481
1024
181256
38913
9216
0
0
0
0
72708
0
1024
0
7168
1024
33794
4096
0
0
0
20485
1024
181288
38917
9216
0
0
0
0
80916
0
1024
0
7168
1024
33802
4096
0
0
0
20481
1024
181256
38913
9216
0
0
0
0
80900
0
1024
0
7168
1024
33794
4096
0
0
0
20483
1024
181272
38915
9216
0
0
0
0
80908
0
1024
0
7168
1024
33798
4096
0
0
0
20483
1024
181272
38915
9216
0
0
0
0
80908
0
1024
0
7168
1024
33798
4096
0
0
0
20483
1024
181272
38915
9216
0
0
0
0
80908
0
1024
0
7168
1024
33798
4096
0
0
0
20484
1024
181280
38916
9216
0
0
0
0
80912
0
1024
0
7168
1024
33800
4096
0
0
0
20482
1024
181264
38914
9216
0
0
0
0
80904
0
1024
0
7168
1024
33796
4096
0
0
0
20486
1024
181296
38918
9216
0
0
0
0
80920
0
1024
0
7168
1024
33804
4096
0
0
0
20480
1024
181248
38912
9216
0
0
0
0
72704
0
1024
0
7168
1024
33792
4096
0
0
0
20487
1024
181304
38919
9216
0
0
0
0
80924
0
1024
0
7168
1024
33806
4096
0
0
0
20485
1024
181288
38917
9216
0
0
0
0
89108
0
1024
0
7168
1024
33802
4096
0
0
0
20484
1024
181280
38916
9216
0
0
0
0
80912
0
1024
0
7168
1024
33800
4096
0
0
0
20483
1024
181272
38915
9216
0
0
0
0
80908
0
1024
0
7168
1024
33798
4096
0
0
0
20482
1024
181264
38914
9216
0
0
0
0
80904
0
1024
0
7168
1024
33796
4096
0
0
0
20485
1024
181288
38917
9216
0
0
0
0
80916
0
1024
0
7168
1024
33802
4096
0
0
0
20491
1024
181336
38923
9216
0
0
0
0
80940
0
1024
0
7168
1024
33814
4096
0
0
0
20483
1024
181272
38915
9216
0
0
0
0
80908
0
1024
0
7168
1024
33798
4096
0
0
0
20483
1024
181272
38915
9216
0
0
0
0
80908
0
1024
0
7168
1024
33798
4096
0
0
0
20480
1024
181248
38912
9216
0
0
0
0
72704
0
1024
0
7168
1024
33792
4096
0
0
0
20484
1024
181280
38916
9216
0
0
0
0
80912
0
1024
0
7168
1024
33800
4096
0
0
0
20486
1024
181296
38918
9216
0
0
0
0
80920
0
1024
0
7168
1024
33804
4096
0
0
0
20484
1024
181280
38916
9216
0
0
0
0
80912
0
1024
0
7168
1024
33800
4096
0
0
0
20482
1024
181264
38914
9216
0
0
0
0
80904
0
1024
0
7168
1024
33796
4096
0
0
0
20483
1024
181272
38915
9216
0
0
0
0
80908
0
1024
0
7168
1024
33798
4096
0
0
0
20484
1024
181280
38916
9216
0
0
0
0
80912
0
1024
0
7168
1024
33800
4096
0
0
0
20483
1024
181272
38915
9216
0
0
0
0
80908
0
1024
0
7168
1024
33798
4096
0
0
0
20487
1024
181304
38919
9216
0
0
0
0
80924
0
1024
0
7168
1024
33806
4096
0
0
0
20481
1024
181256
38913
9216
0
0
0
0
80900
0
1024
0
7168
1024
33794
4096
0
0
0
20486
1024
181296
38918
9216
0
0
0
0
80920
0
1024
0
7168
1024
33804
4096
0
0
0
20481
1024
181256
38913
9216
0
0
0
0
72708
0
1024
0
7168
1024
33794
4096
0
0
0
20482
1024
181264
38914
9216
0
0
0
0
72712
0
1024
0
7168
1024
33796
4096
0
0
0
20484
1024
181280
38916
9216
0
0
0
0
80912
0
1024
0
7168
1024
33800
4096
0
0
0
20480
1024
181248
38912
9216
0
0
0
0
72704
0
1024
0
7168
1024
33792
4096
0
0
0
20482
1024
181264
38914
9216
0
0
0
0
80904
0
1024
0
7168
1024
33796
4096
0
0
0
20484
1024
181280
38916
9216
0
0
0
0
80912
0
1024
0
7168
1024
33800
4096
0
0
0
20486
1024
181296
38918
9216
0
0
0
0
80920
0
1024
0
7168
1024
33804
4096
0
0
0
20483
1024
181272
38915
9216
0
0
0
0
80908
0
1024
0
7168
1024
33798
4096
0
0
0
20482
1024
181264
38914
9216
0
0
0
0
80904
0
1024
0
7168
1024
33796
4096
0
0
0
20483
1024
181272
38915
9216
0
0
0
0
80908
0
1024
0
7168
1024
33798
4096
0
0
0
20486
1024
181296
38918
9216
0
0
0
0
80920
0
1024
0
7168
1024
33804
4096
0
0
0
20483
1024
181272
38915
9216
0
0
0
0
80908
0
1024
0
7168
1024
33798
4096
0
0
0
20482
1024
181264
38914
9216
0
0
0
0
80904
0
1024
0
7168
1024
33796
4096
0
0
0
20483
1024
181272
38915
9216
0
0
0
0
80908
0
1024
0
7168
1024
33798
4096
0
0
0
20484
1024
181280
38916
9216
0
0
0
0
72720
0
1024
0
7168
1024
33800
4096
0
0
0
20482
1024
181264
38914
9216
0
0
0
0
80904
0
1024
0
7168
1024
33796
4096
0
0
0
20485
1024
181288
38917
9216
0
0
0
0
72724
0
1024
0
7168
1024
33802
4096
0
0
0
20483
1024
181272
38915
9216
0
0
0
0
80908
0
1024
0
7168
1024
33798
4096
0
0
0
20486
1024
181296
38918
9216
0
0
0
0
80920
0
1024
0
7168
1024
33804
4096
0
0
0
20482
1024
181264
38914
9216
0
0
0
0
72712
0
1024
0
7168
1024
33796
4096
0
0
0
20484
1024
181280
38916
9216
0
0
0
0
80912
0
1024
0
7168
1024
33800
4096
0
0
0
20480
1024
181248
38912
9216
0
0
0
0
72704
0
1024
0
7168
1024
33792
4096
0
0
0
20481
1024
181256
38913
9216
0
0
0
0
80900
0
1024
0
7168
1024
33794
4096
0
0
0
20482
1024
181264
38914
9216
0
0
0
0
80904
0
1024
0
7168
1024
33796
4096
0
0
0
20483
1024
181272
38915
9216
0
0
0
0
72716
0
1024
0
7168
1024
33798
4096
0
0
0
20483
1024
181272
38915
9216
0
0
0
0
80908
0
1024
0
7168
1024
33798
4096
0
0
0
20481
1024
181256
38913
9216
0
0
0
0
80900
0
1024
0
7168
1024
33794
4096
0
0
0
20482
1024
181264
38914
9216
0
0
0
0
72712
0
1024
0
7168
1024
33796
4096
0
0
0
20480
1024
181248
38912
9216
0
0
0
0
72704
0
1024
0
7168
1024
33792
4096
0
0
0
20485
1024
181288
38917
9216
0
0
0
0
80916
0
1024
0
7168
1024
33802
4096
0
0
0
20483
1024
181272
38915
9216
0
0
0
0
80908
0
1024
0
7168
1024
33798
4096
0
0
0
20484
1024
181280
38916
9216
0
0
0
0
80912
0
1024
0
7168
1024
33800
4096
0
0
0
20480
1024
181248
38912
9216
0
0
0
0
72704
0
1024
0
7168
1024
33792
4096
0
0
0
20486
1024
181296
38918
9216
0
0
0
0
72728
0
1024
0
7168
1024
33804
4096
0
0
0
20482
1024
181264
38914
9216
0
0
0
0
80904
0
1024
0
7168
1024
33796
4096
0
0
0
20483
1024
181272
38915
9216
0
0
0
0
72716
0
1024
0
7168
1024
33798
4096
0
0
0
20483
1024
181272
38915
9216
0
0
0
0
80908
0
1024
0
7168
1024
33798
4096
0
0
0
20482
1024
181264
38914
9216
0
0
0
0
80904
0
1024
0
7168
1024
33796
4096
0
0
0
20482
1024
181264
38914
9216
0
0
0
0
80904
0
1024
0
7168
1024
33796
4096
0
0
0
20482
1024
181264
38914
9216
0
0
0
0
80904
0
1024
0
7168
1024
33796
4096
0
0
0
20482
1024
181264
38914
9216
0
0
0
0
80904
0
1024
0
7168
1024
33796
4096
0
0
0
20481
1024
181256
38913
9216
0
0
0
0
80900
0
1024
0
7168
1024
33794
4096
0
0
0
20482
1024
181264
38914
9216
0
0
0
0
80904
0
1024
0
7168
1024
33796
4096
0
0
0
20486
1024
181296
38918
9216
0
0
0
0
80920
0
1024
0
7168
1024
33804
4096
0
0
0
20483
1024
181272
38915
9216
0
0
0
0
80908
0
1024
0
7168
1024
33798
4096
0
0
0
20482
1024
181264
38914
9216
0
0
0
0
72712
0
1024
0
7168
1024
33796
4096
0
0
0
20482
1024
181264
38914
9216
0
0
0
0
80904
0
1024
0
7168
1024
33796
4096
0
0
0
20481
1024
181256
38913
9216
0
0
0
0
72708
0
1024
0
7168
1024
33794
4096
0
0
0
20483
1024
181272
38915
9216
0
0
0
0
80908
0
1024
0
7168
1024
33798
4096
0
0
0
20486
1024
181296
38918
9216
0
0
0
0
80920
0
1024
0
7168
1024
33804
4096
0
0
0
20483
1024
181272
38915
9216
0
0
0
0
80908
0
1024
0
7168
1024
33798
4096
0
0
0
20482
1024
181264
38914
9216
0
0
0
0
80904
0
1024
0
7168
1024
33796
4096
0
0
0
20482
1024
181264
38914
9216
0
0
0
0
72712
0
1024
0
7168
1024
33796
4096
0
0
0
20482
1024
181264
38914
9216
0
0
0
0
80904
0
1024
0
7168
1024
33796
4096
0
0
0
20485
1024
181288
38917
9216
0
0
0
0
80916
0
1024
0
7168
1024
33802
4096
0
0
0
20484
1024
181280
38916
9216
0
0
0
0
80912
0
1024
0
7168
1024
33800
4096
0
0
0
20482
1024
181264
38914
9216
0
0
0
0
72712
0
1024
0
7168
1024
33796
4096
0
0
0
20481
1024
181256
38913
9216
0
0
0
0
80900
0
1024
0
7168
1024
33794
4096
0
0
0
20482
1024
181264
38914
9216
0
0
0
0
72712
0
1024
0
7168
1024
33796
4096
0
0
0
20482
1024
181264
38914
9216
0
0
0
0
80904
0
1024
0
7168
1024
33796
4096
0
0
0
20480
1024
181248
38912
9216
0
0
0
0
72704
0
1024
0
7168
1024
33792
4096
0
0
0
20483
1024
181272
38915
9216
0
0
0
0
80908
0
1024
0
7168
1024
33798
4096
0
0
0
20483
1024
181272
38915
9216
0
0
0
0
80908
0
1024
0
7168
1024
33798
4096
0
0
0
20482
1024
181264
38914
9216
0
0
0
0
80904
0
1024
0
7168
1024
33796
4096
0
0
0
20483
1024
181272
38915
9216
0
0
0
0
80908
0
1024
0
7168
1024
33798
4096
0
0
0
20482
1024
181264
38914
9216
0
0
0
0
80904
0
1024
0
7168
1024
33796
4096
0
0
0
20485
1024
181288
38917
9216
0
0
0
0
80916
0
1024
0
7168
1024
33802
4096
0
0
0
20482
1024
181264
38914
9216
0
0
0
0
80904
0
1024
0
7168
1024
33796
4096
0
0
0
20484
1024
181280
38916
9216
0
0
0
0
80912
0
1024
0
7168
1024
33800
4096
0
0
0
20484
1024
181280
38916
9216
0
0
0
0
80912
0
1024
0
7168
1024
33800
4096
0
0
0
20486
1024
181296
38918
9216
0
0
0
0
80920
0
1024
0
7168
1024
33804
4096
0
0
0
20482
1024
181264
38914
9216
0
0
0
0
72712
0
1024
0
7168
1024
33796
4096
0
0
0
20480
1024
181248
38912
9216
0
0
0
0
72704
0
1024
0
7168
1024
33792
4096
0
0
0
20485
1024
181288
38917
9216
0
0
0
0
80916
0
1024
0
7168
1024
33802
4096
0
0
0
20482
1024
181264
38914
9216
0
0
0
0
80904
0
1024
0
7168
1024
33796
4096
0
0
0
20481
1024
181256
38913
9216
0
0
0
0
72708
0
1024
0
7168
1024
33794
4096
0
0
0
20482
1024
181264
38914
9216
0
0
0
0
80904
0
1024
0
7168
1024
33796
4096
0
0
0
20481
1024
181256
38913
9216
0
0
0
0
80900
0
1024
0
7168
1024
33794
4096
0
0
0
20482
1024
181264
38914
9216
0
0
0
0
80904
0
1024
0
7168
1024
33796
4096
0
0
0
20480
1024
181248
38912
9216
0
0
0
0
72704
0
1024
0
7168
1024
33792
4096
0
0
0
20482
1024
181264
38914
9216
0
0
0
0
72712
0
1024
0
7168
1024
33796
4096
0
0
0
20483
1024
181272
38915
9216
0
0
0
0
80908
0
1024
0
7168
1024
33798
4096
0
0
0
20485
1024
181288
38917
9216
0
0
0
0
80916
0
1024
0
7168
1024
33802
4096
0
0
0
20487
1024
181304
38919
9216
0
0
0
0
80924
0
1024
0
7168
1024
33806
4096
0
0
0
20483
1024
181272
38915
9216
0
0
0
0
80908
0
1024
0
7168
1024
33798
4096
0
0
0
20480
1024
181248
38912
9216
0
0
0
0
72704
0
1024
0
7168
1024
33792
4096
0
0
0
20483
1024
181272
38915
9216
0
0
0
0
72716
0
1024
0
7168
1024
33798
4096
0
0
0
20487
1024
181304
38919
9216
0
0
0
0
80924
0
1024
0
7168
1024
33806
4096
0
0
0
20481
1024
181256
38913
9216
0
0
0
0
72708
0
1024
0
7168
1024
33794
4096
0
0
0
20481
1024
181256
38913
9216
0
0
0
0
72708
0
1024
0
7168
1024
33794
4096
0
0
0
20482
1024
181264
38914
9216
0
0
0
0
80904
0
1024
0
7168
1024
33796
4096
0
0
0
20485
1024
181288
38917
9216
0
0
0
0
80916
0
1024
0
7168
1024
33802
4096
0
0
0
20486
1024
181296
38918
9216
0
0
0
0
80920
0
1024
0
7168
1024
33804
4096
0
0
0
20482
1024
181264
38914
9216
0
0
0
0
80904
0
1024
0
7168
1024
33796
4096
0
0
0
20482
1024
181264
38914
9216
0
0
0
0
80904
0
1024
0
7168
1024
33796
4096
0
0
0
20484
1024
181280
38916
9216
0
0
0
0
80912
0
1024
0
7168
1024
33800
4096
0
0
0
20481
1024
181256
38913
9216
0
0
0
0
72708
0
1024
0
7168
1024
33794
4096
0
0
0
20482
1024
181264
38914
9216
0
0
0
0
80904
0
1024
0
7168
1024
33796
4096
0
0
0
20486
1024
181296
38918
9216
0
0
0
0
80920
0
1024
0
7168
1024
33804
4096
0
0
0
20481
1024
181256
38913
9216
0
0
0
0
72708
0
1024
0
7168
1024
33794
4096
0
0
0
20482
1024
181264
38914
9216
0
0
0
0
72712
0
1024
0
7168
1024
33796
4096
0
0
0
20482
1024
181264
38914
9216
0
0
0
0
80904
0
1024
0
7168
1024
33796
4096
0
0
0
20481
1024
181256
38913
9216
0
0
0
0
72708
0
1024
0
7168
1024
33794
4096
0
0
0
20483
1024
181272
38915
9216
0
0
0
0
72716
0
1024
0
7168
1024
33798
4096
0
0
0
20481
1024
181256
38913
9216
0
0
0
0
72708
0
1024
0
7168
1024
33794
4096
0
0
0
20483
1024
181272
38915
9216
0
0
0
0
80908
0
1024
0
7168
1024
33798
4096
0
0
0
20484
1024
181280
38916
9216
0
0
0
0
72720
0
1024
0
7168
1024
33800
4096
0
0
0
20482
1024
181264
38914
9216
0
0
0
0
80904
0
1024
0
7168
1024
33796
4096
0
0
0
20481
1024
181256
38913
9216
0
0
0
0
72708
0
1024
0
7168
1024
33794
4096
0
0
0
20483
1024
181272
38915
9216
0
0
0
0
80908
0
1024
0
7168
1024
33798
4096
0
0
0
20482
1024
181264
38914
9216
0
0
0
0
80904
0
1024
0
7168
1024
33796
4096
0
0
0
20485
1024
181288
38917
9216
0
0
0
0
80916
0
1024
0
7168
1024
33802
4096
0
0
0
20482
1024
181264
38914
9216
0
0
0
0
72712
0
1024
0
7168
1024
33796
4096
0
0
0
20481
1024
181256
38913
9216
0
0
0
0
72708
0
1024
0
7168
1024
33794
4096
0
0
0
20483
1024
181272
38915
9216
0
0
0
0
72716
0
1024
0
7168
1024
33798
4096
0
0
0
20483
1024
181272
38915
9216
0
0
0
0
80908
0
1024
0
7168
1024
33798
4096
0
0
0
20484
1024
181280
38916
9216
0
0
0
0
80912
0
1024
0
7168
1024
33800
4096
0
0
0
20485
1024
181288
38917
9216
0
0
0
0
80916
0
1024
0
7168
1024
33802
4096
0
0
0
20483
1024
181272
38915
9216
0
0
0
0
80908
0
1024
0
7168
1024
33798
4096
0
0
0
20481
1024
181256
38913
9216
0
0
0
0
72708
0
1024
0
7168
1024
33794
4096
0
0
0
20483
1024
181272
38915
9216
0
0
0
0
80908
0
1024
0
7168
1024
33798
4096
0
0
0
20482
1024
181264
38914
9216
0
0
0
0
72712
0
1024
0
7168
1024
33796
4096
0
0
0
20484
1024
181280
38916
9216
0
0
0
0
80912
0
1024
0
7168
1024
33800
4096
0
0
0
20485
1024
181288
38917
9216
0
0
0
0
80916
0
1024
0
7168
1024
33802
4096
0
0
0
20484
1024
181280
38916
9216
0
0
0
0
72720
0
1024
0
7168
1024
33800
4096
0
0
0
20482
1024
181264
38914
9216
0
0
0
0
72712
0
1024
0
7168
1024
33796
4096
0
0
0
20483
1024
181272
38915
9216
0
0
0
0
72716
0
1024
0
7168
1024
33798
4096
0
0
0
20480
1024
181248
38912
9216
0
0
0
0
72704
0
1024
0
7168
1024
33792
4096
0
0
0
20480
1024
181248
38912
9216
0
0
0
0
72704
0
1024
0
7168
1024
33792
4096
0
0
0
20482
1024
181264
38914
9216
0
0
0
0
80904
0
1024
0
7168
1024
33796
4096
0
0
0
20482
1024
181264
38914
9216
0
0
0
0
72712
0
1024
0
7168
1024
33796
4096
0
0
0
20482
1024
181264
38914
9216
0
0
0
0
80904
0
1024
0
7168
1024
33796
4096
0
0
0
20484
1024
181280
38916
9216
0
0
0
0
80912
0
1024
0
7168
1024
33800
4096
0
0
0
20482
1024
181264
38914
9216
0
0
0
0
80904
0
1024
0
7168
1024
33796
4096
0
0
0
20484
1024
181280
38916
9216
0
0
0
0
80912
0
1024
0
7168
1024
33800
4096
0
0
0
20482
1024
181264
38914
9216
0
0
0
0
89096
0
1024
0
7168
1024
33796
4096
0
0
0
20483
1024
181272
38915
9216
0
0
0
0
80908
0
1024
0
7168
1024
33798
4096
0
0
0
20482
1024
181264
38914
9216
0
0
0
0
80904
0
1024
0
7168
1024
33796
4096
0
0
0
20484
1024
181280
38916
9216
0
0
0
0
80912
0
1024
0
7168
1024
33800
4096
0
0
0
20484
1024
181280
38916
9216
0
0
0
0
72720
0
1024
0
7168
1024
33800
4096
0
0
0
20485
1024
181288
38917
9216
0
0
0
0
89108
0
1024
0
7168
1024
33802
4096
0
0
0
20486
1024
181296
38918
9216
0
0
0
0
80920
0
1024
0
7168
1024
33804
4096
0
0
0
20481
1024
181256
38913
9216
0
0
0
0
80900
0
1024
0
7168
1024
33794
4096
0
0
0
20483
1024
181272
38915
9216
0
0
0
0
80908
0
1024
0
7168
1024
33798
4096
0
0
0
20483
1024
181272
38915
9216
0
0
0
0
80908
0
1024
0
7168
1024
33798
4096
0
0
0
20484
1024
181280
38916
9216
0
0
0
0
80912
0
1024
0
7168
1024
33800
4096
0
0
0
20486
1024
181296
38918
9216
0
0
0
0
89112
0
1024
0
7168
1024
33804
4096
0
0
0
20486
1024
181296
38918
9216
0
0
0
0
80920
0
1024
0
7168
1024
33804
4096
0
0
0
20486
1024
181296
38918
9216
0
0
0
0
80920
0
1024
0
7168
1024
33804
4096
0
0
0
20480
1024
181248
38912
9216
0
0
0
0
72704
0
1024
0
7168
1024
33792
4096
0
0
0
20484
1024
181280
38916
9216
0
0
0
0
72720
0
1024
0
7168
1024
33800
4096
0
0
0
20484
1024
181280
38916
9216
0
0
0
0
72720
0
1024
0
7168
1024
33800
4096
0
0
0
20483
1024
181272
38915
9216
0
0
0
0
72716
0
1024
0
7168
1024
33798
4096
0
0
0
20485
1024
181288
38917
9216
0
0
0
0
80916
0
1024
0
7168
1024
33802
4096
0
0
0
20481
1024
181256
38913
9216
0
0
0
0
80900
0
1024
0
7168
1024
33794
4096
0
0
0
20483
1024
181272
38915
9216
0
0
0
0
72716
0
1024
0
7168
1024
33798
4096
0
0
0
20483
1024
181272
38915
9216
0
0
0
0
72716
0
1024
0
7168
1024
33798
4096
0
0
0
20482
1024
181264
38914
9216
0
0
0
0
80904
0
1024
0
7168
1024
33796
4096
0
0
0
20482
1024
181264
38914
9216
0
0
0
0
80904
0
1024
0
7168
1024
33796
4096
0
0
0
20484
1024
181280
38916
9216
0
0
0
0
80912
0
1024
0
7168
1024
33800
4096
0
0
0
20481
1024
181256
38913
9216
0
0
0
0
72708
0
1024
0
7168
1024
33794
4096
0
0
0
20481
1024
181256
38913
9216
0
0
0
0
80900
0
1024
0
7168
1024
33794
4096
0
0
0
20484
1024
181280
38916
9216
0
0
0
0
80912
0
1024
0
7168
1024
33800
4096
0
0
0
20485
1024
181288
38917
9216
0
0
0
0
80916
0
1024
0
7168
1024
33802
4096
0
0
0
20486
1024
181296
38918
9216
0
0
0
0
80920
0
1024
0
7168
1024
33804
4096
0
0
0
20480
1024
181248
38912
9216
0
0
0
0
72704
0
1024
0
7168
1024
33792
4096
0
0
0
20483
1024
181272
38915
9216
0
0
0
0
80908
0
1024
0
7168
1024
33798
4096
0
0
0
20481
1024
181256
38913
9216
0
0
0
0
80900
0
1024
0
7168
1024
33794
4096
0
0
0
20483
1024
181272
38915
9216
0
0
0
0
80908
0
1024
0
7168
1024
33798
4096
0
0
0
20483
1024
181272
38915
9216
0
0
0
0
72716
0
1024
0
7168
1024
33798
4096
0
0
0
20482
1024
181264
38914
9216
0
0
0
0
80904
0
1024
0
7168
1024
33796
4096
0
0
0
20485
1024
181288
38917
9216
0
0
0
0
80916
0
1024
0
7168
1024
33802
4096
0
0
0
20486
1024
181296
38918
9216
0
0
0
0
80920
0
1024
0
7168
1024
33804
4096
0
0
0
20484
1024
181280
38916
9216
0
0
0
0
80912
0
1024
0
7168
1024
33800
4096
0
0
0
20482
1024
181264
38914
9216
0
0
0
0
72712
0
1024
0
7168
1024
33796
4096
0
0
0
20485
1024
181288
38917
9216
0
0
0
0
80916
0
1024
0
7168
1024
33802
4096
0
0
0
20481
1024
181256
38913
9216
0
0
0
0
72708
0
1024
0
7168
1024
33794
4096
0
0
0
20481
1024
181256
38913
9216
0
0
0
0
72708
0
1024
0
7168
1024
33794
4096
0
0
0
20481
1024
181256
38913
9216
0
0
0
0
72708
0
1024
0
7168
1024
33794
4096
0
0
0
20483
1024
181272
38915
9216
0
0
0
0
80908
0
1024
0
7168
1024
33798
4096
0
0
0
20483
1024
181272
38915
9216
0
0
0
0
80908
0
1024
0
7168
1024
33798
4096
0
0
0
20482
1024
181264
38914
9216
0
0
0
0
80904
0
1024
0
7168
1024
33796
4096
0
0
0
20482
1024
181264
38914
9216
0
0
0
0
80904
0
1024
0
7168
1024
33796
4096
0
0
0
20486
1024
181296
38918
9216
0
0
0
0
80920
0
1024
0
7168
1024
33804
4096
0
0
0
20481
1024
181256
38913
9216
0
0
0
0
80900
0
1024
0
7168
1024
33794
4096
0
0
0
20484
1024
181280
38916
9216
0
0
0
0
80912
0
1024
0
7168
1024
33800
4096
0
0
0
20481
1024
181256
38913
9216
0
0
0
0
72708
0
1024
0
7168
1024
33794
4096
0
0
0
20480
1024
181248
38912
9216
0
0
0
0
72704
0
1024
0
7168
1024
33792
4096
0
0
0
20486
1024
181296
38918
9216
0
0
0
0
80920
0
1024
0
7168
1024
33804
4096
0
0
0
20484
1024
181280
38916
9216
0
0
0
0
80912
0
1024
0
7168
1024
33800
4096
0
0
0
20482
1024
181264
38914
9216
0
0
0
0
72712
0
1024
0
7168
1024
33796
4096
0
0
0
20484
1024
181280
38916
9216
0
0
0
0
80912
0
1024
0
7168
1024
33800
4096
0
0
0
20482
1024
181264
38914
9216
0
0
0
0
72712
0
1024
0
7168
1024
33796
4096
0
0
0
20488
1024
181312
38920
9216
0
0
0
0
80928
0
1024
0
7168
1024
33808
4096
0
0
0
20485
1024
181288
38917
9216
0
0
0
0
80916
0
1024
0
7168
1024
33802
4096
0
0
0
20481
1024
181256
38913
9216
0
0
0
0
80900
0
1024
0
7168
1024
33794
4096
0
0
0
20483
1024
181272
38915
9216
0
0
0
0
72716
0
1024
0
7168
1024
33798
4096
0
0
0
20481
1024
181256
38913
9216
0
0
0
0
72708
0
1024
0
7168
1024
33794
4096
0
0
0
20482
1024
181264
38914
9216
0
0
0
0
72712
0
1024
0
7168
1024
33796
4096
0
0
0
20481
1024
181256
38913
9216
0
0
0
0
72708
0
1024
0
7168
1024
33794
4096
0
0
0
20481
1024
181256
38913
9216
0
0
0
0
72708
0
1024
0
7168
1024
33794
4096
0
0
0
20487
1024
181304
38919
9216
0
0
0
0
80924
0
1024
0
7168
1024
33806
4096
0
0
0
20481
1024
181256
38913
9216
0
0
0
0
72708
0
1024
0
7168
1024
33794
4096
0
0
0
20483
1024
181272
38915
9216
0
0
0
0
72716
0
1024
0
7168
1024
33798
4096
0
0
0
20483
1024
181272
38915
9216
0
0
0
0
80908
0
1024
0
7168
1024
33798
4096
0
0
0
20485
1024
181288
38917
9216
0
0
0
0
72724
0
1024
0
7168
1024
33802
4096
0
0
0
20480
1024
181248
38912
9216
0
0
0
0
72704
0
1024
0
7168
1024
33792
4096
0
0
0
20482
1024
181264
38914
9216
0
0
0
0
80904
0
1024
0
7168
1024
33796
4096
0
0
0
20485
1024
181288
38917
9216
0
0
0
0
80916
0
1024
0
7168
1024
33802
4096
0
0
0
20484
1024
181280
38916
9216
0
0
0
0
80912
0
1024
0
7168
1024
33800
4096
0
0
0
20482
1024
181264
38914
9216
0
0
0
0
80904
0
1024
0
7168
1024
33796
4096
0
0
0
20484
1024
181280
38916
9216
0
0
0
0
80912
0
1024
0
7168
1024
33800
4096
0
0
0
20485
1024
181288
38917
9216
0
0
0
0
80916
0
1024
0
7168
1024
33802
4096
0
0
0
20482
1024
181264
38914
9216
0
0
0
0
72712
0
1024
0
7168
1024
33796
4096
0
0
0
20489
1024
181320
38921
9216
0
0
0
0
80932
0
1024
0
7168
1024
33810
4096
0
0
0
20487
1024
181304
38919
9216
0
0
0
0
80924
0
1024
0
7168
1024
33806
4096
0
0
0
20482
1024
181264
38914
9216
0
0
0
0
80904
0
1024
0
7168
1024
33796
4096
0
0
0
20482
1024
181264
38914
9216
0
0
0
0
80904
0
1024
0
7168
1024
33796
4096
0
0
0
20488
1024
181312
38920
9216
0
0
0
0
89120
0
1024
0
7168
1024
33808
4096
0
0
0
20482
1024
181264
38914
9216
0
0
0
0
72712
0
1024
0
7168
1024
33796
4096
0
0
0
20482
1024
181264
38914
9216
0
0
0
0
80904
0
1024
0
7168
1024
33796
4096
0
0
0
20481
1024
181256
38913
9216
0
0
0
0
72708
0
1024
0
7168
1024
33794
4096
0
0
0
20482
1024
181264
38914
9216
0
0
0
0
72712
0
1024
0
7168
1024
33796
4096
0
0
0
20481
1024
181256
38913
9216
0
0
0
0
72708
0
1024
0
7168
1024
33794
4096
0
0
0
20485
1024
181288
38917
9216
0
0
0
0
89108
0
1024
0
7168
1024
33802
4096
0
0
0
20483
1024
181272
38915
9216
0
0
0
0
72716
0
1024
0
7168
1024
33798
4096
0
0
0
20483
1024
181272
38915
9216
0
0
0
0
80908
0
1024
0
7168
1024
33798
4096
0
0
0
20485
1024
181288
38917
9216
0
0
0
0
80916
0
1024
0
7168
1024
33802
4096
0
0
0
20482
1024
181264
38914
9216
0
0
0
0
72712
0
1024
0
7168
1024
33796
4096
0
0
0
20485
1024
181288
38917
9216
0
0
0
0
80916
0
1024
0
7168
1024
33802
4096
0
0
0
20480
1024
181248
38912
9216
0
0
0
0
72704
0
1024
0
7168
1024
33792
4096
0
0
0
20481
1024
181256
38913
9216
0
0
0
0
72708
0
1024
0
7168
1024
33794
4096
0
0
0
20483
1024
181272
38915
9216
0
0
0
0
72716
0
1024
0
7168
1024
33798
4096
0
0
0
20482
1024
181264
38914
9216
0
0
0
0
80904
0
1024
0
7168
1024
33796
4096
0
0
0
20482
1024
181264
38914
9216
0
0
0
0
72712
0
1024
0
7168
1024
33796
4096
0
0
0
20482
1024
181264
38914
9216
0
0
0
0
80904
0
1024
0
7168
1024
33796
4096
0
0
0
20485
1024
181288
38917
9216
0
0
0
0
80916
0
1024
0
7168
1024
33802
4096
0
0
0
20486
1024
181296
38918
9216
0
0
0
0
80920
0
1024
0
7168
1024
33804
4096
0
0
0
20481
1024
181256
38913
9216
0
0
0
0
80900
0
1024
0
7168
1024
33794
4096
0
0
0
20482
1024
181264
38914
9216
0
0
0
0
72712
0
1024
0
7168
1024
33796
4096
0
0
0
20484
1024
181280
38916
9216
0
0
0
0
80912
0
1024
0
7168
1024
33800
4096
0
0
0
20485
1024
181288
38917
9216
0
0
0
0
80916
0
1024
0
7168
1024
33802
4096
0
0
0
20482
1024
181264
38914
9216
0
0
0
0
80904
0
1024
0
7168
1024
33796
4096
0
0
0
20484
1024
181280
38916
9216
0
0
0
0
80912
0
1024
0
7168
1024
33800
4096
0
0
0
20482
1024
181264
38914
9216
0
0
0
0
80904
0
1024
0
7168
1024
33796
4096
0
0
0
20486
1024
181296
38918
9216
0
0
0
0
80920
0
1024
0
7168
1024
33804
4096
0
0
0
20480
1024
181248
38912
9216
0
0
0
0
72704
0
1024
0
7168
1024
33792
4096
0
0
0
20483
1024
181272
38915
9216
0
0
0
0
80908
0
1024
0
7168
1024
33798
4096
0
0
0
20482
1024
181264
38914
9216
0
0
0
0
80904
0
1024
0
7168
1024
33796
4096
0
0
0
20486
1024
181296
38918
9216
0
0
0
0
72728
0
1024
0
7168
1024
33804
4096
0
0
0
20482
1024
181264
38914
9216
0
0
0
0
80904
0
1024
0
7168
1024
33796
4096
0
0
0
20483
1024
181272
38915
9216
0
0
0
0
80908
0
1024
0
7168
1024
33798
4096
0
0
0
20483
1024
181272
38915
9216
0
0
0
0
80908
0
1024
0
7168
1024
33798
4096
0
0
0
20483
1024
181272
38915
9216
0
0
0
0
72716
0
1024
0
7168
1024
33798
4096
0
0
0
20483
1024
181272
38915
9216
0
0
0
0
72716
0
1024
0
7168
1024
33798
4096
0
0
0
20485
1024
181288
38917
9216
0
0
0
0
80916
0
1024
0
7168
1024
33802
4096
0
0
0
20484
1024
181280
38916
9216
0
0
0
0
80912
0
1024
0
7168
1024
33800
4096
0
0
0
20484
1024
181280
38916
9216
0
0
0
0
80912
0
1024
0
7168
1024
33800
4096
0
0
0
20486
1024
181296
38918
9216
0
0
0
0
80920
0
1024
0
7168
1024
33804
4096
0
0
0
20482
1024
181264
38914
9216
0
0
0
0
80904
0
1024
0
7168
1024
33796
4096
0
0
0
20487
1024
181304
38919
9216
0
0
0
0
80924
0
1024
0
7168
1024
33806
4096
0
0
0
20481
1024
181256
38913
9216
0
0
0
0
72708
0
1024
0
7168
1024
33794
4096
0
0
0
20483
1024
181272
38915
9216
0
0
0
0
80908
0
1024
0
7168
1024
33798
4096
0
0
0
20482
1024
181264
38914
9216
0
0
0
0
80904
0
1024
0
7168
1024
33796
4096
0
0
0
20484
1024
181280
38916
9216
0
0
0
0
80912
0
1024
0
7168
1024
33800
4096
0
0
0
20485
1024
181288
38917
9216
0
0
0
0
80916
0
1024
0
7168
1024
33802
4096
0
0
0
20482
1024
181264
38914
9216
0
0
0
0
80904
0
1024
0
7168
1024
33796
4096
0
0
0
20483
1024
181272
38915
9216
0
0
0
0
80908
0
1024
0
7168
1024
33798
4096
0
0
0
20483
1024
181272
38915
9216
0
0
0
0
72716
0
1024
0
7168
1024
33798
4096
0
0
0
20481
1024
181256
38913
9216
0
0
0
0
80900
0
1024
0
7168
1024
33794
4096
0
0
0
20484
1024
181280
38916
9216
0
0
0
0
72720
0
1024
0
7168
1024
33800
4096
0
0
0
20483
1024
181272
38915
9216
0
0
0
0
72716
0
1024
0
7168
1024
33798
4096
0
0
0
20485
1024
181288
38917
9216
0
0
0
0
80916
0
1024
0
7168
1024
33802
4096
0
0
0
20483
1024
181272
38915
9216
0
0
0
0
72716
0
1024
0
7168
1024
33798
4096
0
0
0
20481
1024
181256
38913
9216
0
0
0
0
80900
0
1024
0
7168
1024
33794
4096
0
0
0
20483
1024
181272
38915
9216
0
0
0
0
72716
0
1024
0
7168
1024
33798
4096
0
0
0
20484
1024
181280
38916
9216
0
0
0
0
80912
0
1024
0
7168
1024
33800
4096
0
0
0
20485
1024
181288
38917
9216
0
0
0
0
80916
0
1024
0
7168
1024
33802
4096
0
0
0
20485
1024
181288
38917
9216
0
0
0
0
80916
0
1024
0
7168
1024
33802
4096
0
0
0
20484
1024
181280
38916
9216
0
0
0
0
80912
0
1024
0
7168
1024
33800
4096
0
0
0
20483
1024
181272
38915
9216
0
0
0
0
80908
0
1024
0
7168
1024
33798
4096
0
0
0
20483
1024
181272
38915
9216
0
0
0
0
80908
0
1024
0
7168
1024
33798
4096
0
0
0
20484
1024
181280
38916
9216
0
0
0
0
80912
0
1024
0
7168
1024
33800
4096
0
0
0
20485
1024
181288
38917
9216
0
0
0
0
80916
0
1024
0
7168
1024
33802
4096
0
0
0
20484
1024
181280
38916
9216
0
0
0
0
80912
0
1024
0
7168
1024
33800
4096
0
0
0
20485
1024
181288
38917
9216
0
0
0
0
80916
0
1024
0
7168
1024
33802
4096
0
0
0
20486
1024
181296
38918
9216
0
0
0
0
89112
0
1024
0
7168
1024
33804
4096
0
0
0
20485
1024
181288
38917
9216
0
0
0
0
72724
0
1024
0
7168
1024
33802
4096
0
0
0
20482
1024
181264
38914
9216
0
0
0
0
72712
0
1024
0
7168
1024
33796
4096
0
0
0
20485
1024
181288
38917
9216
0
0
0
0
80916
0
1024
0
7168
1024
33802
4096
0
0
0
20483
1024
181272
38915
9216
0
0
0
0
80908
0
1024
0
7168
1024
33798
4096
0
0
0
20485
1024
181288
38917
9216
0
0
0
0
80916
0
1024
0
7168
1024
33802
4096
0
0
0
20486
1024
181296
38918
9216
0
0
0
0
80920
0
1024
0
7168
1024
33804
4096
0
0
0
20484
1024
181280
38916
9216
0
0
0
0
72720
0
1024
0
7168
1024
33800
4096
0
0
0
20483
1024
181272
38915
9216
0
0
0
0
80908
0
1024
0
7168
1024
33798
4096
0
0
0
20484
1024
181280
38916
9216
0
0
0
0
80912
0
1024
0
7168
1024
33800
4096
0
0
0
20482
1024
181264
38914
9216
0
0
0
0
80904
0
1024
0
7168
1024
33796
4096
0
0
0
20487
1024
181304
38919
9216
0
0
0
0
89116
0
1024
0
7168
1024
33806
4096
0
0
0
20481
1024
181256
38913
9216
0
0
0
0
80900
0
1024
0
7168
1024
33794
4096
0
0
0
20481
1024
181256
38913
9216
0
0
0
0
72708
0
1024
0
7168
1024
33794
4096
0
0
0
20482
1024
181264
38914
9216
0
0
0
0
72712
0
1024
0
7168
1024
33796
4096
0
0
0
20482
1024
181264
38914
9216
0
0
0
0
80904
0
1024
0
7168
1024
33796
4096
0
0
0
20482
1024
181264
38914
9216
0
0
0
0
72712
0
1024
0
7168
1024
33796
4096
0
0
0
20482
1024
181264
38914
9216
0
0
0
0
80904
0
1024
0
7168
1024
33796
4096
0
0
0
20484
1024
181280
38916
9216
0
0
0
0
80912
0
1024
0
7168
1024
33800
4096
0
0
0
20484
1024
181280
38916
9216
0
0
0
0
80912
0
1024
0
7168
1024
33800
4096
0
0
0
20488
1024
181312
38920
9216
0
0
0
0
80928
0
1024
0
7168
1024
33808
4096
0
0
0
20482
1024
181264
38914
9216
0
0
0
0
80904
0
1024
0
7168
1024
33796
4096
0
0
0
20480
1024
181248
38912
9216
0
0
0
0
72704
0
1024
0
7168
1024
33792
4096
0
0
0
20484
1024
181280
38916
9216
0
0
0
0
72720
0
1024
0
7168
1024
33800
4096
0
0
0
20483
1024
181272
38915
9216
0
0
0
0
80908
0
1024
0
7168
1024
33798
4096
0
0
0
20483
1024
181272
38915
9216
0
0
0
0
80908
0
1024
0
7168
1024
33798
4096
0
0
0
20481
1024
181256
38913
9216
0
0
0
0
72708
0
1024
0
7168
1024
33794
4096
0
0
0
20484
1024
181280
38916
9216
0
0
0
0
80912
0
1024
0
7168
1024
33800
4096
0
0
0
20482
1024
181264
38914
9216
0
0
0
0
72712
0
1024
0
7168
1024
33796
4096
0
0
0
20486
1024
181296
38918
9216
0
0
0
0
80920
0
1024
0
7168
1024
33804
4096
0
0
0
20483
1024
181272
38915
9216
0
0
0
0
80908
0
1024
0
7168
1024
33798
4096
0
0
0
20482
1024
181264
38914
9216
0
0
0
0
80904
0
1024
0
7168
1024
33796
4096
0
0
0
20484
1024
181280
38916
9216
0
0
0
0
72720
0
1024
0
7168
1024
33800
4096
0
0
0
20485
1024
181288
38917
9216
0
0
0
0
80916
0
1024
0
7168
1024
33802
4096
0
0
0
0
0
0
0
0
0
0
0
0
0
0
0
0
0
0
0
0
0
0
0
