26
0
208
26
0
0
0
0
0
104
0
0
0
0
0
8243
0
0
0
0
28
0
224
28
0
0
0
0
0
112
0
0
0
0
0
8248
0
0
0
0
27
0
216
27
0
0
0
0
0
108
0
0
0
0
0
8245
0
0
0
0
28
0
224
28
0
0
0
0
0
112
0
0
0
0
0
8247
0
0
0
0
28
0
224
28
0
0
0
0
0
112
0
0
0
0
0
8248
0
0
0
0
32
0
256
32
0
0
0
0
0
128
0
0
0
0
0
8256
0
0
0
0
16
0
128
16
0
0
0
0
0
64
0
0
0
0
0
8222
0
0
0
0
17
0
136
17
0
0
0
0
0
68
0
0
0
0
0
8226
0
0
0
0
18
0
144
18
0
0
0
0
0
72
0
0
0
0
0
8228
0
0
0
0
25
0
200
25
0
0
0
0
0
100
0
0
0
0
0
8242
0
0
0
0
17
0
136
17
0
0
0
0
0
68
0
0
0
0
0
8226
0
0
0
0
27
0
216
27
0
0
0
0
0
108
0
0
0
0
0
8246
0
0
0
0
20
0
160
20
0
0
0
0
0
80
0
0
0
0
0
8232
0
0
0
0
15
0
120
15
0
0
0
0
0
60
0
0
0
0
0
8222
0
0
0
0
20
0
160
20
0
0
0
0
0
80
0
0
0
0
0
8232
0
0
0
0
30
0
240
30
0
0
0
0
0
120
0
0
0
0
0
8252
0
0
0
0
26
0
208
26
0
0
0
0
0
104
0
0
0
0
0
8243
0
0
0
0
26
0
208
26
0
0
0
0
0
104
0
0
0
0
0
8244
0
0
0
0
37
0
296
37
0
0
0
0
0
148
0
0
0
0
0
8265
0
0
0
0
28
0
224
28
0
0
0
0
0
112
0
0
0
0
0
8246
0
0
0
0
16
0
128
16
0
0
0
0
0
64
0
0
0
0
0
8223
0
0
0
0
28
0
224
28
0
0
0
0
0
112
0
0
0
0
0
8248
0
0
0
0
27
0
216
27
0
0
0
0
0
108
0
0
0
0
0
8245
0
0
0
0
33
0
264
33
0
0
0
0
0
132
0
0
0
0
0
8258
0
0
0
0
24
0
192
24
0
0
0
0
0
96
0
0
0
0
0
8238
0
0
0
0
26
0
208
26
0
0
0
0
0
104
0
0
0
0
0
8242
0
0
0
0
20
0
160
20
0
0
0
0
0
80
0
0
0
0
0
8231
0
0
0
0
18
0
144
18
0
0
0
0
0
72
0
0
0
0
0
8228
0
0
0
0
30
0
240
30
0
0
0
0
0
120
0
0
0
0
0
8252
0
0
0
0
24
0
192
24
0
0
0
0
0
96
0
0
0
0
0
8239
0
0
0
0
23
0
184
23
0
0
0
0
0
92
0
0
0
0
0
8238
0
0
0
0
35
0
280
35
0
0
0
0
0
140
0
0
0
0
0
8262
0
0
0
0
26
0
208
26
0
0
0
0
0
104
0
0
0
0
0
8244
0
0
0
0
27
0
216
27
0
0
0
0
0
108
0
0
0
0
0
8246
0
0
0
0
28
0
224
28
0
0
0
0
0
112
0
0
0
0
0
8245
0
0
0
0
30
0
240
30
0
0
0
0
0
120
0
0
0
0
0
8252
0
0
0
0
24
0
192
24
0
0
0
0
0
96
0
0
0
0
0
8240
0
0
0
0
23
0
184
23
0
0
0
0
0
92
0
0
0
0
0
8236
0
0
0
0
34
0
272
34
0
0
0
0
0
136
0
0
0
0
0
8260
0
0
0
0
24
0
192
24
0
0
0
0
0
96
0
0
0
0
0
8231
0
0
0
0
25
0
200
25
0
0
0
0
0
100
0
0
0
0
0
8242
0
0
0
0
28
0
224
28
0
0
0
0
0
112
0
0
0
0
0
8247
0
0
0
0
29
0
232
29
0
0
0
0
0
116
0
0
0
0
0
8249
0
0
0
0
24
0
192
24
0
0
0
0
0
96
0
0
0
0
0
8239
0
0
0
0
22
0
176
22
0
0
0
0
0
88
0
0
0
0
0
8236
0
0
0
0
25
0
200
25
0
0
0
0
0
100
0
0
0
0
0
8242
0
0
0
0
24
0
192
24
0
0
0
0
0
96
0
0
0
0
0
8240
0
0
0
0
21
0
168
21
0
0
0
0
0
84
0
0
0
0
0
8234
0
0
0
0
30
0
240
30
0
0
0
0
0
120
0
0
0
0
0
8252
0
0
0
0
21
0
168
21
0
0
0
0
0
84
0
0
0
0
0
8233
0
0
0
0
20
0
160
20
0
0
0
0
0
80
0
0
0
0
0
8232
0
0
0
0
27
0
216
27
0
0
0
0
0
108
0
0
0
0
0
8246
0
0
0
0
14
0
112
14
0
0
0
0
0
56
0
0
0
0
0
8219
0
0
0
0
27
0
216
27
0
0
0
0
0
108
0
0
0
0
0
8246
0
0
0
0
20
0
160
20
0
0
0
0
0
80
0
0
0
0
0
8230
0
0
0
0
27
0
216
27
0
0
0
0
0
108
0
0
0
0
0
8244
0
0
0
0
21
0
168
21
0
0
0
0
0
84
0
0
0
0
0
8233
0
0
0
0
19
0
152
19
0
0
0
0
0
76
0
0
0
0
0
8229
0
0
0
0
29
0
232
29
0
0
0
0
0
116
0
0
0
0
0
8250
0
0
0
0
23
0
184
23
0
0
0
0
0
92
0
0
0
0
0
8236
0
0
0
0
20
0
160
20
0
0
0
0
0
80
0
0
0
0
0
8232
0
0
0
0
24
0
192
24
0
0
0
0
0
96
0
0
0
0
0
8239
0
0
0
0
33
0
264
33
0
0
0
0
0
132
0
0
0
0
0
8258
0
0
0
0
24
0
192
24
0
0
0
0
0
96
0
0
0
0
0
8240
0
0
0
0
21
0
168
21
0
0
0
0
0
84
0
0
0
0
0
8234
0
0
0
0
28
0
224
28
0
0
0
0
0
112
0
0
0
0
0
8248
0
0
0
0
20
0
160
20
0
0
0
0
0
80
0
0
0
0
0
8232
0
0
0
0
24
0
192
24
0
0
0
0
0
96
0
0
0
0
0
8240
0
0
0
0
30
0
240
30
0
0
0
0
0
120
0
0
0
0
0
8252
0
0
0
0
25
0
200
25
0
0
0
0
0
100
0
0
0
0
0
8236
0
0
0
0
22
0
176
22
0
0
0
0
0
88
0
0
0
0
0
8236
0
0
0
0
19
0
152
19
0
0
0
0
0
76
0
0
0
0
0
8230
0
0
0
0
29
0
232
29
0
0
0
0
0
116
0
0
0
0
0
8248
0
0
0
0
24
0
192
24
0
0
0
0
0
96
0
0
0
0
0
8237
0
0
0
0
22
0
176
22
0
0
0
0
0
88
0
0
0
0
0
8234
0
0
0
0
28
0
224
28
0
0
0
0
0
112
0
0
0
0
0
8247
0
0
0
0
20
0
160
20
0
0
0
0
0
80
0
0
0
0
0
8230
0
0
0
0
20
0
160
20
0
0
0
0
0
80
0
0
0
0
0
8232
0
0
0
0
14
0
112
14
0
0
0
0
0
56
0
0
0
0
0
8219
0
0
0
0
23
0
184
23
0
0
0
0
0
92
0
0
0
0
0
8237
0
0
0
0
31
0
248
31
0
0
0
0
0
124
0
0
0
0
0
8254
0
0
0
0
24
0
192
24
0
0
0
0
0
96
0
0
0
0
0
8240
0
0
0
0
26
0
208
26
0
0
0
0
0
104
0
0
0
0
0
8244
0
0
0
0
36
0
288
36
0
0
0
0
0
144
0
0
0
0
0
8262
0
0
0
0
24
0
192
24
0
0
0
0
0
96
0
0
0
0
0
8239
0
0
0
0
26
0
208
26
0
0
0
0
0
104
0
0
0
0
0
8243
0
0
0
0
30
0
240
30
0
0
0
0
0
120
0
0
0
0
0
8252
0
0
0
0
19
0
152
19
0
0
0
0
0
76
0
0
0
0
0
8228
0
0
0
0
30
0
240
30
0
0
0
0
0
120
0
0
0
0
0
8251
0
0
0
0
34
0
272
34
0
0
0
0
0
136
0
0
0
0
0
8257
0
0
0
0
29
0
232
29
0
0
0
0
0
116
0
0
0
0
0
8250
0
0
0
0
27
0
216
27
0
0
0
0
0
108
0
0
0
0
0
8246
0
0
0
0
29
0
232
29
0
0
0
0
0
116
0
0
0
0
0
8248
0
0
0
0
19
0
152
19
0
0
0
0
0
76
0
0
0
0
0
8230
0
0
0
0
25
0
200
25
0
0
0
0
0
100
0
0
0
0
0
8242
0
0
0
0
26
0
208
26
0
0
0
0
0
104
0
0
0
0
0
8243
0
0
0
0
21
0
168
21
0
0
0
0
0
84
0
0
0
0
0
8234
0
0
0
0
21
0
168
21
0
0
0
0
0
84
0
0
0
0
0
8231
0
0
0
0
31
0
248
31
0
0
0
0
0
124
0
0
0
0
0
8253
0
0
0
0
22
0
176
22
0
0
0
0
0
88
0
0
0
0
0
8236
0
0
0
0
29
0
232
29
0
0
0
0
0
116
0
0
0
0
0
8250
0
0
0
0
26
0
208
26
0
0
0
0
0
104
0
0
0
0
0
8244
0
0
0
0
29
0
232
29
0
0
0
0
0
116
0
0
0
0
0
8250
0
0
0
0
19
0
152
19
0
0
0
0
0
76
0
0
0
0
0
8229
0
0
0
0
18
0
144
18
0
0
0
0
0
72
0
0
0
0
0
8228
0
0
0
0
32
0
256
32
0
0
0
0
0
128
0
0
0
0
0
8255
0
0
0
0
17
0
136
17
0
0
0
0
0
68
0
0
0
0
0
8225
0
0
0
0
14
0
112
14
0
0
0
0
0
56
0
0
0
0
0
8219
0
0
0
0
22
0
176
22
0
0
0
0
0
88
0
0
0
0
0
8236
0
0
0
0
23
0
184
23
0
0
0
0
0
92
0
0
0
0
0
8236
0
0
0
0
38
0
304
38
0
0
0
0
0
152
0
0
0
0
0
8268
0
0
0
0
21
0
168
21
0
0
0
0
0
84
0
0
0
0
0
8227
0
0
0
0
25
0
200
25
0
0
0
0
0
100
0
0
0
0
0
8241
0
0
0
0
14
0
112
14
0
0
0
0
0
56
0
0
0
0
0
8220
0
0
0
0
25
0
200
25
0
0
0
0
0
100
0
0
0
0
0
8242
0
0
0
0
25
0
200
25
0
0
0
0
0
100
0
0
0
0
0
8242
0
0
0
0
27
0
216
27
0
0
0
0
0
108
0
0
0
0
0
8245
0
0
0
0
22
0
176
22
0
0
0
0
0
88
0
0
0
0
0
8235
0
0
0
0
25
0
200
25
0
0
0
0
0
100
0
0
0
0
0
8242
0
0
0
0
24
0
192
24
0
0
0
0
0
96
0
0
0
0
0
8239
0
0
0
0
21
0
168
21
0
0
0
0
0
84
0
0
0
0
0
8234
0
0
0
0
20
0
160
20
0
0
0
0
0
80
0
0
0
0
0
8232
0
0
0
0
28
0
224
28
0
0
0
0
0
112
0
0
0
0
0
8248
0
0
0
0
19
0
152
19
0
0
0
0
0
76
0
0
0
0
0
8230
0
0
0
0
21
0
168
21
0
0
0
0
0
84
0
0
0
0
0
8234
0
0
0
0
29
0
232
29
0
0
0
0
0
116
0
0
0
0
0
8249
0
0
0
0
26
0
208
26
0
0
0
0
0
104
0
0
0
0
0
8244
0
0
0
0
24
0
192
24
0
0
0
0
0
96
0
0
0
0
0
8238
0
0
0
0
27
0
216
27
0
0
0
0
0
108
0
0
0
0
0
8245
0
0
0
0
20
0
160
20
0
0
0
0
0
80
0
0
0
0
0
8228
0
0
0
0
31
0
248
31
0
0
0
0
0
124
0
0
0
0
0
8254
0
0
0
0
25
0
200
25
0
0
0
0
0
100
0
0
0
0
0
8242
0
0
0
0
27
0
216
27
0
0
0
0
0
108
0
0
0
0
0
8246
0
0
0
0
18
0
144
18
0
0
0
0
0
72
0
0
0
0
0
8226
0
0
0
0
22
0
176
22
0
0
0
0
0
88
0
0
0
0
0
8236
0
0
0
0
22
0
176
22
0
0
0
0
0
88
0
0
0
0
0
8235
0
0
0
0
31
0
248
31
0
0
0
0
0
124
0
0
0
0
0
8254
0
0
0
0
36
0
288
36
0
0
0
0
0
144
0
0
0
0
0
8263
0
0
0
0
28
0
224
28
0
0
0
0
0
112
0
0
0
0
0
8243
0
0
0
0
24
0
192
24
0
0
0
0
0
96
0
0
0
0
0
8238
0
0
0
0
24
0
192
24
0
0
0
0
0
96
0
0
0
0
0
8240
0
0
0
0
20
0
160
20
0
0
0
0
0
80
0
0
0
0
0
8232
0
0
0
0
29
0
232
29
0
0
0
0
0
116
0
0
0
0
0
8250
0
0
0
0
24
0
192
24
0
0
0
0
0
96
0
0
0
0
0
8240
0
0
0
0
23
0
184
23
0
0
0
0
0
92
0
0
0
0
0
8238
0
0
0
0
20
0
160
20
0
0
0
0
0
80
0
0
0
0
0
8232
0
0
0
0
24
0
192
24
0
0
0
0
0
96
0
0
0
0
0
8240
0
0
0
0
24
0
192
24
0
0
0
0
0
96
0
0
0
0
0
8239
0
0
0
0
28
0
224
28
0
0
0
0
0
112
0
0
0
0
0
8248
0
0
0
0
28
0
224
28
0
0
0
0
0
112
0
0
0
0
0
8245
0
0
0
0
25
0
200
25
0
0
0
0
0
100
0
0
0
0
0
8242
0
0
0
0
25
0
200
25
0
0
0
0
0
100
0
0
0
0
0
8242
0
0
0
0
19
0
152
19
0
0
0
0
0
76
0
0
0
0
0
8229
0
0
0
0
23
0
184
23
0
0
0
0
0
92
0
0
0
0
0
8238
0
0
0
0
25
0
200
25
0
0
0
0
0
100
0
0
0
0
0
8241
0
0
0
0
24
0
192
24
0
0
0
0
0
96
0
0
0
0
0
8240
0
0
0
0
24
0
192
24
0
0
0
0
0
96
0
0
0
0
0
8239
0
0
0
0
35
0
280
35
0
0
0
0
0
140
0
0
0
0
0
8260
0
0
0
0
24
0
192
24
0
0
0
0
0
96
0
0
0
0
0
8238
0
0
0
0
29
0
232
29
0
0
0
0
0
116
0
0
0
0
0
8249
0
0
0
0
27
0
216
27
0
0
0
0
0
108
0
0
0
0
0
8246
0
0
0
0
22
0
176
22
0
0
0
0
0
88
0
0
0
0
0
8235
0
0
0
0
36
0
288
36
0
0
0
0
0
144
0
0
0
0
0
8263
0
0
0
0
25
0
200
25
0
0
0
0
0
100
0
0
0
0
0
8241
0
0
0
0
29
0
232
29
0
0
0
0
0
116
0
0
0
0
0
8247
0
0
0
0
24
0
192
24
0
0
0
0
0
96
0
0
0
0
0
8239
0
0
0
0
36
0
288
36
0
0
0
0
0
144
0
0
0
0
0
8264
0
0
0
0
25
0
200
25
0
0
0
0
0
100
0
0
0
0
0
8241
0
0
0
0
28
0
224
28
0
0
0
0
0
112
0
0
0
0
0
8248
0
0
0
0
27
0
216
27
0
0
0
0
0
108
0
0
0
0
0
8246
0
0
0
0
19
0
152
19
0
0
0
0
0
76
0
0
0
0
0
8230
0
0
0
0
25
0
200
25
0
0
0
0
0
100
0
0
0
0
0
8242
0
0
0
0
30
0
240
30
0
0
0
0
0
120
0
0
0
0
0
8251
0
0
0
0
25
0
200
25
0
0
0
0
0
100
0
0
0
0
0
8240
0
0
0
0
19
0
152
19
0
0
0
0
0
76
0
0
0
0
0
8229
0
0
0
0
35
0
280
35
0
0
0
0
0
140
0
0
0
0
0
8262
0
0
0
0
30
0
240
30
0
0
0
0
0
120
0
0
0
0
0
8250
0
0
0
0
28
0
224
28
0
0
0
0
0
112
0
0
0
0
0
8248
0
0
0
0
31
0
248
31
0
0
0
0
0
124
0
0
0
0
0
8254
0
0
0
0
26
0
208
26
0
0
0
0
0
104
0
0
0
0
0
8244
0
0
0
0
15
0
120
15
0
0
0
0
0
60
0
0
0
0
0
8222
0
0
0
0
15
0
120
15
0
0
0
0
0
60
0
0
0
0
0
8222
0
0
0
0
26
0
208
26
0
0
0
0
0
104
0
0
0
0
0
8244
0
0
0
0
28
0
224
28
0
0
0
0
0
112
0
0
0
0
0
8248
0
0
0
0
20
0
160
20
0
0
0
0
0
80
0
0
0
0
0
8230
0
0
0
0
21
0
168
21
0
0
0
0
0
84
0
0
0
0
0
8234
0
0
0
0
20
0
160
20
0
0
0
0
0
80
0
0
0
0
0
8232
0
0
0
0
29
0
232
29
0
0
0
0
0
116
0
0
0
0
0
8249
0
0
0
0
19
0
152
19
0
0
0
0
0
76
0
0
0
0
0
8229
0
0
0
0
27
0
216
27
0
0
0
0
0
108
0
0
0
0
0
8246
0
0
0
0
23
0
184
23
0
0
0
0
0
92
0
0
0
0
0
8238
0
0
0
0
19
0
152
19
0
0
0
0
0
76
0
0
0
0
0
8229
0
0
0
0
21
0
168
21
0
0
0
0
0
84
0
0
0
0
0
8233
0
0
0
0
38
0
304
38
0
0
0
0
0
152
0
0
0
0
0
8268
0
0
0
0
19
0
152
19
0
0
0
0
0
76
0
0
0
0
0
8230
0
0
0
0
16
0
128
16
0
0
0
0
0
64
0
0
0
0
0
8223
0
0
0
0
14
0
112
14
0
0
0
0
0
56
0
0
0
0
0
8219
0
0
0
0
19
0
152
19
0
0
0
0
0
76
0
0
0
0
0
8228
0
0
0
0
18
0
144
18
0
0
0
0
0
72
0
0
0
0
0
8228
0
0
0
0
21
0
168
21
0
0
0
0
0
84
0
0
0
0
0
8232
0
0
0
0
23
0
184
23
0
0
0
0
0
92
0
0
0
0
0
8237
0
0
0
0
22
0
176
22
0
0
0
0
0
88
0
0
0
0
0
8236
0
0
0
0
16
0
128
16
0
0
0
0
0
64
0
0
0
0
0
8221
0
0
0
0
26
0
208
26
0
0
0
0
0
104
0
0
0
0
0
8243
0
0
0
0
18
0
144
18
0
0
0
0
0
72
0
0
0
0
0
8227
0
0
0
0
19
0
152
19
0
0
0
0
0
76
0
0
0
0
0
8229
0
0
0
0
24
0
192
24
0
0
0
0
0
96
0
0
0
0
0
8239
0
0
0
0
31
0
248
31
0
0
0
0
0
124
0
0
0
0
0
8254
0
0
0
0
20
0
160
20
0
0
0
0
0
80
0
0
0
0
0
8232
0
0
0
0
26
0
208
26
0
0
0
0
0
104
0
0
0
0
0
8240
0
0
0
0
35
0
280
35
0
0
0
0
0
140
0
0
0
0
0
8262
0
0
0
0
36
0
288
36
0
0
0
0
0
144
0
0
0
0
0
8264
0
0
0
0
34
0
272
34
0
0
0
0
0
136
0
0
0
0
0
8258
0
0
0
0
25
0
200
25
0
0
0
0
0
100
0
0
0
0
0
8241
0
0
0
0
37
0
296
37
0
0
0
0
0
148
0
0
0
0
0
8266
0
0
0
0
23
0
184
23
0
0
0
0
0
92
0
0
0
0
0
8238
0
0
0
0
21
0
168
21
0
0
0
0
0
84
0
0
0
0
0
8233
0
0
0
0
26
0
208
26
0
0
0
0
0
104
0
0
0
0
0
8234
0
0
0
0
20
0
160
20
0
0
0
0
0
80
0
0
0
0
0
8232
0
0
0
0
18
0
144
18
0
0
0
0
0
72
0
0
0
0
0
8226
0
0
0
0
21
0
168
21
0
0
0
0
0
84
0
0
0
0
0
8234
0
0
0
0
17
0
136
17
0
0
0
0
0
68
0
0
0
0
0
8226
0
0
0
0
29
0
232
29
0
0
0
0
0
116
0
0
0
0
0
8247
0
0
0
0
18
0
144
18
0
0
0
0
0
72
0
0
0
0
0
8228
0
0
0
0
34
0
272
34
0
0
0
0
0
136
0
0
0
0
0
8259
0
0
0
0
29
0
232
29
0
0
0
0
0
116
0
0
0
0
0
8250
0
0
0
0
19
0
152
19
0
0
0
0
0
76
0
0
0
0
0
8228
0
0
0
0
21
0
168
21
0
0
0
0
0
84
0
0
0
0
0
8233
0
0
0
0
22
0
176
22
0
0
0
0
0
88
0
0
0
0
0
8236
0
0
0
0
25
0
200
25
0
0
0
0
0
100
0
0
0
0
0
8242
0
0
0
0
30
0
240
30
0
0
0
0
0
120
0
0
0
0
0
8252
0
0
0
0
25
0
200
25
0
0
0
0
0
100
0
0
0
0
0
8242
0
0
0
0
23
0
184
23
0
0
0
0
0
92
0
0
0
0
0
8237
0
0
0
0
32
0
256
32
0
0
0
0
0
128
0
0
0
0
0
8251
0
0
0
0
32
0
256
32
0
0
0
0
0
128
0
0
0
0
0
8256
0
0
0
0
32
0
256
32
0
0
0
0
0
128
0
0
0
0
0
8256
0
0
0
0
28
0
224
28
0
0
0
0
0
112
0
0
0
0
0
8248
0
0
0
0
26
0
208
26
0
0
0
0
0
104
0
0
0
0
0
8244
0
0
0
0
22
0
176
22
0
0
0
0
0
88
0
0
0
0
0
8236
0
0
0
0
21
0
168
21
0
0
0
0
0
84
0
0
0
0
0
8233
0
0
0
0
25
0
200
25
0
0
0
0
0
100
0
0
0
0
0
8242
0
0
0
0
26
0
208
26
0
0
0
0
0
104
0
0
0
0
0
8244
0
0
0
0
20
0
160
20
0
0
0
0
0
80
0
0
0
0
0
8232
0
0
0
0
25
0
200
25
0
0
0
0
0
100
0
0
0
0
0
8242
0
0
0
0
27
0
216
27
0
0
0
0
0
108
0
0
0
0
0
8245
0
0
0
0
15
0
120
15
0
0
0
0
0
60
0
0
0
0
0
8221
0
0
0
0
29
0
232
29
0
0
0
0
0
116
0
0
0
0
0
8250
0
0
0
0
25
0
200
25
0
0
0
0
0
100
0
0
0
0
0
8242
0
0
0
0
21
0
168
21
0
0
0
0
0
84
0
0
0
0
0
8234
0
0
0
0
27
0
216
27
0
0
0
0
0
108
0
0
0
0
0
8243
0
0
0
0
19
0
152
19
0
0
0
0
0
76
0
0
0
0
0
8230
0
0
0
0
28
0
224
28
0
0
0
0
0
112
0
0
0
0
0
8247
0
0
0
0
29
0
232
29
0
0
0
0
0
116
0
0
0
0
0
8247
0
0
0
0
28
0
224
28
0
0
0
0
0
112
0
0
0
0
0
8247
0
0
0
0
26
0
208
26
0
0
0
0
0
104
0
0
0
0
0
8239
0
0
0
0
28
0
224
28
0
0
0
0
0
112
0
0
0
0
0
8240
0
0
0
0
29
0
232
29
0
0
0
0
0
116
0
0
0
0
0
8250
0
0
0
0
24
0
192
24
0
0
0
0
0
96
0
0
0
0
0
8239
0
0
0
0
28
0
224
28
0
0
0
0
0
112
0
0
0
0
0
8248
0
0
0
0
24
0
192
24
0
0
0
0
0
96
0
0
0
0
0
8239
0
0
0
0
36
0
288
36
0
0
0
0
0
144
0
0
0
0
0
8264
0
0
0
0
30
0
240
30
0
0
0
0
0
120
0
0
0
0
0
8252
0
0
0
0
28
0
224
28
0
0
0
0
0
112
0
0
0
0
0
8246
0
0
0
0
21
0
168
21
0
0
0
0
0
84
0
0
0
0
0
8233
0
0
0
0
15
0
120
15
0
0
0
0
0
60
0
0
0
0
0
8221
0
0
0
0
16
0
128
16
0
0
0
0
0
64
0
0
0
0
0
8222
0
0
0
0
23
0
184
23
0
0
0
0
0
92
0
0
0
0
0
8236
0
0
0
0
27
0
216
27
0
0
0
0
0
108
0
0
0
0
0
8244
0
0
0
0
33
0
264
33
0
0
0
0
0
132
0
0
0
0
0
8257
0
0
0
0
26
0
208
26
0
0
0
0
0
104
0
0
0
0
0
8244
0
0
0
0
15
0
120
15
0
0
0
0
0
60
0
0
0
0
0
8222
0
0
0
0
30
0
240
30
0
0
0
0
0
120
0
0
0
0
0
8252
0
0
0
0
18
0
144
18
0
0
0
0
0
72
0
0
0
0
0
8228
0
0
0
0
31
0
248
31
0
0
0
0
0
124
0
0
0
0
0
8254
0
0
0
0
21
0
168
21
0
0
0
0
0
84
0
0
0
0
0
8234
0
0
0
0
28
0
224
28
0
0
0
0
0
112
0
0
0
0
0
8247
0
0
0
0
19
0
152
19
0
0
0
0
0
76
0
0
0
0
0
8230
0
0
0
0
21
0
168
21
0
0
0
0
0
84
0
0
0
0
0
8233
0
0
0
0
30
0
240
30
0
0
0
0
0
120
0
0
0
0
0
8252
0
0
0
0
21
0
168
21
0
0
0
0
0
84
0
0
0
0
0
8234
0
0
0
0
23
0
184
23
0
0
0
0
0
92
0
0
0
0
0
8238
0
0
0
0
26
0
208
26
0
0
0
0
0
104
0
0
0
0
0
8243
0
0
0
0
22
0
176
22
0
0
0
0
0
88
0
0
0
0
0
8236
0
0
0
0
19
0
152
19
0
0
0
0
0
76
0
0
0
0
0
8230
0
0
0
0
24
0
192
24
0
0
0
0
0
96
0
0
0
0
0
8238
0
0
0
0
28
0
224
28
0
0
0
0
0
112
0
0
0
0
0
8247
0
0
0
0
27
0
216
27
0
0
0
0
0
108
0
0
0
0
0
8245
0
0
0
0
25
0
200
25
0
0
0
0
0
100
0
0
0
0
0
8241
0
0
0
0
27
0
216
27
0
0
0
0
0
108
0
0
0
0
0
8246
0
0
0
0
29
0
232
29
0
0
0
0
0
116
0
0
0
0
0
8250
0
0
0
0
25
0
200
25
0
0
0
0
0
100
0
0
0
0
0
8242
0
0
0
0
27
0
216
27
0
0
0
0
0
108
0
0
0
0
0
8246
0
0
0
0
32
0
256
32
0
0
0
0
0
128
0
0
0
0
0
8256
0
0
0
0
17
0
136
17
0
0
0
0
0
68
0
0
0
0
0
8221
0
0
0
0
20
0
160
20
0
0
0
0
0
80
0
0
0
0
0
8231
0
0
0
0
21
0
168
21
0
0
0
0
0
84
0
0
0
0
0
8231
0
0
0
0
22
0
176
22
0
0
0
0
0
88
0
0
0
0
0
8235
0
0
0
0
31
0
248
31
0
0
0
0
0
124
0
0
0
0
0
8254
0
0
0
0
25
0
200
25
0
0
0
0
0
100
0
0
0
0
0
8242
0
0
0
0
26
0
208
26
0
0
0
0
0
104
0
0
0
0
0
8242
0
0
0
0
19
0
152
19
0
0
0
0
0
76
0
0
0
0
0
8230
0
0
0
0
32
0
256
32
0
0
0
0
0
128
0
0
0
0
0
8254
0
0
0
0
23
0
184
23
0
0
0
0
0
92
0
0
0
0
0
8236
0
0
0
0
27
0
216
27
0
0
0
0
0
108
0
0
0
0
0
8243
0
0
0
0
21
0
168
21
0
0
0
0
0
83
0
0
0
0
0
8231
0
0
0
0
21
0
168
21
0
0
0
0
0
84
0
0
0
0
0
8233
0
0
0
0
20
0
160
20
0
0
0
0
0
80
0
0
0
0
0
8232
0
0
0
0
21
0
168
21
0
0
0
0
0
84
0
0
0
0
0
8234
0
0
0
0
21
0
168
21
0
0
0
0
0
84
0
0
0
0
0
8234
0
0
0
0
26
0
208
26
0
0
0
0
0
104
0
0
0
0
0
8243
0
0
0
0
29
0
232
29
0
0
0
0
0
116
0
0
0
0
0
8250
0
0
0
0
37
0
296
37
0
0
0
0
0
148
0
0
0
0
0
8266
0
0
0
0
27
0
216
27
0
0
0
0
0
108
0
0
0
0
0
8245
0
0
0
0
27
0
216
27
0
0
0
0
0
108
0
0
0
0
0
8245
0
0
0
0
33
0
264
33
0
0
0
0
0
132
0
0
0
0
0
8257
0
0
0
0
22
0
176
22
0
0
0
0
0
88
0
0
0
0
0
8234
0
0
0
0
23
0
184
23
0
0
0
0
0
92
0
0
0
0
0
8237
0
0
0
0
20
0
160
20
0
0
0
0
0
80
0
0
0
0
0
8230
0
0
0
0
20
0
160
20
0
0
0
0
0
80
0
0
0
0
0
8232
0
0
0
0
29
0
232
29
0
0
0
0
0
116
0
0
0
0
0
8250
0
0
0
0
31
0
248
31
0
0
0
0
0
124
0
0
0
0
0
8253
0
0
0
0
32
0
256
32
0
0
0
0
0
128
0
0
0
0
0
8256
0
0
0
0
28
0
224
28
0
0
0
0
0
112
0
0
0
0
0
8248
0
0
0
0
33
0
264
33
0
0
0
0
0
132
0
0
0
0
0
8254
0
0
0
0
33
0
264
33
0
0
0
0
0
132
0
0
0
0
0
8256
0
0
0
0
16
0
128
16
0
0
0
0
0
64
0
0
0
0
0
8223
0
0
0
0
23
0
184
23
0
0
0
0
0
92
0
0
0
0
0
8238
0
0
0
0
12
0
96
12
0
0
0
0
0
48
0
0
0
0
0
8216
0
0
0
0
19
0
152
19
0
0
0
0
0
76
0
0
0
0
0
8228
0
0
0
0
27
0
216
27
0
0
0
0
0
108
0
0
0
0
0
8244
0
0
0
0
18
0
144
18
0
0
0
0
0
72
0
0
0
0
0
8227
0
0
0
0
25
0
200
25
0
0
0
0
0
100
0
0
0
0
0
8242
0
0
0
0
21
0
168
21
0
0
0
0
0
84
0
0
0
0
0
8232
0
0
0
0
30
0
240
30
0
0
0
0
0
120
0
0
0
0
0
8249
0
0
0
0
33
0
264
33
0
0
0
0
0
132
0
0
0
0
0
8256
0
0
0
0
28
0
224
28
0
0
0
0
0
112
0
0
0
0
0
8248
0
0
0
0
26
0
208
26
0
0
0
0
0
104
0
0
0
0
0
8244
0
0
0
0
22
0
176
22
0
0
0
0
0
88
0
0
0
0
0
8235
0
0
0
0
22
0
176
22
0
0
0
0
0
88
0
0
0
0
0
8232
0
0
0
0
26
0
208
26
0
0
0
0
0
104
0
0
0
0
0
8238
0
0
0
0
21
0
168
21
0
0
0
0
0
84
0
0
0
0
0
8234
0
0
0
0
28
0
224
28
0
0
0
0
0
112
0
0
0
0
0
8248
0
0
0
0
24
0
192
24
0
0
0
0
0
96
0
0
0
0
0
8240
0
0
0
0
27
0
216
27
0
0
0
0
0
108
0
0
0
0
0
8245
0
0
0
0
22
0
176
22
0
0
0
0
0
88
0
0
0
0
0
8236
0
0
0
0
24
0
192
24
0
0
0
0
0
96
0
0
0
0
0
8240
0
0
0
0
15
0
120
15
0
0
0
0
0
60
0
0
0
0
0
8221
0
0
0
0
24
0
192
24
0
0
0
0
0
96
0
0
0
0
0
8237
0
0
0
0
30
0
240
30
0
0
0
0
0
120
0
0
0
0
0
8250
0
0
0
0
32
0
256
32
0
0
0
0
0
128
0
0
0
0
0
8256
0
0
0
0
16
0
128
16
0
0
0
0
0
64
0
0
0
0
0
8224
0
0
0
0
28
0
224
28
0
0
0
0
0
112
0
0
0
0
0
8246
0
0
0
0
28
0
224
28
0
0
0
0
0
112
0
0
0
0
0
8246
0
0
0
0
31
0
248
31
0
0
0
0
0
124
0
0
0
0
0
8254
0
0
0
0
28
0
224
28
0
0
0
0
0
112
0
0
0
0
0
8247
0
0
0
0
21
0
168
21
0
0
0
0
0
84
0
0
0
0
0
8234
0
0
0
0
26
0
208
26
0
0
0
0
0
104
0
0
0
0
0
8244
0
0
0
0
27
0
216
27
0
0
0
0
0
108
0
0
0
0
0
8244
0
0
0
0
27
0
216
27
0
0
0
0
0
108
0
0
0
0
0
8245
0
0
0
0
22
0
176
22
0
0
0
0
0
88
0
0
0
0
0
8235
0
0
0
0
28
0
224
28
0
0
0
0
0
112
0
0
0
0
0
8248
0
0
0
0
21
0
168
21
0
0
0
0
0
84
0
0
0
0
0
8234
0
0
0
0
24
0
192
24
0
0
0
0
0
96
0
0
0
0
0
8240
0
0
0
0
20
0
160
20
0
0
0
0
0
80
0
0
0
0
0
8229
0
0
0
0
22
0
176
22
0
0
0
0
0
88
0
0
0
0
0
8234
0
0
0
0
26
0
208
26
0
0
0
0
0
104
0
0
0
0
0
8243
0
0
0
0
33
0
264
33
0
0
0
0
0
132
0
0
0
0
0
8258
0
0
0
0
22
0
176
22
0
0
0
0
0
88
0
0
0
0
0
8236
0
0
0
0
24
0
192
24
0
0
0
0
0
96
0
0
0
0
0
8240
0
0
0
0
18
0
144
18
0
0
0
0
0
72
0
0
0
0
0
8228
0
0
0
0
20
0
160
20
0
0
0
0
0
80
0
0
0
0
0
8232
0
0
0
0
26
0
208
26
0
0
0
0
0
104
0
0
0
0
0
8243
0
0
0
0
30
0
240
30
0
0
0
0
0
120
0
0
0
0
0
8252
0
0
0
0
28
0
224
28
0
0
0
0
0
112
0
0
0
0
0
8246
0
0
0
0
25
0
200
25
0
0
0
0
0
100
0
0
0
0
0
8242
0
0
0
0
28
0
224
28
0
0
0
0
0
112
0
0
0
0
0
8244
0
0
0
0
25
0
200
25
0
0
0
0
0
100
0
0
0
0
0
8242
0
0
0
0
24
0
192
24
0
0
0
0
0
96
0
0
0
0
0
8239
0
0
0
0
30
0
240
30
0
0
0
0
0
120
0
0
0
0
0
8251
0
0
0
0
23
0
184
23
0
0
0
0
0
92
0
0
0
0
0
8237
0
0
0
0
23
0
184
23
0
0
0
0
0
92
0
0
0
0
0
8238
0
0
0
0
23
0
184
23
0
0
0
0
0
92
0
0
0
0
0
8238
0
0
0
0
28
0
224
28
0
0
0
0
0
112
0
0
0
0
0
8247
0
0
0
0
28
0
224
28
0
0
0
0
0
112
0
0
0
0
0
8246
0
0
0
0
24
0
192
24
0
0
0
0
0
96
0
0
0
0
0
8240
0
0
0
0
21
0
168
21
0
0
0
0
0
84
0
0
0
0
0
8232
0
0
0
0
20
0
160
20
0
0
0
0
0
80
0
0
0
0
0
8230
0
0
0
0
19
0
152
19
0
0
0
0
0
76
0
0
0
0
0
8229
0
0
0
0
26
0
208
26
0
0
0
0
0
104
0
0
0
0
0
8244
0
0
0
0
25
0
200
25
0
0
0
0
0
100
0
0
0
0
0
8239
0
0
0
0
29
0
232
29
0
0
0
0
0
116
0
0
0
0
0
8250
0
0
0
0
22
0
176
22
0
0
0
0
0
88
0
0
0
0
0
8236
0
0
0
0
32
0
256
32
0
0
0
0
0
128
0
0
0
0
0
8254
0
0
0
0
14
0
112
14
0
0
0
0
0
56
0
0
0
0
0
8220
0
0
0
0
17
0
136
17
0
0
0
0
0
68
0
0
0
0
0
8226
0
0
0
0
30
0
240
30
0
0
0
0
0
120
0
0
0
0
0
8252
0
0
0
0
24
0
192
24
0
0
0
0
0
96
0
0
0
0
0
8237
0
0
0
0
29
0
232
29
0
0
0
0
0
116
0
0
0
0
0
8249
0
0
0
0
22
0
176
22
0
0
0
0
0
88
0
0
0
0
0
8234
0
0
0
0
18
0
144
18
0
0
0
0
0
72
0
0
0
0
0
8224
0
0
0
0
27
0
216
27
0
0
0
0
0
108
0
0
0
0
0
8246
0
0
0
0
37
0
296
37
0
0
0
0
0
148
0
0
0
0
0
8266
0
0
0
0
18
0
144
18
0
0
0
0
0
72
0
0
0
0
0
8228
0
0
0
0
28
0
224
28
0
0
0
0
0
112
0
0
0
0
0
8247
0
0
0
0
21
0
168
21
0
0
0
0
0
84
0
0
0
0
0
8234
0
0
0
0
34
0
272
34
0
0
0
0
0
136
0
0
0
0
0
8260
0
0
0
0
27
0
216
27
0
0
0
0
0
108
0
0
0
0
0
8246
0
0
0
0
25
0
200
25
0
0
0
0
0
100
0
0
0
0
0
8241
0
0
0
0
25
0
200
25
0
0
0
0
0
100
0
0
0
0
0
8241
0
0
0
0
18
0
144
18
0
0
0
0
0
72
0
0
0
0
0
8228
0
0
0
0
21
0
168
21
0
0
0
0
0
84
0
0
0
0
0
8234
0
0
0
0
24
0
192
24
0
0
0
0
0
96
0
0
0
0
0
8240
0
0
0
0
26
0
208
26
0
0
0
0
0
104
0
0
0
0
0
8243
0
0
0
0
11
0
88
11
0
0
0
0
0
44
0
0
0
0
0
8213
0
0
0
0
21
0
168
21
0
0
0
0
0
84
0
0
0
0
0
8234
0
0
0
0
20
0
160
20
0
0
0
0
0
80
0
0
0
0
0
8230
0
0
0
0
24
0
192
24
0
0
0
0
0
96
0
0
0
0
0
8239
0
0
0
0
30
0
240
30
0
0
0
0
0
120
0
0
0
0
0
8252
0
0
0
0
26
0
208
26
0
0
0
0
0
104
0
0
0
0
0
8244
0
0
0
0
17
0
136
17
0
0
0
0
0
68
0
0
0
0
0
8226
0
0
0
0
20
0
160
20
0
0
0
0
0
80
0
0
0
0
0
8232
0
0
0
0
26
0
208
26
0
0
0
0
0
104
0
0
0
0
0
8244
0
0
0
0
24
0
192
24
0
0
0
0
0
96
0
0
0
0
0
8238
0
0
0
0
21
0
168
21
0
0
0
0
0
84
0
0
0
0
0
8231
0
0
0
0
21
0
168
21
0
0
0
0
0
84
0
0
0
0
0
8234
0
0
0
0
23
0
184
23
0
0
0
0
0
92
0
0
0
0
0
8236
0
0
0
0
17
0
136
17
0
0
0
0
0
68
0
0
0
0
0
8226
0
0
0
0
21
0
168
21
0
0
0
0
0
84
0
0
0
0
0
8233
0
0
0
0
28
0
224
28
0
0
0
0
0
112
0
0
0
0
0
8248
0
0
0
0
28
0
224
28
0
0
0
0
0
112
0
0
0
0
0
8246
0
0
0
0
26
0
208
26
0
0
0
0
0
104
0
0
0
0
0
8244
0
0
0
0
32
0
256
32
0
0
0
0
0
128
0
0
0
0
0
8256
0
0
0
0
31
0
248
31
0
0
0
0
0
124
0
0
0
0
0
8254
0
0
0
0
20
0
160
20
0
0
0
0
0
80
0
0
0
0
0
8232
0
0
0
0
22
0
176
22
0
0
0
0
0
88
0
0
0
0
0
8235
0
0
0
0
27
0
216
27
0
0
0
0
0
108
0
0
0
0
0
8246
0
0
0
0
31
0
248
31
0
0
0
0
0
124
0
0
0
0
0
8254
0
0
0
0
23
0
184
23
0
0
0
0
0
92
0
0
0
0
0
8238
0
0
0
0
31
0
247
31
0
0
0
0
0
124
0
0
0
0
0
8254
0
0
0
0
25
0
200
25
0
0
0
0
0
100
0
0
0
0
0
8239
0
0
0
0
26
0
208
26
0
0
0
0
0
104
0
0
0
0
0
8244
0
0
0
0
24
0
192
24
0
0
0
0
0
96
0
0
0
0
0
8240
0
0
0
0
27
0
216
27
0
0
0
0
0
108
0
0
0
0
0
8246
0
0
0
0
22
0
176
22
0
0
0
0
0
88
0
0
0
0
0
8235
0
0
0
0
28
0
224
28
0
0
0
0
0
112
0
0
0
0
0
8247
0
0
0
0
21
0
168
21
0
0
0
0
0
84
0
0
0
0
0
8234
0
0
0
0
28
0
224
28
0
0
0
0
0
112
0
0
0
0
0
8248
0
0
0
0
22
0
176
22
0
0
0
0
0
88
0
0
0
0
0
8235
0
0
0
0
26
0
208
26
0
0
0
0
0
104
0
0
0
0
0
8244
0
0
0
0
28
0
224
28
0
0
0
0
0
112
0
0
0
0
0
8247
0
0
0
0
17
0
136
17
0
0
0
0
0
68
0
0
0
0
0
8226
0
0
0
0
24
0
192
24
0
0
0
0
0
96
0
0
0
0
0
8240
0
0
0
0
21
0
168
21
0
0
0
0
0
84
0
0
0
0
0
8231
0
0
0
0
30
0
240
30
0
0
0
0
0
120
0
0
0
0
0
8252
0
0
0
0
22
0
176
22
0
0
0
0
0
88
0
0
0
0
0
8236
0
0
0
0
30
0
240
30
0
0
0
0
0
120
0
0
0
0
0
8252
0
0
0
0
25
0
200
25
0
0
0
0
0
100
0
0
0
0
0
8242
0
0
0
0
22
0
176
22
0
0
0
0
0
88
0
0
0
0
0
8236
0
0
0
0
28
0
224
28
0
0
0
0
0
112
0
0
0
0
0
8248
0
0
0
0
20
0
160
20
0
0
0
0
0
80
0
0
0
0
0
8230
0
0
0
0
25
0
200
25
0
0
0
0
0
100
0
0
0
0
0
8242
0
0
0
0
24
0
192
24
0
0
0
0
0
96
0
0
0
0
0
8240
0
0
0
0
26
0
208
26
0
0
0
0
0
104
0
0
0
0
0
8243
0
0
0
0
29
0
232
29
0
0
0
0
0
116
0
0
0
0
0
8250
0
0
0
0
22
0
176
22
0
0
0
0
0
88
0
0
0
0
0
8232
0
0
0
0
26
0
208
26
0
0
0
0
0
104
0
0
0
0
0
8244
0
0
0
0
25
0
200
25
0
0
0
0
0
100
0
0
0
0
0
8242
0
0
0
0
25
0
200
25
0
0
0
0
0
100
0
0
0
0
0
8241
0
0
0
0
28
0
224
28
0
0
0
0
0
112
0
0
0
0
0
8247
0
0
0
0
28
0
224
28
0
0
0
0
0
112
0
0
0
0
0
8247
0
0
0
0
11
0
88
11
0
0
0
0
0
44
0
0
0
0
0
8214
0
0
0
0
24
0
192
24
0
0
0
0
0
96
0
0
0
0
0
8240
0
0
0
0
23
0
184
23
0
0
0
0
0
92
0
0
0
0
0
8236
0
0
0
0
26
0
208
26
0
0
0
0
0
104
0
0
0
0
0
8243
0
0
0
0
19
0
152
19
0
0
0
0
0
76
0
0
0
0
0
8229
0
0
0
0
28
0
224
28
0
0
0
0
0
112
0
0
0
0
0
8247
0
0
0
0
20
0
160
20
0
0
0
0
0
80
0
0
0
0
0
8232
0
0
0
0
33
0
264
33
0
0
0
0
0
132
0
0
0
0
0
8258
0
0
0
0
28
0
224
28
0
0
0
0
0
112
0
0
0
0
0
8246
0
0
0
0
20
0
160
20
0
0
0
0
0
80
0
0
0
0
0
8231
0
0
0
0
29
0
232
29
0
0
0
0
0
116
0
0
0
0
0
8250
0
0
0
0
35
0
280
35
0
0
0
0
0
140
0
0
0
0
0
8262
0
0
0
0
26
0
208
26
0
0
0
0
0
104
0
0
0
0
0
8244
0
0
0
0
25
0
200
25
0
0
0
0
0
100
0
0
0
0
0
8242
0
0
0
0
33
0
264
33
0
0
0
0
0
132
0
0
0
0
0
8258
0
0
0
0
34
0
272
34
0
0
0
0
0
136
0
0
0
0
0
8259
0
0
0
0
23
0
184
23
0
0
0
0
0
92
0
0
0
0
0
8236
0
0
0
0
20
0
160
20
0
0
0
0
0
80
0
0
0
0
0
8232
0
0
0
0
30
0
240
30
0
0
0
0
0
120
0
0
0
0
0
8251
0
0
0
0
24
0
192
24
0
0
0
0
0
96
0
0
0
0
0
8240
0
0
0
0
28
0
224
28
0
0
0
0
0
112
0
0
0
0
0
8248
0
0
0
0
20
0
160
20
0
0
0
0
0
80
0
0
0
0
0
8232
0
0
0
0
21
0
168
21
0
0
0
0
0
84
0
0
0
0
0
8234
0
0
0
0
22
0
176
22
0
0
0
0
0
88
0
0
0
0
0
8236
0
0
0
0
21
0
168
21
0
0
0
0
0
84
0
0
0
0
0
8233
0
0
0
0
17
0
136
17
0
0
0
0
0
68
0
0
0
0
0
8224
0
0
0
0
32
0
256
32
0
0
0
0
0
128
0
0
0
0
0
8255
0
0
0
0
28
0
224
28
0
0
0
0
0
112
0
0
0
0
0
8247
0
0
0
0
21
0
168
21
0
0
0
0
0
84
0
0
0
0
0
8234
0
0
0
0
24
0
192
24
0
0
0
0
0
96
0
0
0
0
0
8240
0
0
0
0
23
0
184
23
0
0
0
0
0
92
0
0
0
0
0
8238
0
0
0
0
26
0
208
26
0
0
0
0
0
104
0
0
0
0
0
8244
0
0
0
0
25
0
200
25
0
0
0
0
0
100
0
0
0
0
0
8242
0
0
0
0
33
0
264
33
0
0
0
0
0
132
0
0
0
0
0
8257
0
0
0
0
14
0
112
14
0
0
0
0
0
56
0
0
0
0
0
8219
0
0
0
0
29
0
232
29
0
0
0
0
0
116
0
0
0
0
0
8250
0
0
0
0
33
0
264
33
0
0
0
0
0
132
0
0
0
0
0
8258
0
0
0
0
26
0
208
26
0
0
0
0
0
104
0
0
0
0
0
8244
0
0
0
0
30
0
240
30
0
0
0
0
0
120
0
0
0
0
0
8252
0
0
0
0
26
0
208
26
0
0
0
0
0
104
0
0
0
0
0
8243
0
0
0
0
17
0
136
17
0
0
0
0
0
68
0
0
0
0
0
8226
0
0
0
0
24
0
192
24
0
0
0
0
0
96
0
0
0
0
0
8240
0
0
0
0
25
0
200
25
0
0
0
0
0
100
0
0
0
0
0
8241
0
0
0
0
26
0
208
26
0
0
0
0
0
104
0
0
0
0
0
8244
0
0
0
0
25
0
200
25
0
0
0
0
0
100
0
0
0
0
0
8241
0
0
0
0
29
0
232
29
0
0
0
0
0
116
0
0
0
0
0
8250
0
0
0
0
20
0
160
20
0
0
0
0
0
80
0
0
0
0
0
8229
0
0
0
0
22
0
176
22
0
0
0
0
0
88
0
0
0
0
0
8232
0
0
0
0
30
0
240
30
0
0
0
0
0
120
0
0
0
0
0
8249
0
0
0
0
24
0
192
24
0
0
0
0
0
96
0
0
0
0
0
8240
0
0
0
0
26
0
208
26
0
0
0
0
0
104
0
0
0
0
0
8244
0
0
0
0
26
0
208
26
0
0
0
0
0
104
0
0
0
0
0
8244
0
0
0
0
24
0
192
24
0
0
0
0
0
96
0
0
0
0
0
8239
0
0
0
0
31
0
248
31
0
0
0
0
0
124
0
0
0
0
0
8253
0
0
0
0
26
0
208
26
0
0
0
0
0
104
0
0
0
0
0
8244
0
0
0
0
27
0
216
27
0
0
0
0
0
108
0
0
0
0
0
8246
0
0
0
0
31
0
248
31
0
0
0
0
0
124
0
0
0
0
0
8254
0
0
0
0
35
0
280
35
0
0
0
0
0
140
0
0
0
0
0
8262
0
0
0
0
24
0
192
24
0
0
0
0
0
96
0
0
0
0
0
8239
0
0
0
0
28
0
224
28
0
0
0
0
0
112
0
0
0
0
0
8248
0
0
0
0
25
0
200
25
0
0
0
0
0
100
0
0
0
0
0
8242
0
0
0
0
24
0
192
24
0
0
0
0
0
96
0
0
0
0
0
8240
0
0
0
0
25
0
200
25
0
0
0
0
0
100
0
0
0
0
0
8239
0
0
0
0
26
0
208
26
0
0
0
0
0
104
0
0
0
0
0
8244
0
0
0
0
14
0
112
14
0
0
0
0
0
56
0
0
0
0
0
8220
0
0
0
0
26
0
208
26
0
0
0
0
0
104
0
0
0
0
0
8243
0
0
0
0
26
0
208
26
0
0
0
0
0
104
0
0
0
0
0
8244
0
0
0
0
24
0
192
24
0
0
0
0
0
96
0
0
0
0
0
8240
0
0
0
0
20
0
160
20
0
0
0
0
0
80
0
0
0
0
0
8231
0
0
0
0
22
0
176
22
0
0
0
0
0
88
0
0
0
0
0
8216
0
0
0
0
26
0
208
26
0
0
0
0
0
104
0
0
0
0
0
8244
0
0
0
0
24
0
192
24
0
0
0
0
0
96
0
0
0
0
0
8240
0
0
0
0
34
0
272
34
0
0
0
0
0
136
0
0
0
0
0
8257
0
0
0
0
12
0
96
12
0
0
0
0
0
48
0
0
0
0
0
8216
0
0
0
0
32
0
256
32
0
0
0
0
0
128
0
0
0
0
0
8256
0
0
0
0
24
0
192
24
0
0
0
0
0
96
0
0
0
0
0
8239
0
0
0
0
23
0
184
23
0
0
0
0
0
92
0
0
0
0
0
8237
0
0
0
0
25
0
200
25
0
0
0
0
0
100
0
0
0
0
0
8241
0
0
0
0
29
0
232
29
0
0
0
0
0
116
0
0
0
0
0
8249
0
0
0
0
22
0
176
22
0
0
0
0
0
88
0
0
0
0
0
8234
0
0
0
0
27
0
216
27
0
0
0
0
0
108
0
0
0
0
0
8246
0
0
0
0
19
0
152
19
0
0
0
0
0
76
0
0
0
0
0
8230
0
0
0
0
22
0
176
22
0
0
0
0
0
88
0
0
0
0
0
8235
0
0
0
0
18
0
144
18
0
0
0
0
0
72
0
0
0
0
0
8227
0
0
0
0
22
0
176
22
0
0
0
0
0
88
0
0
0
0
0
8236
0
0
0
0
20
0
160
20
0
0
0
0
0
80
0
0
0
0
0
8231
0
0
0
0
22
0
176
22
0
0
0
0
0
88
0
0
0
0
0
8236
0
0
0
0
25
0
200
25
0
0
0
0
0
100
0
0
0
0
0
8239
0
0
0
0
32
0
256
32
0
0
0
0
0
128
0
0
0
0
0
8255
0
0
0
0
21
0
168
21
0
0
0
0
0
84
0
0
0
0
0
8234
0
0
0
0
25
0
200
25
0
0
0
0
0
100
0
0
0
0
0
8242
0
0
0
0
21
0
168
21
0
0
0
0
0
84
0
0
0
0
0
8234
0
0
0
0
33
0
264
33
0
0
0
0
0
132
0
0
0
0
0
8257
0
0
0
0
29
0
232
29
0
0
0
0
0
116
0
0
0
0
0
8250
0
0
0
0
20
0
160
20
0
0
0
0
0
80
0
0
0
0
0
8232
0
0
0
0
15
0
120
15
0
0
0
0
0
60
0
0
0
0
0
8221
0
0
0
0
32
0
256
32
0
0
0
0
0
128
0
0
0
0
0
8256
0
0
0
0
22
0
176
22
0
0
0
0
0
88
0
0
0
0
0
8235
0
0
0
0
26
0
208
26
0
0
0
0
0
104
0
0
0
0
0
8244
0
0
0
0
24
0
192
24
0
0
0
0
0
96
0
0
0
0
0
8239
0
0
0
0
24
0
192
24
0
0
0
0
0
96
0
0
0
0
0
8240
0
0
0
0
28
0
224
28
0
0
0
0
0
112
0
0
0
0
0
8247
0
0
0
0
31
0
248
31
0
0
0
0
0
124
0
0
0
0
0
8251
0
0
0
0
22
0
176
22
0
0
0
0
0
88
0
0
0
0
0
8235
0
0
0
0
17
0
136
17
0
0
0
0
0
68
0
0
0
0
0
8225
0
0
0
0
22
0
176
22
0
0
0
0
0
88
0
0
0
0
0
8236
0
0
0
0
30
0
240
30
0
0
0
0
0
120
0
0
0
0
0
8252
0
0
0
0
26
0
208
26
0
0
0
0
0
104
0
0
0
0
0
8244
0
0
0
0
23
0
184
23
0
0
0
0
0
92
0
0
0
0
0
8237
0
0
0
0
23
0
184
23
0
0
0
0
0
92
0
0
0
0
0
8236
0
0
0
0
19
0
152
19
0
0
0
0
0
76
0
0
0
0
0
8229
0
0
0
0
16
0
128
16
0
0
0
0
0
64
0
0
0
0
0
8223
0
0
0
0
22
0
176
22
0
0
0
0
0
88
0
0
0
0
0
8235
0
0
0
0
23
0
184
23
0
0
0
0
0
92
0
0
0
0
0
8234
0
0
0
0
27
0
216
27
0
0
0
0
0
108
0
0
0
0
0
8245
0
0
0
0
26
0
208
26
0
0
0
0
0
104
0
0
0
0
0
8244
0
0
0
0
23
0
184
23
0
0
0
0
0
92
0
0
0
0
0
8237
0
0
0
0
26
0
208
26
0
0
0
0
0
104
0
0
0
0
0
8242
0
0
0
0
16
0
128
16
0
0
0
0
0
64
0
0
0
0
0
8223
0
0
0
0
20
0
160
20
0
0
0
0
0
80
0
0
0
0
0
8229
0
0
0
0
30
0
240
30
0
0
0
0
0
120
0
0
0
0
0
8252
0
0
0
0
34
0
272
34
0
0
0
0
0
136
0
0
0
0
0
8259
0
0
0
0
26
0
208
26
0
0
0
0
0
104
0
0
0
0
0
8242
0
0
0
0
24
0
192
24
0
0
0
0
0
96
0
0
0
0
0
8239
0
0
0
0
23
0
184
23
0
0
0
0
0
92
0
0
0
0
0
8238
0
0
0
0
31
0
248
31
0
0
0
0
0
124
0
0
0
0
0
8251
0
0
0
0
28
0
224
28
0
0
0
0
0
112
0
0
0
0
0
8247
0
0
0
0
31
0
248
31
0
0
0
0
0
124
0
0
0
0
0
8254
0
0
0
0
33
0
264
33
0
0
0
0
0
132
0
0
0
0
0
8258
0
0
0
0
27
0
216
27
0
0
0
0
0
108
0
0
0
0
0
8246
0
0
0
0
16
0
128
16
0
0
0
0
0
64
0
0
0
0
0
8224
0
0
0
0
19
0
152
19
0
0
0
0
0
76
0
0
0
0
0
8230
0
0
0
0
22
0
176
22
0
0
0
0
0
88
0
0
0
0
0
8234
0
0
0
0
25
0
200
25
0
0
0
0
0
100
0
0
0
0
0
8242
0
0
0
0
18
0
144
18
0
0
0
0
0
72
0
0
0
0
0
8220
0
0
0
0
22
0
176
22
0
0
0
0
0
88
0
0
0
0
0
8236
0
0
0
0
19
0
152
19
0
0
0
0
0
76
0
0
0
0
0
8229
0
0
0
0
26
0
208
26
0
0
0
0
0
104
0
0
0
0
0
8243
0
0
0
0
23
0
184
23
0
0
0
0
0
92
0
0
0
0
0
8238
0
0
0
0
19
0
152
19
0
0
0
0
0
76
0
0
0
0
0
8230
0
0
0
0
33
0
264
33
0
0
0
0
0
132
0
0
0
0
0
8258
0
0
0
0
24
0
192
24
0
0
0
0
0
96
0
0
0
0
0
8240
0
0
0
0
29
0
232
29
0
0
0
0
0
116
0
0
0
0
0
8249
0
0
0
0
25
0
200
25
0
0
0
0
0
100
0
0
0
0
0
8242
0
0
0
0
16
0
128
16
0
0
0
0
0
64
0
0
0
0
0
8222
0
0
0
0
26
0
208
26
0
0
0
0
0
104
0
0
0
0
0
8242
0
0
0
0
23
0
184
23
0
0
0
0
0
92
0
0
0
0
0
8238
0
0
0
0
26
0
208
26
0
0
0
0
0
104
0
0
0
0
0
8243
0
0
0
0
27
0
216
27
0
0
0
0
0
108
0
0
0
0
0
8245
0
0
0
0
15
0
120
15
0
0
0
0
0
60
0
0
0
0
0
8220
0
0
0
0
28
0
224
28
0
0
0
0
0
112
0
0
0
0
0
8248
0
0
0
0
16
0
128
16
0
0
0
0
0
64
0
0
0
0
0
8224
0
0
0
0
24
0
192
24
0
0
0
0
0
96
0
0
0
0
0
8238
0
0
0
0
27
0
216
27
0
0
0
0
0
108
0
0
0
0
0
8243
0
0
0
0
23
0
184
23
0
0
0
0
0
92
0
0
0
0
0
8238
0
0
0
0
21
0
168
21
0
0
0
0
0
84
0
0
0
0
0
8234
0
0
0
0
24
0
192
24
0
0
0
0
0
96
0
0
0
0
0
8240
0
0
0
0
20
0
160
20
0
0
0
0
0
80
0
0
0
0
0
8231
0
0
0
0
31
0
248
31
0
0
0
0
0
124
0
0
0
0
0
8254
0
0
0
0
28
0
224
28
0
0
0
0
0
112
0
0
0
0
0
8244
0
0
0
0
24
0
192
24
0
0
0
0
0
96
0
0
0
0
0
8240
0
0
0
0
15
0
120
15
0
0
0
0
0
60
0
0
0
0
0
8222
0
0
0
0
34
0
272
34
0
0
0
0
0
136
0
0
0
0
0
8260
0
0
0
0
29
0
232
29
0
0
0
0
0
116
0
0
0
0
0
8250
0
0
0
0
23
0
184
23
0
0
0
0
0
92
0
0
0
0
0
8235
0
0
0
0
19
0
152
19
0
0
0
0
0
76
0
0
0
0
0
8228
0
0
0
0
15
0
120
15
0
0
0
0
0
60
0
0
0
0
0
8218
0
0
0
0
19
0
152
19
0
0
0
0
0
76
0
0
0
0
0
8230
0
0
0
0
21
0
168
21
0
0
0
0
0
84
0
0
0
0
0
8233
0
0
0
0
28
0
224
28
0
0
0
0
0
112
0
0
0
0
0
8245
0
0
0
0
18
0
144
18
0
0
0
0
0
72
0
0
0
0
0
8228
0
0
0
0
30
0
240
30
0
0
0
0
0
120
0
0
0
0
0
8252
0
0
0
0
13
0
104
13
0
0
0
0
0
52
0
0
0
0
0
8218
0
0
0
0
30
0
240
30
0
0
0
0
0
120
0
0
0
0
0
8249
0
0
0
0
35
0
280
35
0
0
0
0
0
140
0
0
0
0
0
8259
0
0
0
0
20
0
160
20
0
0
0
0
0
80
0
0
0
0
0
8232
0
0
0
0
21
0
168
21
0
0
0
0
0
84
0
0
0
0
0
8232
0
0
0
0
26
0
208
26
0
0
0
0
0
104
0
0
0
0
0
8244
0
0
0
0
28
0
224
28
0
0
0
0
0
112
0
0
0
0
0
8245
0
0
0
0
23
0
184
23
0
0
0
0
0
92
0
0
0
0
0
8238
0
0
0
0
31
0
248
31
0
0
0
0
0
124
0
0
0
0
0
8254
0
0
0
0
30
0
240
30
0
0
0
0
0
120
0
0
0
0
0
8252
0
0
0
0
18
0
144
18
0
0
0
0
0
72
0
0
0
0
0
8228
0
0
0
0
35
0
280
35
0
0
0
0
0
140
0
0
0
0
0
8256
0
0
0
0
34
0
272
34
0
0
0
0
0
136
0
0
0
0
0
8259
0
0
0
0
26
0
208
26
0
0
0
0
0
104
0
0
0
0
0
8244
0
0
0
0
31
0
248
31
0
0
0
0
0
124
0
0
0
0
0
8254
0
0
0
0
31
0
248
31
0
0
0
0
0
124
0
0
0
0
0
8250
0
0
0
0
14
0
112
14
0
0
0
0
0
56
0
0
0
0
0
8218
0
0
0
0
18
0
144
18
0
0
0
0
0
72
0
0
0
0
0
8224
0
0
0
0
19
0
152
19
0
0
0
0
0
76
0
0
0
0
0
8230
0
0
0
0
23
0
184
23
0
0
0
0
0
92
0
0
0
0
0
8237
0
0
0
0
26
0
208
26
0
0
0
0
0
104
0
0
0
0
0
8244
0
0
0
0
27
0
216
27
0
0
0
0
0
108
0
0
0
0
0
8245
0
0
0
0
23
0
184
23
0
0
0
0
0
92
0
0
0
0
0
8238
0
0
0
0
13
0
104
13
0
0
0
0
0
52
0
0
0
0
0
8217
0
0
0
0
32
0
256
32
0
0
0
0
0
128
0
0
0
0
0
8254
0
0
0
0
31
0
248
31
0
0
0
0
0
124
0
0
0
0
0
8253
0
0
0
0
29
0
232
29
0
0
0
0
0
116
0
0
0
0
0
8250
0
0
0
0
19
0
152
19
0
0
0
0
0
76
0
0
0
0
0
8229
0
0
0
0
25
0
200
25
0
0
0
0
0
100
0
0
0
0
0
8241
0
0
0
0
23
0
184
23
0
0
0
0
0
92
0
0
0
0
0
8238
0
0
0
0
29
0
232
29
0
0
0
0
0
116
0
0
0
0
0
8249
0
0
0
0
21
0
168
21
0
0
0
0
0
84
0
0
0
0
0
8232
0
0
0
0
29
0
232
29
0
0
0
0
0
116
0
0
0
0
0
8250
0
0
0
0
22
0
176
22
0
0
0
0
0
88
0
0
0
0
0
8234
0
0
0
0
19
0
152
19
0
0
0
0
0
76
0
0
0
0
0
8229
0
0
0
0
21
0
168
21
0
0
0
0
0
84
0
0
0
0
0
8234
0
0
0
0
25
0
200
25
0
0
0
0
0
100
0
0
0
0
0
8240
0
0
0
0
31
0
248
31
0
0
0
0
0
124
0
0
0
0
0
8253
0
0
0
0
25
0
200
25
0
0
0
0
0
100
0
0
0
0
0
8242
0
0
0
0
29
0
232
29
0
0
0
0
0
116
0
0
0
0
0
8250
0
0
0
0
19
0
152
19
0
0
0
0
0
76
0
0
0
0
0
8230
0
0
0
0
27
0
216
27
0
0
0
0
0
108
0
0
0
0
0
8245
0
0
0
0
24
0
192
24
0
0
0
0
0
96
0
0
0
0
0
8240
0
0
0
0
17
0
136
17
0
0
0
0
0
68
0
0
0
0
0
8225
0
0
0
0
19
0
152
19
0
0
0
0
0
76
0
0
0
0
0
8229
0
0
0
0
27
0
216
27
0
0
0
0
0
108
0
0
0
0
0
8246
0
0
0
0
31
0
248
31
0
0
0
0
0
124
0
0
0
0
0
8254
0
0
0
0
14
0
112
14
0
0
0
0
0
56
0
0
0
0
0
8220
0
0
0
0
30
0
240
30
0
0
0
0
0
120
0
0
0
0
0
8252
0
0
0
0
21
0
168
21
0
0
0
0
0
84
0
0
0
0
0
8232
0
0
0
0
22
0
176
22
0
0
0
0
0
88
0
0
0
0
0
8234
0
0
0
0
23
0
184
23
0
0
0
0
0
92
0
0
0
0
0
8236
0
0
0
0
26
0
208
26
0
0
0
0
0
104
0
0
0
0
0
8242
0
0
0
0
24
0
192
24
0
0
0
0
0
96
0
0
0
0
0
8239
0
0
0
0
22
0
176
22
0
0
0
0
0
88
0
0
0
0
0
8235
0
0
0
0
25
0
200
25
0
0
0
0
0
100
0
0
0
0
0
8242
0
0
0
0
29
0
232
29
0
0
0
0
0
116
0
0
0
0
0
8248
0
0
0
0
24
0
192
24
0
0
0
0
0
96
0
0
0
0
0
8236
0
0
0
0
26
0
208
26
0
0
0
0
0
104
0
0
0
0
0
8244
0
0
0
0
28
0
224
28
0
0
0
0
0
112
0
0
0
0
0
8248
0
0
0
0
25
0
200
25
0
0
0
0
0
100
0
0
0
0
0
8242
0
0
0
0
22
0
176
22
0
0
0
0
0
88
0
0
0
0
0
8235
0
0
0
0
23
0
184
23
0
0
0
0
0
92
0
0
0
0
0
8238
0
0
0
0
20
0
160
20
0
0
0
0
0
80
0
0
0
0
0
8232
0
0
0
0
18
0
144
18
0
0
0
0
0
72
0
0
0
0
0
8228
0
0
0
0
27
0
216
27
0
0
0
0
0
108
0
0
0
0
0
8245
0
0
0
0
21
0
168
21
0
0
0
0
0
84
0
0
0
0
0
8233
0
0
0
0
18
0
144
18
0
0
0
0
0
72
0
0
0
0
0
8227
0
0
0
0
25
0
200
25
0
0
0
0
0
100
0
0
0
0
0
8242
0
0
0
0
30
0
240
30
0
0
0
0
0
120
0
0
0
0
0
8252
0
0
0
0
22
0
176
22
0
0
0
0
0
88
0
0
0
0
0
8234
0
0
0
0
19
0
152
19
0
0
0
0
0
76
0
0
0
0
0
8228
0
0
0
0
32
0
256
32
0
0
0
0
0
128
0
0
0
0
0
8256
0
0
0
0
23
0
184
23
0
0
0
0
0
92
0
0
0
0
0
8238
0
0
0
0
25
0
200
25
0
0
0
0
0
100
0
0
0
0
0
8242
0
0
0
0
24
0
192
24
0
0
0
0
0
96
0
0
0
0
0
8235
0
0
0
0
27
0
216
27
0
0
0
0
0
108
0
0
0
0
0
8245
0
0
0
0
20
0
160
20
0
0
0
0
0
80
0
0
0
0
0
8229
0
0
0
0
25
0
200
25
0
0
0
0
0
100
0
0
0
0
0
8242
0
0
0
0
30
0
240
30
0
0
0
0
0
120
0
0
0
0
0
8252
0
0
0
0
26
0
208
26
0
0
0
0
0
104
0
0
0
0
0
8244
0
0
0
0
29
0
232
29
0
0
0
0
0
116
0
0
0
0
0
8250
0
0
0
0
27
0
216
27
0
0
0
0
0
108
0
0
0
0
0
8246
0
0
0
0
25
0
200
25
0
0
0
0
0
100
0
0
0
0
0
8241
0
0
0
0
24
0
192
24
0
0
0
0
0
96
0
0
0
0
0
8237
0
0
0
0
24
0
192
24
0
0
0
0
0
96
0
0
0
0
0
8239
0
0
0
0
22
0
176
22
0
0
0
0
0
88
0
0
0
0
0
8234
0
0
0
0
24
0
192
24
0
0
0
0
0
96
0
0
0
0
0
8237
0
0
0
0
30
0
240
30
0
0
0
0
0
120
0
0
0
0
0
8252
0
0
0
0
29
0
232
29
0
0
0
0
0
116
0
0
0
0
0
8250
0
0
0
0
21
0
168
21
0
0
0
0
0
84
0
0
0
0
0
8234
0
0
0
0
34
0
272
34
0
0
0
0
0
136
0
0
0
0
0
8260
0
0
0
0
17
0
136
17
0
0
0
0
0
68
0
0
0
0
0
8221
0
0
0
0
28
0
224
28
0
0
0
0
0
112
0
0
0
0
0
8248
0
0
0
0
16
0
128
16
0
0
0
0
0
64
0
0
0
0
0
8223
0
0
0
0
26
0
208
26
0
0
0
0
0
104
0
0
0
0
0
8243
0
0
0
0
25
0
200
25
0
0
0
0
0
100
0
0
0
0
0
8242
0
0
0
0
21
0
168
21
0
0
0
0
0
84
0
0
0
0
0
8233
0
0
0
0
23
0
184
23
0
0
0
0
0
92
0
0
0
0
0
8238
0
0
0
0
22
0
176
22
0
0
0
0
0
88
0
0
0
0
0
8235
0
0
0
0
36
0
288
36
0
0
0
0
0
144
0
0
0
0
0
8264
0
0
0
0
21
0
168
21
0
0
0
0
0
84
0
0
0
0
0
8234
0
0
0
0
23
0
184
23
0
0
0
0
0
92
0
0
0
0
0
8236
0
0
0
0
21
0
168
21
0
0
0
0
0
84
0
0
0
0
0
8233
0
0
0
0
20
0
160
20
0
0
0
0
0
80
0
0
0
0
0
8232
0
0
0
0
27
0
216
27
0
0
0
0
0
108
0
0
0
0
0
8246
0
0
0
0
31
0
248
31
0
0
0
0
0
124
0
0
0
0
0
8254
0
0
0
0
29
0
232
29
0
0
0
0
0
116
0
0
0
0
0
8250
0
0
0
0
24
0
192
24
0
0
0
0
0
96
0
0
0
0
0
8240
0
0
0
0
26
0
208
26
0
0
0
0
0
104
0
0
0
0
0
8244
0
0
0
0
19
0
152
19
0
0
0
0
0
76
0
0
0
0
0
8230
0
0
0
0
20
0
160
20
0
0
0
0
0
80
0
0
0
0
0
8228
0
0
0
0
27
0
216
27
0
0
0
0
0
108
0
0
0
0
0
8246
0
0
0
0
19
0
152
19
0
0
0
0
0
76
0
0
0
0
0
8230
0
0
0
0
32
0
256
32
0
0
0
0
0
128
0
0
0
0
0
8256
0
0
0
0
20
0
160
20
0
0
0
0
0
80
0
0
0
0
0
8230
0
0
0
0
23
0
184
23
0
0
0
0
0
92
0
0
0
0
0
8237
0
0
0
0
24
0
192
24
0
0
0
0
0
96
0
0
0
0
0
8240
0
0
0
0
28
0
224
28
0
0
0
0
0
112
0
0
0
0
0
8248
0
0
0
0
27
0
216
27
0
0
0
0
0
108
0
0
0
0
0
8245
0
0
0
0
31
0
248
31
0
0
0
0
0
124
0
0
0
0
0
8254
0
0
0
0
26
0
208
26
0
0
0
0
0
104
0
0
0
0
0
8244
0
0
0
0
24
0
192
24
0
0
0
0
0
96
0
0
0
0
0
8240
0
0
0
0
35
0
280
35
0
0
0
0
0
140
0
0
0
0
0
8261
0
0
0
0
23
0
184
23
0
0
0
0
0
92
0
0
0
0
0
8236
0
0
0
0
25
0
200
25
0
0
0
0
0
100
0
0
0
0
0
8241
0
0
0
0
24
0
192
24
0
0
0
0
0
96
0
0
0
0
0
8240
0
0
0
0
15
0
120
15
0
0
0
0
0
60
0
0
0
0
0
8222
0
0
0
0
30
0
240
30
0
0
0
0
0
120
0
0
0
0
0
8252
0
0
0
0
17
0
136
17
0
0
0
0
0
68
0
0
0
0
0
8226
0
0
0
0
30
0
240
30
0
0
0
0
0
120
0
0
0
0
0
8251
0
0
0
0
30
0
240
30
0
0
0
0
0
120
0
0
0
0
0
8252
0
0
0
0
20
0
160
20
0
0
0
0
0
80
0
0
0
0
0
8231
0
0
0
0
30
0
240
30
0
0
0
0
0
120
0
0
0
0
0
8251
0
0
0
0
19
0
152
19
0
0
0
0
0
76
0
0
0
0
0
8229
0
0
0
0
28
0
224
28
0
0
0
0
0
112
0
0
0
0
0
8248
0
0
0
0
17
0
136
17
0
0
0
0
0
68
0
0
0
0
0
8225
0
0
0
0
28
0
224
28
0
0
0
0
0
112
0
0
0
0
0
8246
0
0
0
0
32
0
256
32
0
0
0
0
0
128
0
0
0
0
0
8256
0
0
0
0
23
0
184
23
0
0
0
0
0
92
0
0
0
0
0
8238
0
0
0
0
25
0
200
25
0
0
0
0
0
100
0
0
0
0
0
8242
0
0
0
0
32
0
256
32
0
0
0
0
0
128
0
0
0
0
0
8256
0
0
0
0
25
0
200
25
0
0
0
0
0
100
0
0
0
0
0
8241
0
0
0
0
22
0
176
22
0
0
0
0
0
88
0
0
0
0
0
8236
0
0
0
0
28
0
224
28
0
0
0
0
0
112
0
0
0
0
0
8246
0
0
0
0
17
0
136
17
0
0
0
0
0
68
0
0
0
0
0
8225
0
0
0
0
22
0
176
22
0
0
0
0
0
88
0
0
0
0
0
8236
0
0
0
0
29
0
232
29
0
0
0
0
0
116
0
0
0
0
0
8247
0
0
0
0
32
0
256
32
0
0
0
0
0
128
0
0
0
0
0
8256
0
0
0
0
21
0
168
21
0
0
0
0
0
84
0
0
0
0
0
8234
0
0
0
0
26
0
208
26
0
0
0
0
0
104
0
0
0
0
0
8244
0
0
0
0
23
0
184
23
0
0
0
0
0
92
0
0
0
0
0
8238
0
0
0
0
20
0
160
20
0
0
0
0
0
80
0
0
0
0
0
8232
0
0
0
0
19
0
152
19
0
0
0
0
0
76
0
0
0
0
0
8230
0
0
0
0
29
0
232
29
0
0
0
0
0
116
0
0
0
0
0
8245
0
0
0
0
28
0
224
28
0
0
0
0
0
112
0
0
0
0
0
8248
0
0
0
0
18
0
144
18
0
0
0
0
0
72
0
0
0
0
0
8228
0
0
0
0
24
0
192
24
0
0
0
0
0
96
0
0
0
0
0
8238
0
0
0
0
20
0
160
20
0
0
0
0
0
80
0
0
0
0
0
8232
0
0
0
0
19
0
152
19
0
0
0
0
0
76
0
0
0
0
0
8230
0
0
0
0
30
0
240
30
0
0
0
0
0
120
0
0
0
0
0
8251
0
0
0
0
23
0
184
23
0
0
0
0
0
92
0
0
0
0
0
8238
0
0
0
0
17
0
136
17
0
0
0
0
0
68
0
0
0
0
0
8223
0
0
0
0
22
0
176
22
0
0
0
0
0
88
0
0
0
0
0
8236
0
0
0
0
22
0
176
22
0
0
0
0
0
88
0
0
0
0
0
8234
0
0
0
0
24
0
192
24
0
0
0
0
0
96
0
0
0
0
0
8240
0
0
0
0
31
0
248
31
0
0
0
0
0
124
0
0
0
0
0
8254
0
0
0
0
27
0
216
27
0
0
0
0
0
108
0
0
0
0
0
8245
0
0
0
0
21
0
168
21
0
0
0
0
0
84
0
0
0
0
0
8234
0
0
0
0
26
0
208
26
0
0
0
0
0
104
0
0
0
0
0
8244
0
0
0
0
24
0
192
24
0
0
0
0
0
96
0
0
0
0
0
8240
0
0
0
0
24
0
192
24
0
0
0
0
0
96
0
0
0
0
0
8240
0
0
0
0
25
0
200
25
0
0
0
0
0
100
0
0
0
0
0
8242
0
0
0
0
31
0
248
31
0
0
0
0
0
124
0
0
0
0
0
8254
0
0
0
0
21
0
168
21
0
0
0
0
0
84
0
0
0
0
0
8234
0
0
0
0
35
0
280
35
0
0
0
0
0
140
0
0
0
0
0
8262
0
0
0
0
30
0
240
30
0
0
0
0
0
120
0
0
0
0
0
8252
0
0
0
0
17
0
136
17
0
0
0
0
0
68
0
0
0
0
0
8226
0
0
0
0
31
0
248
31
0
0
0
0
0
124
0
0
0
0
0
8253
0
0
0
0
24
0
192
24
0
0
0
0
0
96
0
0
0
0
0
8239
0
0
0
0
25
0
200
25
0
0
0
0
0
100
0
0
0
0
0
8240
0
0
0
0
20
0
160
20
0
0
0
0
0
80
0
0
0
0
0
8232
0
0
0
0
31
0
248
31
0
0
0
0
0
124
0
0
0
0
0
8254
0
0
0
0
30
0
240
30
0
0
0
0
0
120
0
0
0
0
0
8252
0
0
0
0
21
0
168
21
0
0
0
0
0
84
0
0
0
0
0
8232
0
0
0
0
28
0
224
28
0
0
0
0
0
112
0
0
0
0
0
8248
0
0
0
0
35
0
280
35
0
0
0
0
0
140
0
0
0
0
0
8262
0
0
0
0
27
0
216
27
0
0
0
0
0
108
0
0
0
0
0
8245
0
0
0
0
34
0
272
34
0
0
0
0
0
136
0
0
0
0
0
8260
0
0
0
0
25
0
200
25
0
0
0
0
0
100
0
0
0
0
0
8242
0
0
0
0
19
0
152
19
0
0
0
0
0
76
0
0
0
0
0
8230
0
0
0
0
18
0
144
18
0
0
0
0
0
72
0
0
0
0
0
8228
0
0
0
0
26
0
208
26
0
0
0
0
0
104
0
0
0
0
0
8243
0
0
0
0
26
0
208
26
0
0
0
0
0
104
0
0
0
0
0
8244
0
0
0
0
24
0
192
24
0
0
0
0
0
96
0
0
0
0
0
8239
0
0
0
0
16
0
128
16
0
0
0
0
0
64
0
0
0
0
0
8223
0
0
0
0
23
0
184
23
0
0
0
0
0
92
0
0
0
0
0
8238
0
0
0
0
27
0
216
27
0
0
0
0
0
108
0
0
0
0
0
8245
0
0
0
0
26
0
208
26
0
0
0
0
0
104
0
0
0
0
0
8244
0
0
0
0
26
0
208
26
0
0
0
0
0
104
0
0
0
0
0
8243
0
0
0
0
23
0
184
23
0
0
0
0
0
92
0
0
0
0
0
8238
0
0
0
0
21
0
168
21
0
0
0
0
0
84
0
0
0
0
0
8233
0
0
0
0
27
0
216
27
0
0
0
0
0
108
0
0
0
0
0
8245
0
0
0
0
31
0
248
31
0
0
0
0
0
124
0
0
0
0
0
8253
0
0
0
0
27
0
216
27
0
0
0
0
0
108
0
0
0
0
0
8246
0
0
0
0
27
0
216
27
0
0
0
0
0
108
0
0
0
0
0
8245
0
0
0
0
42
0
336
42
0
0
0
0
0
168
0
0
0
0
0
8276
0
0
0
0
30
0
240
30
0
0
0
0
0
120
0
0
0
0
0
8251
0
0
0
0
15
0
120
15
0
0
0
0
0
60
0
0
0
0
0
8222
0
0
0
0
28
0
224
28
0
0
0
0
0
112
0
0
0
0
0
8247
0
0
0
0
23
0
184
23
0
0
0
0
0
92
0
0
0
0
0
8237
0
0
0
0
18
0
144
18
0
0
0
0
0
72
0
0
0
0
0
8227
0
0
0
0
23
0
184
23
0
0
0
0
0
92
0
0
0
0
0
8236
0
0
0
0
26
0
208
26
0
0
0
0
0
104
0
0
0
0
0
8243
0
0
0
0
25
0
200
25
0
0
0
0
0
100
0
0
0
0
0
8242
0
0
0
0
20
0
160
20
0
0
0
0
0
80
0
0
0
0
0
8232
0
0
0
0
29
0
232
29
0
0
0
0
0
116
0
0
0
0
0
8246
0
0
0
0
19
0
152
19
0
0
0
0
0
76
0
0
0
0
0
8226
0
0
0
0
25
0
200
25
0
0
0
0
0
100
0
0
0
0
0
8242
0
0
0
0
29
0
232
29
0
0
0
0
0
116
0
0
0
0
0
8248
0
0
0
0
19
0
152
19
0
0
0
0
0
76
0
0
0
0
0
8230
0
0
0
0
21
0
168
21
0
0
0
0
0
84
0
0
0
0
0
8233
0
0
0
0
27
0
216
27
0
0
0
0
0
108
0
0
0
0
0
8245
0
0
0
0
18
0
144
18
0
0
0
0
0
72
0
0
0
0
0
8228
0
0
0
0
19
0
152
19
0
0
0
0
0
76
0
0
0
0
0
8229
0
0
0
0
26
0
208
26
0
0
0
0
0
104
0
0
0
0
0
8243
0
0
0
0
19
0
152
19
0
0
0
0
0
76
0
0
0
0
0
8229
0
0
0
0
27
0
216
27
0
0
0
0
0
108
0
0
0
0
0
8244
0
0
0
0
23
0
184
23
0
0
0
0
0
92
0
0
0
0
0
8238
0
0
0
0
27
0
216
27
0
0
0
0
0
108
0
0
0
0
0
8245
0
0
0
0
26
0
208
26
0
0
0
0
0
104
0
0
0
0
0
8244
0
0
0
0
19
0
152
19
0
0
0
0
0
76
0
0
0
0
0
8229
0
0
0
0
14
0
112
14
0
0
0
0
0
56
0
0
0
0
0
8220
0
0
0
0
24
0
192
24
0
0
0
0
0
96
0
0
0
0
0
8238
0
0
0
0
21
0
168
21
0
0
0
0
0
84
0
0
0
0
0
8233
0
0
0
0
27
0
216
27
0
0
0
0
0
108
0
0
0
0
0
8245
0
0
0
0
25
0
200
25
0
0
0
0
0
100
0
0
0
0
0
8242
0
0
0
0
30
0
240
30
0
0
0
0
0
120
0
0
0
0
0
8250
0
0
0
0
22
0
176
22
0
0
0
0
0
88
0
0
0
0
0
8233
0
0
0
0
27
0
216
27
0
0
0
0
0
108
0
0
0
0
0
8242
0
0
0
0
17
0
136
17
0
0
0
0
0
68
0
0
0
0
0
8223
0
0
0
0
17
0
136
17
0
0
0
0
0
68
0
0
0
0
0
8225
0
0
0
0
19
0
152
19
0
0
0
0
0
76
0
0
0
0
0
8230
0
0
0
0
28
0
224
28
0
0
0
0
0
112
0
0
0
0
0
8247
0
0
0
0
15
0
120
15
0
0
0
0
0
60
0
0
0
0
0
8222
0
0
0
0
25
0
200
25
0
0
0
0
0
100
0
0
0
0
0
8242
0
0
0
0
21
0
168
21
0
0
0
0
0
84
0
0
0
0
0
8234
0
0
0
0
26
0
208
26
0
0
0
0
0
104
0
0
0
0
0
8244
0
0
0
0
23
0
184
23
0
0
0
0
0
92
0
0
0
0
0
8236
0
0
0
0
22
0
176
22
0
0
0
0
0
88
0
0
0
0
0
8234
0
0
0
0
26
0
208
26
0
0
0
0
0
104
0
0
0
0
0
8243
0
0
0
0
25
0
200
25
0
0
0
0
0
100
0
0
0
0
0
8241
0
0
0
0
31
0
248
31
0
0
0
0
0
124
0
0
0
0
0
8254
0
0
0
0
22
0
176
22
0
0
0
0
0
88
0
0
0
0
0
8235
0
0
0
0
27
0
216
27
0
0
0
0
0
108
0
0
0
0
0
8246
0
0
0
0
29
0
232
29
0
0
0
0
0
116
0
0
0
0
0
8250
0
0
0
0
28
0
224
28
0
0
0
0
0
112
0
0
0
0
0
8247
0
0
0
0
0
0
0
0
0
0
0
0
0
0
0
0
0
0
0
0
0
0
0
0
