0,50,0,0,0,0,0.0,1.8719829777255654,24,0,0.00023942114397436872,1,2021-06-20 19:15:10.786015
0,51,0,1,0,0,0.0,1.5757633447647095,25,1,0.00023942114397436872,1,2021-06-20 19:15:10.786015
0,51,0,0,0,0,0.0,2.033832738175988,25,0,0.00023942114397436872,1,2021-06-20 19:15:10.786015
0,51,0,0,0,0,0.0,1.977776668034494,18,4,0.00023942114397436872,1,2021-06-20 19:15:10.786015
8,51,0,1,0,0,0.0,1.3738984791561961,26,3,0.00023942114397436872,1,2021-06-20 19:15:10.786015
0,51,0,0,0,0,0.0,1.5347131500020623,18,8,0.00023942114397436872,1,2021-06-20 19:15:10.786015
1,51,0,0,0,0,0.0,1.5340483095496893,20,8,0.00023942114397436872,1,2021-06-20 19:15:10.786015
0,51,0,0,0,0,0.0,1.6881033265963197,26,10,0.014439272117517133,1,2021-06-20 19:16:00.771303
0,51,0,0,0,0,0.0,1.9416244626045227,22,9,0.014439272117517133,1,2021-06-20 19:16:00.771303
0,51,0,1,0,0,0.0,2.3701266031712294,26,8,0.014439272117517133,1,2021-06-20 19:16:00.771303
0,51,0,1,0,0,0.0,1.5157019821926951,31,8,0.014439272117517133,1,2021-06-20 19:16:00.771303
0,51,0,1,0,0,0.0,1.5877572083845735,26,13,0.010689002296574383,1,2021-06-20 19:18:09.404191
0,51,0,1,0,0,0.0,1.4378551607951522,26,15,0.010689002296574383,1,2021-06-20 19:18:09.404191
0,51,0,1,0,0,0.0,1.8878660053014755,23,16,0.010689002296574383,1,2021-06-20 19:18:09.404191
0,51,0,0,0,0,0.0,2.0628387946635485,20,15,0.010689002296574383,1,2021-06-20 19:18:09.404191
0,51,0,0,0,0,0.0,1.9151913085952401,28,15,0.02535961667782491,1,2021-06-20 19:19:20.353173
0,51,0,1,0,0,0.0,1.9709920985624194,26,21,0.058569556961540495,1,2021-06-20 19:20:32.075017
0,51,0,1,0,0,0.0,2.939347025938332,27,20,0.058569556961540495,1,2021-06-20 19:20:32.075017
0,51,0,0,0,0,0.0,3.044597719796002,27,19,0.058569556961540495,1,2021-06-20 19:20:32.075017
0,52,0,1,0,0,0.0,1.537178204394877,29,18,0.058569556961540495,1,2021-06-20 19:20:32.075017
0,52,0,0,0,0,0.0,1.445679317228496,26,21,0.058569556961540495,1,2021-06-20 19:20:32.075017
0,52,0,0,0,0,0.0,1.8692271001636982,22,20,0.058569556961540495,1,2021-06-20 19:20:32.075017
0,51,0,1,0,0,0.0,1.5856376718729734,27,22,0.05701330259467851,1,2021-06-20 19:22:28.011019
0,51,0,0,0,0,0.0,1.748728354461491,30,21,0.05701330259467851,1,2021-06-20 19:22:28.011019
0,51,0,0,0,0,0.0,2.14778068754822,28,20,0.05701330259467851,1,2021-06-20 19:22:28.011019
0,52,0,0,0,0,0.0,1.6751022664830089,26,21,0.05701330259467851,1,2021-06-20 19:22:28.011019
0,52,0,1,0,0,0.0,1.377761741168797,30,22,0.05701330259467851,1,2021-06-20 19:22:28.011019
0,51,0,0,0,0,0.0,1.7083113566040993,25,26,0.06181789194209856,1,2021-06-20 19:23:50.678145
0,52,0,1,0,0,0.0,1.521238206885755,23,25,0.06181789194209856,1,2021-06-20 19:23:50.678145
0,52,0,0,0,0,0.0,1.5888735465705395,23,24,0.06181789194209856,1,2021-06-20 19:23:50.678145
0,52,0,1,0,0,0.0,1.7857798608019948,29,23,0.06181789194209856,1,2021-06-20 19:23:50.678145
0,51,0,0,0,0,0.0,1.728075422346592,23,31,0.05483079450008932,1,2021-06-20 19:27:24.300521
0,51,0,0,0,0,0.0,1.7748778406530619,23,30,0.05483079450008932,1,2021-06-20 19:27:24.300521
0,51,0,1,0,0,0.0,1.9452052721753716,23,29,0.05483079450008932,1,2021-06-20 19:27:24.300521
0,50,0,1,0,0,0.0,1.630812563933432,31,29,1.1438494352619997,1,2021-06-20 19:36:01.198750
0,50,0,0,0,0,0.0,2.1072342060506344,22,29,0.049431561179118594,1,2021-06-20 19:38:56.310521
0,51,0,1,0,0,0.0,1.6796388095244765,25,31,0.11496551604205965,1,2021-06-20 19:40:05.774902
1,51,0,1,0,0,0.0,2.1570088090375066,23,30,0.11496551604205965,1,2021-06-20 19:40:05.774902
1,51,0,0,0,0,0.0,2.1493715550750494,23,29,0.11496551604205965,1,2021-06-20 19:40:05.774902
0,51,0,1,0,0,0.0,1.6267895782366395,25,30,0.052280733398649894,1,2021-06-20 19:42:12.424718
0,51,0,0,0,0,0.0,1.6146147856488824,26,29,0.052280733398649894,1,2021-06-20 19:42:12.424718
0,51,0,1,0,0,0.0,1.8951361998915672,23,31,0.07132127808081053,1,2021-06-20 19:43:30.356857
0,51,0,0,0,0,0.0,2.0490928320214152,23,30,0.07132127808081053,1,2021-06-20 19:43:30.356857
0,51,0,1,0,0,0.0,2.1027751974761486,21,29,0.07132127808081053,1,2021-06-20 19:43:30.356857
0,52,0,0,0,0,0.0,1.5609228257089853,28,30,0.07132127808081053,1,2021-06-20 19:43:30.356857
0,52,0,1,0,0,0.0,1.2753288773819804,23,33,0.07132127808081053,1,2021-06-20 19:43:30.356857
0,52,0,1,0,0,0.0,1.6974549777805805,23,32,0.07132127808081053,1,2021-06-20 19:43:30.356857
0,52,0,1,0,0,0.0,1.5325152352452278,28,34,0.07240718310638435,1,2021-06-20 19:44:53.129091
0,52,0,1,0,0,0.0,1.6516289059072733,26,35,0.07240718310638435,1,2021-06-20 19:44:53.129091
0,53,0,1,0,0,0.0,1.8020445071160793,23,35,0.07240718310638435,1,2021-06-20 19:44:53.129091
0,53,0,1,0,0,0.0,1.4420157484710217,26,34,0.07240718310638435,1,2021-06-20 19:44:53.129091
0,53,0,1,0,0,0.0,1.2482256554067135,23,37,0.07240718310638435,1,2021-06-20 19:44:53.129091
0,52,0,1,0,0,0.0,1.6375599196180701,28,37,0.0439889404955537,1,2021-06-20 19:45:53.066593
0,50,0,1,0,0,0.0,1.7061858279630542,27,39,0.06246571750749341,1,2021-06-20 19:49:43.479129
0,51,0,0,0,0,0.0,2.08667747490108,27,38,0.06246571750749341,1,2021-06-20 19:49:43.479129
0,51,0,1,0,0,0.0,1.5618225494399667,30,37,0.06246571750749341,1,2021-06-20 19:49:43.479129
0,51,0,0,0,0,0.0,1.7850642064586282,28,37,0.06246571750749341,1,2021-06-20 19:49:43.479129
0,52,0,1,0,0,0.0,1.2658605119213462,29,37,0.06246571750749341,1,2021-06-20 19:49:43.479129
0,50,0,0,0,0,0.0,1.9407009221613407,24,37,0.037086295688337205,1,2021-06-20 19:53:55.688716
0,51,0,1,0,0,0.0,1.551699430681765,28,37,0.037086295688337205,1,2021-06-20 19:53:55.688716
0,51,0,0,0,0,0.0,1.8579468186944723,33,37,0.037086295688337205,1,2021-06-20 19:53:55.688716
0,52,0,1,0,0,0.0,1.7829898288473487,32,37,0.037086295688337205,1,2021-06-20 19:53:55.688716
0,51,0,1,0,0,0.0,1.9044251535087824,29,39,0.14638893148456844,1,2021-06-20 19:55:09.227604
0,51,0,1,0,0,0.0,1.8576996494084597,28,38,0.14638893148456844,1,2021-06-20 19:55:09.227604
0,51,0,1,0,0,0.0,1.5143052395433187,23,42,0.2706103424912198,1,2021-06-20 19:57:02.455131
0,51,0,1,0,0,0.0,1.741869481280446,21,41,0.2706103424912198,1,2021-06-20 19:57:02.455131
0,51,0,0,0,0,0.0,1.819011309184134,24,40,0.2706103424912198,1,2021-06-20 19:57:02.455131
1,52,0,1,0,0,0.0,1.6311838328838348,29,39,0.2706103424912198,1,2021-06-20 19:57:02.455131
0,51,0,0,0,0,0.0,1.7780536571517587,25,41,0.05740838072853356,1,2021-06-20 19:59:47.149752
0,51,0,0,0,0,0.0,1.9741919534280896,23,40,0.05740838072853356,1,2021-06-20 19:59:47.149752
0,51,0,1,0,0,0.0,1.4592925254255533,28,39,0.05740838072853356,1,2021-06-20 19:59:47.149752
0,51,0,1,0,0,0.0,1.7050044583156705,28,40,0.05740838072853356,1,2021-06-20 19:59:47.149752
0,51,0,0,0,0,0.0,1.7275040075182915,27,44,0.18679251370301975,1,2021-06-20 20:00:46.788228
0,51,0,1,0,0,0.0,1.708789361640811,26,43,0.18679251370301975,1,2021-06-20 20:00:46.788228
0,52,0,1,0,0,0.0,1.6891113808378577,29,43,0.18679251370301975,1,2021-06-20 20:00:46.788228
0,51,0,1,0,0,0.0,1.994612350128591,28,43,0.08976837721582982,1,2021-06-20 20:02:24.283565
0,52,0,0,0,0,0.0,1.6652946826070547,30,44,0.08976837721582982,1,2021-06-20 20:02:24.283565
0,52,0,0,0,0,0.0,1.8176602758467197,27,44,0.08976837721582982,1,2021-06-20 20:02:24.283565
0,52,0,1,0,0,0.0,1.597221321426332,32,43,0.08976837721582982,1,2021-06-20 20:02:24.283565
0,51,0,0,0,0,0.0,1.7161471722647548,28,49,0.10742712350069435,1,2021-06-20 20:05:59.995228
0,51,0,0,0,0,0.0,2.1444294480606914,25,48,0.10742712350069435,1,2021-06-20 20:05:59.995228
1,51,0,1,0,0,0.0,2.271191654726863,26,48,0.10742712350069435,1,2021-06-20 20:05:59.995228
1,52,0,1,0,0,0.0,1.709218510426581,27,47,0.10742712350069435,1,2021-06-20 20:05:59.995228
0,51,0,1,0,0,0.0,2.154135729186237,25,47,0.20677375950118818,1,2021-06-20 20:10:17.618380
0,51,0,1,0,0,0.0,1.4720078809186816,25,48,0.20677375950118818,1,2021-06-20 20:10:17.618380
0,51,0,1,0,0,0.0,1.5447141379117966,25,47,0.20677375950118818,1,2021-06-20 20:10:17.618380
0,52,0,1,0,0,0.0,1.9365289080888033,27,48,0.20677375950118818,1,2021-06-20 20:10:17.618380
0,51,0,1,0,0,0.0,1.6803873190656304,29,49,0.0635416474199171,1,2021-06-20 20:11:33.137946
0,52,0,1,0,0,0.0,1.472878061234951,27,52,0.0635416474199171,1,2021-06-20 20:11:33.137946
0,52,0,1,0,0,0.0,1.4200690938159823,29,51,0.0635416474199171,1,2021-06-20 20:11:33.137946
0,52,0,0,0,0,0.0,1.5571504682302475,29,50,0.0635416474199171,1,2021-06-20 20:11:33.137946
0,51,0,0,0,0,0.0,1.976956239901483,30,51,0.06289286781427236,1,2021-06-20 20:12:19.035810
0,51,0,1,0,0,0.0,1.6145995622500777,28,53,0.2015721472510749,1,2021-06-20 20:14:32.101717
0,51,0,0,0,0,0.0,1.8800744088366628,27,52,0.2015721472510749,1,2021-06-20 20:14:32.101717
0,51,0,0,0,0,0.0,2.2391845332458615,25,51,0.2015721472510749,1,2021-06-20 20:14:32.101717
0,52,0,1,0,0,0.0,1.3082128027454019,28,53,0.2015721472510749,1,2021-06-20 20:14:32.101717
0,52,0,0,0,0,0.0,1.8793801786378026,30,52,0.2015721472510749,1,2021-06-20 20:14:32.101717
0,52,0,0,0,0,0.0,2.3063972741365433,25,51,0.2015721472510749,1,2021-06-20 20:14:32.101717
0,51,0,1,0,0,0.0,1.6996879344806075,24,53,0.02826294607358415,1,2021-06-20 20:15:42.640422
0,51,0,0,0,0,0.0,1.7576810289174318,28,52,0.02826294607358415,1,2021-06-20 20:15:42.640422
0,52,0,0,0,0,0.0,1.7443193551152945,29,53,0.02826294607358415,1,2021-06-20 20:15:42.640422
0,52,0,0,0,0,0.0,2.116837313398719,29,52,0.02826294607358415,1,2021-06-20 20:15:42.640422
0,50,0,1,0,0,0.0,1.945540839806199,25,54,0.24431517006697365,1,2021-06-20 20:18:28.012162
0,50,0,0,0,0,0.0,2.122404278255999,22,53,0.24431517006697365,1,2021-06-20 20:18:28.012162
0,51,0,0,0,0,0.0,1.7593528470024467,24,52,0.24431517006697365,1,2021-06-20 20:18:28.012162
0,50,0,1,0,0,0.0,1.947719239629805,27,52,0.006070119661913134,1,2021-06-20 20:19:26.749755
0,51,0,1,0,0,0.0,1.5460549043491483,30,52,0.006070119661913134,1,2021-06-20 20:19:26.749755
0,51,0,1,0,0,0.0,1.4048362774774432,27,53,0.006070119661913134,1,2021-06-20 20:19:26.749755
0,51,0,1,0,0,0.0,1.5788777247071266,28,52,0.006070119661913134,1,2021-06-20 20:19:26.749755
0,51,0,0,0,0,0.0,1.9522431883960962,25,53,0.013094267440003996,1,2021-06-20 20:22:12.734046
0,51,0,1,0,0,0.0,1.7348951548337936,16,53,0.04087094596754624,1,2021-06-20 20:25:17.669908
0,51,0,0,0,0,0.0,1.6850669318810105,24,53,0.04257356632433002,1,2021-06-20 20:25:53.415367
0,52,0,1,0,0,0.0,1.4624681826680899,24,54,0.04257356632433002,1,2021-06-20 20:25:53.415367
0,52,0,0,0,0,0.0,2.10260156635195,21,54,0.04257356632433002,1,2021-06-20 20:25:53.415367
0,52,0,0,0,0,0.0,2.0693757915869355,21,53,0.04257356632433002,1,2021-06-20 20:25:53.415367
0,51,0,1,0,0,0.0,1.6049654614180326,23,55,0.08741670329511886,1,2021-06-20 20:27:31.131111
0,51,0,0,0,0,0.0,1.730362861417234,24,54,0.08741670329511886,1,2021-06-20 20:27:31.131111
0,51,0,0,0,0,0.0,1.7877601459622383,26,53,0.08741670329511886,1,2021-06-20 20:27:31.131111
0,52,0,1,0,0,0.0,1.2660367880016565,24,57,0.08741670329511886,1,2021-06-20 20:27:31.131111
0,52,0,1,0,0,0.0,1.3884623339399695,24,56,0.08741670329511886,1,2021-06-20 20:27:31.131111
0,52,0,0,0,0,0.0,2.2622862979769707,18,56,0.08741670329511886,1,2021-06-20 20:27:31.131111
0,52,0,0,0,0,0.0,2.1119012823328376,18,55,0.08741670329511886,1,2021-06-20 20:27:31.131111
0,51,0,1,0,0,0.0,1.7427762765437365,26,59,0.7613187674924933,1,2021-06-20 20:30:39.314327
0,51,0,0,0,0,0.0,1.8499659579247236,26,58,0.7613187674924933,1,2021-06-20 20:30:39.314327
0,52,0,0,0,0,0.0,1.9324909644201398,25,58,0.7613187674924933,1,2021-06-20 20:30:39.314327
1,52,0,1,0,0,0.0,1.5873148012906313,25,57,0.7613187674924933,1,2021-06-20 20:30:39.314327
0,51,0,1,0,0,0.0,1.4978033546358347,24,58,0.18832784412341827,1,2021-06-20 20:32:10.256352
0,51,0,1,0,0,0.0,1.897405570372939,24,57,0.18832784412341827,1,2021-06-20 20:32:10.256352
0,52,0,0,0,0,0.0,1.6124806925654411,22,57,0.18832784412341827,1,2021-06-20 20:32:10.256352
0,52,0,1,0,0,0.0,1.6869091503322124,22,61,0.18832784412341827,1,2021-06-20 20:32:10.256352
0,50,0,0,0,0,0.0,1.9567661955952644,23,64,0.053678264645493634,1,2021-06-20 20:36:37.660339
0,50,0,0,0,0,0.0,2.2122876858338714,29,63,0.053678264645493634,1,2021-06-20 20:36:37.660339
1,51,0,1,0,0,0.0,1.6853525936603546,27,62,0.053678264645493634,1,2021-06-20 20:36:37.660339
1,51,0,0,0,0,0.0,1.7596340579912066,29,61,0.053678264645493634,1,2021-06-20 20:36:37.660339
0,50,0,1,0,0,0.0,1.6556703094393015,28,62,0.19757549218737033,1,2021-06-20 20:39:22.872472
0,50,0,1,0,0,0.0,1.6194653324782848,29,62,0.040843904727773606,1,2021-06-20 20:40:18.769321
0,51,0,1,0,0,0.0,1.497407341375947,26,64,0.040843904727773606,1,2021-06-20 20:40:18.769321
0,51,0,1,0,0,0.0,1.7428527902811766,26,63,0.040843904727773606,1,2021-06-20 20:40:18.769321
0,51,0,1,0,0,0.0,1.8848301162943244,20,62,0.040843904727773606,1,2021-06-20 20:40:18.769321
0,50,0,1,0,0,0.0,1.5922661060467362,27,63,0.09592563567337639,1,2021-06-20 20:45:38.549993
0,50,0,1,0,0,0.0,1.5895490841940045,28,62,0.09592563567337639,1,2021-06-20 20:45:38.549993
0,51,0,0,0,0,0.0,2.0892401868477464,24,62,0.013960474856218062,1,2021-06-20 20:52:32.073142
0,51,0,1,0,0,0.0,1.6674119289964437,27,63,0.06755872847200566,1,2021-06-20 20:56:05.168367
0,51,0,1,0,0,0.0,1.7182458397001028,28,62,0.06755872847200566,1,2021-06-20 20:56:05.168367
0,52,0,1,0,0,0.0,1.787324970588088,32,63,0.06755872847200566,1,2021-06-20 20:56:05.168367
1,52,0,1,0,0,0.0,1.7825077818706632,32,62,0.06755872847200566,1,2021-06-20 20:56:05.168367
0,51,0,0,0,0,0.0,2.2549909837543964,33,62,0.10555630075137667,1,2021-06-20 20:58:09.304267
0,51,0,1,0,0,0.0,1.447310285642743,31,65,0.17007530703938853,1,2021-06-20 20:59:48.790512
0,51,0,0,0,0,0.0,1.5557870082557201,32,64,0.17007530703938853,1,2021-06-20 20:59:48.790512
0,51,0,0,0,0,0.0,1.8201429853215814,29,63,0.17007530703938853,1,2021-06-20 20:59:48.790512
0,51,0,0,0,0,0.0,2.805763155221939,34,62,0.17007530703938853,1,2021-06-20 20:59:48.790512
0,52,0,0,0,0,0.0,1.4521945845335722,31,63,0.17007530703938853,1,2021-06-20 20:59:48.790512
0,52,0,0,0,0,0.0,1.4413215667009354,31,62,0.17007530703938853,1,2021-06-20 20:59:48.790512
0,52,0,0,0,0,0.0,1.3083043871447444,31,63,0.17007530703938853,1,2021-06-20 20:59:48.790512
0,50,0,0,0,0,0.0,2.1631700498983264,30,63,0.040890871536300596,1,2021-06-20 21:02:31.212692
0,51,0,1,0,0,0.0,1.505039295181632,32,64,0.040890871536300596,1,2021-06-20 21:02:31.212692
0,52,0,0,0,0,0.0,1.5930295633152127,33,63,0.040890871536300596,1,2021-06-20 21:02:31.212692
0,52,0,1,0,0,0.0,1.5502539612352848,32,63,0.040890871536300596,1,2021-06-20 21:02:31.212692
0,52,0,1,0,0,0.0,1.8222674503922462,32,65,0.040890871536300596,1,2021-06-20 21:02:31.212692
0,51,0,0,0,0,0.0,1.7433566637337208,28,70,0.0607884720008092,1,2021-06-20 21:04:43.998653
0,51,0,1,0,0,0.0,1.724095313809812,28,69,0.0607884720008092,1,2021-06-20 21:04:43.998653
0,51,0,0,0,0,0.0,1.8616303214803338,28,68,0.0607884720008092,1,2021-06-20 21:04:43.998653
0,51,0,0,0,0,0.0,2.891304923221469,29,67,0.0607884720008092,1,2021-06-20 21:04:43.998653
0,50,0,0,0,0,0.0,1.6827917881309986,32,68,0.10862083671033096,1,2021-06-20 21:10:39.293193
1,51,0,0,0,0,0.0,1.7125199353322387,32,67,0.10862083671033096,1,2021-06-20 21:10:39.293193
0,50,0,1,0,0,0.0,1.774202791042626,32,67,0.019597186115062937,1,2021-06-20 21:11:55.589646
0,50,0,0,0,0,0.0,1.7349861105903983,27,67,0.17295842503070882,1,2021-06-20 21:14:53.397655
0,51,0,0,0,0,0.0,1.743430751375854,28,68,0.17295842503070882,1,2021-06-20 21:14:53.397655
0,52,0,1,0,0,0.0,1.6972750583663583,31,67,0.17295842503070882,1,2021-06-20 21:14:53.397655
0,52,0,0,0,0,0.0,1.980813629925251,31,67,0.17295842503070882,1,2021-06-20 21:14:53.397655
0,51,0,1,0,0,0.0,1.990304890088737,21,71,0.0007631597433079896,1,2021-06-20 21:18:08.927249
0,51,0,1,0,0,0.0,1.67807543464005,26,70,0.0007631597433079896,1,2021-06-20 21:18:08.927249
1,51,0,1,0,0,0.0,1.7007242869585752,24,71,0.0007631597433079896,1,2021-06-20 21:18:08.927249
1,51,0,1,0,0,0.0,2.286779417656362,16,73,0.0007631597433079896,1,2021-06-20 21:18:08.927249
0,51,0,0,0,0,0.0,1.951271751895547,28,74,0.07239113780547056,1,2021-06-20 21:18:54.532424
0,51,0,0,0,0,0.0,2.3410871159285307,25,73,0.07239113780547056,1,2021-06-20 21:18:54.532424
0,52,0,1,0,0,0.0,1.3325972147285938,28,76,0.07239113780547056,1,2021-06-20 21:18:54.532424
0,52,0,1,0,0,0.0,1.3750179130584002,28,75,0.07239113780547056,1,2021-06-20 21:18:54.532424
0,52,0,0,0,0,0.0,1.771835713647306,31,74,0.07239113780547056,1,2021-06-20 21:18:54.532424
0,51,0,0,0,0,0.0,1.6594717111438513,28,81,0.09302114364636385,1,2021-06-20 21:19:52.908774
0,51,0,1,0,0,0.0,3.518701309338212,26,80,0.09302114364636385,1,2021-06-20 21:19:52.908774
0,51,0,1,0,0,0.0,3.5990421641618013,26,79,0.09302114364636385,1,2021-06-20 21:19:52.908774
0,51,0,0,0,0,0.0,1.9685823610052466,27,79,0.04093386771662428,1,2021-06-20 21:21:10.992917
0,52,0,1,0,0,0.0,1.5105308257043362,28,79,0.04093386771662428,1,2021-06-20 21:21:10.992917
0,52,0,0,0,0,0.0,1.8450576942414045,27,81,0.04093386771662428,1,2021-06-20 21:21:10.992917
0,52,0,1,0,0,0.0,1.8726595928892493,26,81,0.04093386771662428,1,2021-06-20 21:21:10.992917
0,50,0,1,0,0,0.0,1.7395881256088614,24,85,0.4613369918414285,1,2021-06-20 21:24:24.594057
0,50,0,1,0,0,0.0,1.8327095424756408,23,84,0.4613369918414285,1,2021-06-20 21:24:24.594057
0,50,0,1,0,0,0.0,1.9097833959385753,24,83,0.4613369918414285,1,2021-06-20 21:24:24.594057
0,51,0,0,0,0,0.0,1.7648374754935503,23,87,0.0615643132253264,1,2021-06-20 21:25:31.385234
0,51,0,0,0,0,0.0,1.7865636572241783,23,86,0.0615643132253264,1,2021-06-20 21:25:31.385234
0,51,0,1,0,0,0.0,1.836586743593216,19,85,0.0615643132253264,1,2021-06-20 21:25:31.385234
0,51,0,1,0,0,0.0,2.146060023456812,22,84,0.0615643132253264,1,2021-06-20 21:25:31.385234
0,51,0,1,0,0,0.0,1.3813177654519677,22,88,0.0615643132253264,1,2021-06-20 21:25:31.385234
0,51,0,1,0,0,0.0,1.6957322927191854,26,88,0.10025167819413859,1,2021-06-20 21:27:37.875259
0,51,0,1,0,0,0.0,1.4886083509773016,27,89,0.23653788347597715,1,2021-06-20 21:28:46.048269
0,51,0,0,0,0,0.0,2.072005884721875,24,89,0.23653788347597715,1,2021-06-20 21:28:46.048269
0,52,0,1,0,0,0.0,1.7366504753008485,25,88,0.23653788347597715,1,2021-06-20 21:28:46.048269
0,51,0,0,0,0,0.0,1.709176735021174,25,90,0.00020779512875304012,1,2021-06-20 21:29:49.469815
0,51,0,1,0,0,0.0,1.9400073671713471,25,89,0.00020779512875304012,1,2021-06-20 21:29:49.469815
0,51,0,0,0,0,0.0,2.0817981688305736,26,88,0.00020779512875304012,1,2021-06-20 21:29:49.469815
0,52,0,1,0,0,0.0,1.50657978374511,25,89,0.00020779512875304012,1,2021-06-20 21:29:49.469815
