gpu_usage,gpu_temp,gpu_mem,Q2,Q1,q_length,queue_wait_time,execution_time,max_gpu,max_cpu,interval,device,timestamp
0,49,0,0,0,0,0.0,1.2363873279973632,7,1,1.1500606261011244,1,2021-01-15 02:10:16.102553
0,49,0,0,0,0,0.0,1.2711381159970188,9,0,1.1500606261011244,1,2021-01-15 02:10:16.102553
0,49,0,0,0,0,0.0,1.1916872820002027,7,1,1.1500606261011244,1,2021-01-15 02:10:16.102553
1,49,0,1,0,0,0.0,0.9087447550045908,9,0,1.1500606261011244,1,2021-01-15 02:10:16.102553
0,49,0,1,0,0,0.0,0.9965585680038203,7,1,1.1500606261011244,1,2021-01-15 02:10:16.102553
0,49,0,0,0,0,0.0,1.3086816020004335,9,0,1.1500606261011244,1,2021-01-15 02:10:16.102553
0,50,0,1,0,0,0.0,1.0984381660018698,7,0,1.1500606261011244,1,2021-01-15 02:10:16.102553
0,50,0,1,0,0,0.0,1.0617107119978755,8,0,1.1500606261011244,1,2021-01-15 02:10:16.102553
0,50,0,1,0,0,0.0,0.986982722999528,7,1,1.1500606261011244,1,2021-01-15 02:10:16.102553
1,50,0,1,0,0,0.0,1.0854695590023766,9,0,1.1500606261011244,1,2021-01-15 02:10:16.102553
0,50,0,1,0,0,0.0,1.0831010709953262,8,0,1.1500606261011244,1,2021-01-15 02:10:16.102553
0,50,0,1,0,0,0.0,1.1461970700038364,8,1,1.1500606261011244,1,2021-01-15 02:10:16.102553
0,50,0,0,0,0,0.0,1.1727972789958585,8,0,1.1500606261011244,1,2021-01-15 02:10:16.102553
0,50,0,1,0,0,0.0,1.1295207619987195,8,0,1.1500606261011244,1,2021-01-15 02:10:16.102553
0,50,0,1,0,0,0.0,1.3378287259984063,8,0,1.1500606261011244,1,2021-01-15 02:10:16.102553
0,50,0,1,0,0,0.0,1.1665155719965696,7,0,1.1500606261011244,1,2021-01-15 02:10:16.102553
0,50,0,0,0,0,0.0,1.18088193499716,7,2,0.8849633547508896,1,2021-01-15 02:10:51.817477
1,50,0,1,0,0,0.0,1.0461264079931425,7,1,0.8849633547508896,1,2021-01-15 02:10:51.817477
1,50,0,0,0,0,0.0,1.1883957230020314,6,0,0.8849633547508896,1,2021-01-15 02:10:51.817477
0,50,0,0,0,0,0.0,1.2083460800058674,8,1,0.8849633547508896,1,2021-01-15 02:10:51.817477
2,50,0,1,0,0,0.0,1.084624877999886,8,1,0.8849633547508896,1,2021-01-15 02:10:51.817477
0,50,0,0,0,0,0.0,1.1749894969980232,7,1,0.8849633547508896,1,2021-01-15 02:10:51.817477
9,50,0,0,0,0,0.0,1.1124898319976637,9,0,0.8849633547508896,1,2021-01-15 02:10:51.817477
0,51,0,1,0,0,0.0,1.005964022995613,9,0,0.8849633547508896,1,2021-01-15 02:10:51.817477
0,51,0,1,0,0,0.0,1.1478314679989126,8,0,0.8849633547508896,1,2021-01-15 02:10:51.817477
0,51,0,1,0,0,0.0,1.017881624000438,9,0,0.8849633547508896,1,2021-01-15 02:10:51.817477
0,51,0,0,0,0,0.0,1.262064882001141,6,1,0.8849633547508896,1,2021-01-15 02:10:51.817477
0,51,0,0,0,0,0.0,1.154840201998013,9,0,0.8849633547508896,1,2021-01-15 02:10:51.817477
0,51,0,1,0,0,0.0,1.149761494001723,9,0,0.8849633547508896,1,2021-01-15 02:10:51.817477
0,51,0,0,0,0,0.0,1.2931559940043371,9,0,0.8849633547508896,1,2021-01-15 02:10:51.817477
0,51,0,0,0,0,0.0,1.1972541419963818,7,2,0.8849633547508896,1,2021-01-15 02:10:51.817477
0,51,0,1,0,0,0.0,1.2502954160008812,8,1,0.8849633547508896,1,2021-01-15 02:10:51.817477
1,51,0,0,0,0,0.0,1.4124862120006583,9,0,0.8849633547508896,1,2021-01-15 02:10:51.817477
0,51,0,0,0,0,0.0,1.5157957689953037,9,0,0.8849633547508896,1,2021-01-15 02:10:51.817477
0,51,0,1,0,0,0.0,1.0355085839983076,7,2,0.49019292277670723,1,2021-01-15 02:11:27.652550
0,51,0,0,0,0,0.0,1.1737034200050402,7,1,0.49019292277670723,1,2021-01-15 02:11:27.652550
0,51,0,0,0,0,0.0,1.1705226720005157,9,0,0.49019292277670723,1,2021-01-15 02:11:27.652550
0,51,0,0,0,0,0.0,1.1481375100047444,7,1,0.49019292277670723,1,2021-01-15 02:11:27.652550
8,51,0,1,0,0,0.0,1.1571014820001437,9,0,0.49019292277670723,1,2021-01-15 02:11:27.652550
0,51,0,0,0,0,0.0,1.188699368001835,9,0,0.49019292277670723,1,2021-01-15 02:11:27.652550
0,51,0,1,0,0,0.0,1.1271434310037876,9,0,0.49019292277670723,1,2021-01-15 02:11:27.652550
0,51,0,1,0,0,0.0,1.0706564039937803,9,0,0.49019292277670723,1,2021-01-15 02:11:27.652550
0,52,0,1,0,0,0.0,1.0631781330012018,9,0,0.49019292277670723,1,2021-01-15 02:11:27.652550
0,52,0,1,0,0,0.0,1.1511429680031142,9,0,0.49019292277670723,1,2021-01-15 02:11:27.652550
0,52,0,1,0,0,0.0,1.0718503550015157,7,2,0.49019292277670723,1,2021-01-15 02:11:27.652550
0,52,0,0,0,0,0.0,1.1583906850064523,8,1,0.49019292277670723,1,2021-01-15 02:11:27.652550
0,52,0,0,0,0,0.0,1.242906300998584,9,0,0.49019292277670723,1,2021-01-15 02:11:27.652550
0,52,0,0,0,0,0.0,1.375105152001197,8,1,0.49019292277670723,1,2021-01-15 02:11:27.652550
0,52,0,1,0,0,0.0,1.176378255993768,9,0,0.49019292277670723,1,2021-01-15 02:11:27.652550
0,52,0,1,0,0,0.0,1.2895733850018587,4,2,0.49019292277670723,1,2021-01-15 02:11:27.652550
0,52,0,0,0,0,0.0,1.4058911869942676,8,1,0.49019292277670723,1,2021-01-15 02:11:27.652550
1,52,0,0,0,0,0.0,1.4689788699979545,8,0,0.49019292277670723,1,2021-01-15 02:11:27.652550
0,52,0,0,0,0,0.0,1.221779911997146,0,0,0.49019292277670723,1,2021-01-15 02:11:27.652550
0,51,0,0,0,0,0.0,1.617754688995774,9,0,1.187845726364443,1,2021-01-15 02:12:03.390320
0,52,0,1,0,0,0.0,1.0265987809980288,8,1,1.187845726364443,1,2021-01-15 02:12:03.390320
0,52,0,0,0,0,0.0,1.4272491709998576,6,3,1.187845726364443,1,2021-01-15 02:12:03.390320
0,52,0,1,0,0,0.0,1.0386337339950842,7,2,1.187845726364443,1,2021-01-15 02:12:03.390320
0,52,0,0,0,0,0.0,1.103988342001685,6,1,1.187845726364443,1,2021-01-15 02:12:03.390320
0,52,0,0,0,0,0.0,1.228964730995358,9,0,1.187845726364443,1,2021-01-15 02:12:03.390320
0,52,0,1,0,0,0.0,1.00499104699702,9,0,1.187845726364443,1,2021-01-15 02:12:03.390320
0,52,0,1,0,0,0.0,1.075244735002343,6,2,1.187845726364443,1,2021-01-15 02:12:03.390320
0,52,0,1,0,0,0.0,1.103253577995929,8,1,1.187845726364443,1,2021-01-15 02:12:03.390320
1,52,0,1,0,0,0.0,1.5945277040009387,9,0,1.187845726364443,1,2021-01-15 02:12:03.390320
0,52,0,0,0,0,0.0,1.158139334002044,6,1,1.187845726364443,1,2021-01-15 02:12:03.390320
1,52,0,1,0,0,0.0,1.0236386559990933,9,0,1.187845726364443,1,2021-01-15 02:12:03.390320
0,52,0,0,0,0,0.0,1.1950740600004792,6,1,1.187845726364443,1,2021-01-15 02:12:03.390320
0,52,0,0,0,0,0.0,1.558453263998672,9,0,1.187845726364443,1,2021-01-15 02:12:03.390320
0,52,0,0,0,0,0.0,1.313407827001356,8,0,1.187845726364443,1,2021-01-15 02:12:03.390320
0,52,0,1,0,0,0.0,1.1586746879984275,8,1,1.187845726364443,1,2021-01-15 02:12:03.390320
0,52,0,1,0,0,0.0,1.0459613130005891,9,0,1.187845726364443,1,2021-01-15 02:12:03.390320
0,52,0,0,0,0,0.0,1.1807836340012727,6,3,1.187845726364443,1,2021-01-15 02:12:03.390320
0,52,0,1,0,0,0.0,1.220690744004969,7,2,1.187845726364443,1,2021-01-15 02:12:03.390320
0,52,0,0,0,0,0.0,1.1824880279964418,7,2,1.187845726364443,1,2021-01-15 02:12:03.390320
0,52,0,0,0,0,0.0,1.289883192999696,7,1,1.187845726364443,1,2021-01-15 02:12:03.390320
1,52,0,0,0,0,0.0,1.2797977400041418,7,1,1.187845726364443,1,2021-01-15 02:12:03.390320
1,52,0,1,0,0,0.0,1.2036229669975,8,1,1.187845726364443,1,2021-01-15 02:12:03.390320
0,52,0,0,0,0,0.0,1.2845597050036304,9,0,1.187845726364443,1,2021-01-15 02:12:03.390320
0,52,0,1,0,0,0.0,1.2178831420023926,8,1,1.187845726364443,1,2021-01-15 02:12:03.390320
0,52,0,1,0,0,0.0,1.2693685830017785,8,0,1.187845726364443,1,2021-01-15 02:12:03.390320
0,52,0,0,0,0,0.0,1.2386206980008865,9,0,0.8392967266310358,1,2021-01-15 02:12:40.761214
0,52,0,0,0,0,0.0,1.1687950149935205,8,0,0.8392967266310358,1,2021-01-15 02:12:40.761214
0,52,0,1,0,0,0.0,1.0306587829982163,6,3,0.8392967266310358,1,2021-01-15 02:12:40.761214
0,52,0,1,0,0,0.0,1.034589456001413,7,2,0.8392967266310358,1,2021-01-15 02:12:40.761214
0,52,0,0,0,0,0.0,1.3049919760014745,8,1,0.8392967266310358,1,2021-01-15 02:12:40.761214
2,52,0,1,0,0,0.0,1.012882417999208,9,0,0.8392967266310358,1,2021-01-15 02:12:40.761214
0,52,0,0,0,0,0.0,1.5028632109970204,9,0,0.8392967266310358,1,2021-01-15 02:12:40.761214
0,52,0,1,0,0,0.0,1.2273020920038107,8,0,0.8392967266310358,1,2021-01-15 02:12:40.761214
0,53,0,0,0,0,0.0,1.1858762569972896,7,2,0.8392967266310358,1,2021-01-15 02:12:40.761214
0,52,0,1,0,0,0.0,1.6299663259997033,8,1,0.8392967266310358,1,2021-01-15 02:12:40.761214
0,52,0,0,0,0,0.0,1.7711985149944667,9,0,0.8392967266310358,1,2021-01-15 02:12:40.761214
0,53,0,1,0,0,0.0,1.1206351520013413,7,1,0.8392967266310358,1,2021-01-15 02:12:40.761214
0,53,0,0,0,0,0.0,1.922738870001922,9,0,0.8392967266310358,1,2021-01-15 02:12:40.761214
0,53,0,1,0,0,0.0,1.2591704880032921,8,1,0.8392967266310358,1,2021-01-15 02:12:40.761214
1,53,0,0,0,0,0.0,1.2155046650004806,5,1,0.8392967266310358,1,2021-01-15 02:12:40.761214
1,53,0,0,0,0,0.0,1.5259036930001457,7,2,0.8392967266310358,1,2021-01-15 02:12:40.761214
1,53,0,1,0,0,0.0,1.1251953350001713,7,2,0.8392967266310358,1,2021-01-15 02:12:40.761214
1,53,0,0,0,0,0.0,1.3603623640010483,6,1,0.8392967266310358,1,2021-01-15 02:12:40.761214
0,53,0,1,0,0,0.0,1.1159572569958982,9,1,0.8392967266310358,1,2021-01-15 02:12:40.761214
0,53,0,1,0,0,0.0,0.9838502149941633,10,0,0.8392967266310358,1,2021-01-15 02:12:40.761214
0,52,0,0,0,0,0.0,1.3014476649987046,10,0,0.08731051625998115,1,2021-01-15 02:13:17.308719
0,53,0,0,0,0,0.0,1.1895436310005607,8,2,0.08731051625998115,1,2021-01-15 02:13:17.308719
1,53,0,1,0,0,0.0,1.112818720001087,7,2,0.08731051625998115,1,2021-01-15 02:13:17.308719
9,53,0,1,0,0,0.0,1.391035323998949,9,1,0.08731051625998115,1,2021-01-15 02:13:17.308719
0,53,0,1,0,0,0.0,1.120583036004973,10,0,0.08731051625998115,1,2021-01-15 02:13:17.308719
0,53,0,1,0,0,0.0,1.142369332999806,6,0,0.08731051625998115,1,2021-01-15 02:13:17.308719
0,53,0,1,0,0,0.0,1.0319356590043753,10,0,0.08731051625998115,1,2021-01-15 02:13:17.308719
0,53,0,1,0,0,0.0,1.06113348800136,10,0,0.08731051625998115,1,2021-01-15 02:13:17.308719
0,53,0,0,0,0,0.0,1.1118603110007825,9,1,0.08731051625998115,1,2021-01-15 02:13:17.308719
0,53,0,0,0,0,0.0,1.176598076002847,9,1,0.08731051625998115,1,2021-01-15 02:13:17.308719
1,53,0,1,0,0,0.0,1.077292657995713,9,0,0.08731051625998115,1,2021-01-15 02:13:17.308719
0,53,0,0,0,0,0.0,1.2209059800006798,9,0,0.08731051625998115,1,2021-01-15 02:13:17.308719
0,53,0,0,0,0,0.0,1.2862269170000218,9,0,0.08731051625998115,1,2021-01-15 02:13:17.308719
0,53,0,1,0,0,0.0,1.003259834003984,8,1,0.08731051625998115,1,2021-01-15 02:13:17.308719
0,53,0,1,0,0,0.0,1.077515222998045,8,0,0.08731051625998115,1,2021-01-15 02:13:17.308719
0,53,0,1,0,0,0.0,1.0583787509967806,6,2,0.08731051625998115,1,2021-01-15 02:13:17.308719
0,53,0,1,0,0,0.0,1.196148675000586,8,1,0.08731051625998115,1,2021-01-15 02:13:17.308719
0,53,0,1,0,0,0.0,1.1740045710030245,8,0,0.08731051625998115,1,2021-01-15 02:13:17.308719
0,53,0,1,0,0,0.0,1.2059424580002087,6,2,0.08731051625998115,1,2021-01-15 02:13:17.308719
0,53,0,1,0,0,0.0,1.150349527997605,7,1,0.08731051625998115,1,2021-01-15 02:13:17.308719
1,53,0,1,0,0,0.0,1.1569046229997184,9,0,0.08731051625998115,1,2021-01-15 02:13:17.308719
0,52,0,1,0,0,0.0,1.177609885999118,9,0,0.06571762113254012,1,2021-01-15 02:13:52.874863
0,53,0,0,0,0,0.0,1.1937279339981615,6,2,0.06571762113254012,1,2021-01-15 02:13:52.874863
0,53,0,1,0,0,0.0,1.0975129869984812,5,1,0.06571762113254012,1,2021-01-15 02:13:52.874863
0,53,0,0,0,0,0.0,1.1366593100028695,8,0,0.06571762113254012,1,2021-01-15 02:13:52.874863
0,53,0,0,0,0,0.0,1.1548779229997308,9,0,0.06571762113254012,1,2021-01-15 02:13:52.874863
0,53,0,1,0,0,0.0,0.9344445850001648,9,0,0.06571762113254012,1,2021-01-15 02:13:52.874863
0,53,0,1,0,0,0.0,1.1618140200007474,9,0,0.06571762113254012,1,2021-01-15 02:13:52.874863
0,53,0,0,0,0,0.0,1.3009689780010376,7,0,0.06571762113254012,1,2021-01-15 02:13:52.874863
0,53,0,0,0,0,0.0,1.3623446990022785,9,0,0.06571762113254012,1,2021-01-15 02:13:52.874863
0,53,0,1,0,0,0.0,1.382560473997728,7,0,0.06571762113254012,1,2021-01-15 02:13:52.874863
0,52,0,0,0,0,0.0,1.3631612169992877,8,0,0.4656433148682255,1,2021-01-15 02:14:28.016625
0,53,0,1,0,0,0.0,1.0615811550014769,7,2,0.4656433148682255,1,2021-01-15 02:14:28.016625
0,53,0,0,0,0,0.0,1.1077681789975031,8,1,0.4656433148682255,1,2021-01-15 02:14:28.016625
1,53,0,1,0,0,0.0,1.1323613150016172,5,2,0.4656433148682255,1,2021-01-15 02:14:28.016625
0,53,0,0,0,0,0.0,1.0953276119980728,8,1,0.4656433148682255,1,2021-01-15 02:14:28.016625
1,53,0,1,0,0,0.0,1.1158682140012388,9,0,0.4656433148682255,1,2021-01-15 02:14:28.016625
0,53,0,0,0,0,0.0,1.2850913840011344,9,0,0.4656433148682255,1,2021-01-15 02:14:28.016625
0,53,0,0,0,0,0.0,1.1405405850018724,7,0,0.4656433148682255,1,2021-01-15 02:14:28.016625
0,53,0,1,0,0,0.0,1.0649414559957222,6,1,0.4656433148682255,1,2021-01-15 02:14:28.016625
0,53,0,1,0,0,0.0,1.1002222480019554,9,0,0.4656433148682255,1,2021-01-15 02:14:28.016625
0,53,0,1,0,0,0.0,1.1146619149949402,8,1,0.4656433148682255,1,2021-01-15 02:14:28.016625
0,53,0,0,0,0,0.0,1.108696596995287,7,0,0.4656433148682255,1,2021-01-15 02:14:28.016625
0,53,0,1,0,0,0.0,1.1418149230012204,8,0,0.4656433148682255,1,2021-01-15 02:14:28.016625
0,53,0,1,0,0,0.0,1.160728429997107,9,0,0.4656433148682255,1,2021-01-15 02:14:28.016625
0,53,0,1,0,0,0.0,1.0994346830048016,8,1,0.4656433148682255,1,2021-01-15 02:14:28.016625
0,53,0,0,0,0,0.0,1.4983025769979577,9,0,0.4656433148682255,1,2021-01-15 02:14:28.016625
0,53,0,1,0,0,0.0,1.1901438819986652,8,1,0.4656433148682255,1,2021-01-15 02:14:28.016625
0,53,0,0,0,0,0.0,1.453246069002489,8,0,0.4656433148682255,1,2021-01-15 02:14:28.016625
0,53,0,0,0,0,0.0,1.2734015330061084,7,1,1.6098188541520826,1,2021-01-15 02:15:03.353260
0,53,0,0,0,0,0.0,1.4967393390033976,9,0,1.6098188541520826,1,2021-01-15 02:15:03.353260
0,53,0,0,0,0,0.0,1.381013170001097,9,0,1.6098188541520826,1,2021-01-15 02:15:03.353260
0,53,0,1,0,0,0.0,1.1086010770013672,8,0,1.6098188541520826,1,2021-01-15 02:15:03.353260
0,53,0,0,0,0,0.0,1.3033361280031386,7,0,1.6098188541520826,1,2021-01-15 02:15:03.353260
0,53,0,1,0,0,0.0,1.164082267001504,9,0,1.6098188541520826,1,2021-01-15 02:15:03.353260
0,53,0,1,0,0,0.0,1.209139664999384,9,0,1.6098188541520826,1,2021-01-15 02:15:03.353260
0,53,0,0,0,0,0.0,1.6341558589992928,8,1,1.6098188541520826,1,2021-01-15 02:15:03.353260
1,53,0,1,0,0,0.0,1.0435096799992607,8,1,1.6098188541520826,1,2021-01-15 02:15:03.353260
0,53,0,0,0,0,0.0,1.2256104180050897,8,1,1.6098188541520826,1,2021-01-15 02:15:03.353260
0,53,0,1,0,0,0.0,1.058630011000787,8,0,1.6098188541520826,1,2021-01-15 02:15:03.353260
0,53,0,0,0,0,0.0,1.4229568939990713,9,0,1.6098188541520826,1,2021-01-15 02:15:03.353260
0,53,0,0,0,0,0.0,1.458621559999301,8,0,0.36149798590364624,1,2021-01-15 02:15:40.995232
0,53,0,0,0,0,0.0,1.333092992004822,8,0,0.36149798590364624,1,2021-01-15 02:15:40.995232
0,53,0,1,0,0,0.0,1.1841263480018824,7,0,0.36149798590364624,1,2021-01-15 02:15:40.995232
0,53,0,1,0,0,0.0,1.2642121890021372,8,0,0.36149798590364624,1,2021-01-15 02:15:40.995232
0,53,0,1,0,0,0.0,1.199392283000634,9,0,0.36149798590364624,1,2021-01-15 02:15:40.995232
0,53,0,1,0,0,0.0,1.040942883999378,9,0,0.36149798590364624,1,2021-01-15 02:15:40.995232
0,53,0,1,0,0,0.0,1.040389255998889,8,0,0.36149798590364624,1,2021-01-15 02:15:40.995232
0,53,0,0,0,0,0.0,1.1228055660030805,8,0,0.36149798590364624,1,2021-01-15 02:15:40.995232
0,53,0,1,0,0,0.0,1.1466491560058785,5,2,0.36149798590364624,1,2021-01-15 02:15:40.995232
1,53,0,1,0,0,0.0,1.2375361989979865,8,1,0.36149798590364624,1,2021-01-15 02:15:40.995232
0,53,0,0,0,0,0.0,1.3514385289963684,9,0,0.36149798590364624,1,2021-01-15 02:15:40.995232
0,53,0,1,0,0,0.0,1.0716729769992526,8,1,0.36149798590364624,1,2021-01-15 02:15:40.995232
0,53,0,0,0,0,0.0,1.3043911819986533,7,0,0.36149798590364624,1,2021-01-15 02:15:40.995232
0,53,0,1,0,0,0.0,1.3139035269996384,3,0,0.36149798590364624,1,2021-01-15 02:15:40.995232
0,52,0,0,0,0,0.0,1.243524122000963,7,1,0.06534047800059287,1,2021-01-15 02:16:17.317235
0,52,0,1,0,0,0.0,1.271303377005097,9,0,0.06534047800059287,1,2021-01-15 02:16:17.317235
0,53,0,1,0,0,0.0,1.1462457040033769,7,1,0.06534047800059287,1,2021-01-15 02:16:17.317235
0,53,0,0,0,0,0.0,1.2683375089982292,9,0,0.06534047800059287,1,2021-01-15 02:16:17.317235
0,53,0,0,0,0,0.0,1.2891958030013484,9,0,0.06534047800059287,1,2021-01-15 02:16:17.317235
0,53,0,0,0,0,0.0,1.2726396069992916,8,1,0.06534047800059287,1,2021-01-15 02:16:17.317235
1,53,0,0,0,0,0.0,1.206996323002386,7,1,0.06534047800059287,1,2021-01-15 02:16:17.317235
1,53,0,1,0,0,0.0,1.1290189259962062,7,0,0.06534047800059287,1,2021-01-15 02:16:17.317235
0,53,0,1,0,0,0.0,1.1054665539995767,9,0,0.06534047800059287,1,2021-01-15 02:16:17.317235
0,53,0,1,0,0,0.0,1.1798452239963808,7,0,0.06534047800059287,1,2021-01-15 02:16:17.317235
0,53,0,1,0,0,0.0,1.1036563589950674,8,1,0.06534047800059287,1,2021-01-15 02:16:17.317235
0,53,0,0,0,0,0.0,1.1707755370007362,7,0,0.06534047800059287,1,2021-01-15 02:16:17.317235
0,53,0,1,0,0,0.0,1.249120590997336,8,0,0.06534047800059287,1,2021-01-15 02:16:17.317235
0,53,0,0,0,0,0.0,1.3395369669960928,8,1,0.06534047800059287,1,2021-01-15 02:16:17.317235
1,53,0,1,0,0,0.0,1.0926548719944549,9,0,0.06534047800059287,1,2021-01-15 02:16:17.317235
0,53,0,0,0,0,0.0,1.2632937779999338,4,0,0.06534047800059287,1,2021-01-15 02:16:17.317235
0,53,0,0,0,0,0.0,1.2534434599947417,9,0,1.0764596520561742,1,2021-01-15 02:16:52.780609
0,53,0,0,0,0,0.0,1.1467052009975305,8,1,1.0764596520561742,1,2021-01-15 02:16:52.780609
0,53,0,0,0,0,0.0,1.363416241001687,9,0,1.0764596520561742,1,2021-01-15 02:16:52.780609
0,53,0,1,0,0,0.0,1.1943174010011717,7,0,1.0764596520561742,1,2021-01-15 02:16:52.780609
0,53,0,0,0,0,0.0,1.2229571440038853,8,0,1.0764596520561742,1,2021-01-15 02:16:52.780609
0,53,0,0,0,0,0.0,1.4785376809959416,7,1,1.0764596520561742,1,2021-01-15 02:16:52.780609
0,53,0,0,0,0,0.0,1.5571262879966525,9,0,1.0764596520561742,1,2021-01-15 02:16:52.780609
0,53,0,1,0,0,0.0,1.0650109459966188,9,0,1.0764596520561742,1,2021-01-15 02:16:52.780609
0,53,0,1,0,0,0.0,1.1949237209992134,6,2,1.0764596520561742,1,2021-01-15 02:16:52.780609
1,53,0,1,0,0,0.0,1.0527402500010794,8,1,1.0764596520561742,1,2021-01-15 02:16:52.780609
1,53,0,1,0,0,0.0,1.1891389140000683,8,0,1.0764596520561742,1,2021-01-15 02:16:52.780609
0,53,0,1,0,0,0.0,1.1780393619992537,6,3,1.0764596520561742,1,2021-01-15 02:16:52.780609
0,53,0,0,0,0,0.0,1.4016876820023754,7,2,1.0764596520561742,1,2021-01-15 02:16:52.780609
1,53,0,0,0,0,0.0,1.2111262190010166,7,2,1.0764596520561742,1,2021-01-15 02:16:52.780609
1,53,0,0,0,0,0.0,1.3473010289962986,7,1,1.0764596520561742,1,2021-01-15 02:16:52.780609
1,53,0,1,0,0,0.0,1.0858875609992538,9,0,1.0764596520561742,1,2021-01-15 02:16:52.780609
0,53,0,1,0,0,0.0,1.057573259997298,7,1,0.582915224122411,1,2021-01-15 02:17:28.946182
1,53,0,1,0,0,0.0,1.447609688002558,9,0,0.582915224122411,1,2021-01-15 02:17:28.946182
0,53,0,1,0,0,0.0,1.1285402529974817,7,2,0.582915224122411,1,2021-01-15 02:17:28.946182
0,53,0,0,0,0,0.0,1.0626385290015605,7,1,0.582915224122411,1,2021-01-15 02:17:28.946182
0,53,0,0,0,0,0.0,1.307921619998524,9,0,0.582915224122411,1,2021-01-15 02:17:28.946182
0,53,0,1,0,0,0.0,1.1660187640009099,9,0,0.582915224122411,1,2021-01-15 02:17:28.946182
0,53,0,0,0,0,0.0,1.1885226060039713,9,0,0.582915224122411,1,2021-01-15 02:17:28.946182
0,53,0,1,0,0,0.0,1.2284203590024845,7,0,0.582915224122411,1,2021-01-15 02:17:28.946182
0,53,0,1,0,0,0.0,1.2324700780009152,9,0,0.582915224122411,1,2021-01-15 02:17:28.946182
0,53,0,0,0,0,0.0,1.345415182004217,9,0,0.582915224122411,1,2021-01-15 02:17:28.946182
0,53,0,1,0,0,0.0,1.3178618109959643,8,1,0.582915224122411,1,2021-01-15 02:17:28.946182
1,53,0,1,0,0,0.0,1.1245355479986756,8,1,0.582915224122411,1,2021-01-15 02:17:28.946182
0,53,0,1,0,0,0.0,1.0726096569997026,9,0,0.582915224122411,1,2021-01-15 02:17:28.946182
0,53,0,0,0,0,0.0,1.2275598859996535,6,3,0.582915224122411,1,2021-01-15 02:17:28.946182
0,53,0,0,0,0,0.0,1.3322868199975346,7,2,0.582915224122411,1,2021-01-15 02:17:28.946182
2,53,0,1,0,0,0.0,1.251518199002021,8,1,0.582915224122411,1,2021-01-15 02:17:28.946182
2,53,0,0,0,0,0.0,1.3376666539988946,5,0,0.582915224122411,1,2021-01-15 02:17:28.946182
0,53,0,0,0,0,0.0,1.2744691900006728,8,1,0.582915224122411,1,2021-01-15 02:17:28.946182
0,53,0,1,0,0,0.0,1.8832410909963073,9,0,0.582915224122411,1,2021-01-15 02:17:28.946182
0,53,0,0,0,0,0.0,1.2216895840028883,6,1,0.582915224122411,1,2021-01-15 02:17:28.946182
1,53,0,0,0,0,0.0,1.3109913500011317,8,0,0.582915224122411,1,2021-01-15 02:17:28.946182
0,53,0,0,0,0,0.0,1.1922479560016654,2,0,0.582915224122411,1,2021-01-15 02:17:28.946182
0,53,0,0,0,0,0.0,1.1806375599990133,7,1,0.7769372135573532,1,2021-01-15 02:18:04.695427
1,53,0,1,0,0,0.0,1.055807974000345,8,0,0.7769372135573532,1,2021-01-15 02:18:04.695427
0,53,0,0,0,0,0.0,1.6145222490013111,9,0,0.7769372135573532,1,2021-01-15 02:18:04.695427
0,53,0,1,0,0,0.0,1.1635136089971638,9,0,0.7769372135573532,1,2021-01-15 02:18:04.695427
0,53,0,1,0,0,0.0,1.0432332609998411,9,0,0.7769372135573532,1,2021-01-15 02:18:04.695427
0,53,0,1,0,0,0.0,1.6477791750003234,8,1,0.7769372135573532,1,2021-01-15 02:18:04.695427
0,53,0,0,0,0,0.0,1.3565332279977156,8,0,0.7769372135573532,1,2021-01-15 02:18:04.695427
0,53,0,1,0,0,0.0,1.2225097210030071,8,0,0.7769372135573532,1,2021-01-15 02:18:04.695427
0,53,0,0,0,0,0.0,1.3542048270028317,9,0,0.7769372135573532,1,2021-01-15 02:18:04.695427
0,53,0,1,0,0,0.0,1.0751593519962626,9,0,0.7769372135573532,1,2021-01-15 02:18:04.695427
0,53,0,1,0,0,0.0,1.0567560339986812,8,0,0.7769372135573532,1,2021-01-15 02:18:04.695427
0,53,0,0,0,0,0.0,1.5824466640042374,9,0,0.7769372135573532,1,2021-01-15 02:18:04.695427
0,53,0,0,0,0,0.0,1.2608618140002363,7,0,0.7769372135573532,1,2021-01-15 02:18:04.695427
0,52,0,1,0,0,0.0,1.1978518510004506,9,0,0.41073163852723893,1,2021-01-15 02:18:41.828151
0,53,0,1,0,0,0.0,1.0271806250020745,8,0,0.41073163852723893,1,2021-01-15 02:18:41.828151
0,53,0,1,0,0,0.0,1.076593561003392,9,0,0.41073163852723893,1,2021-01-15 02:18:41.828151
0,53,0,1,0,0,0.0,1.1305166960009956,8,1,0.41073163852723893,1,2021-01-15 02:18:41.828151
0,53,0,0,0,0,0.0,1.254470637999475,8,0,0.41073163852723893,1,2021-01-15 02:18:41.828151
0,53,0,1,0,0,0.0,1.186720781995973,9,0,0.41073163852723893,1,2021-01-15 02:18:41.828151
0,53,0,0,0,0,0.0,1.1563323880036478,6,1,0.41073163852723893,1,2021-01-15 02:18:41.828151
1,53,0,1,0,0,0.0,1.248484206997091,9,0,0.41073163852723893,1,2021-01-15 02:18:41.828151
0,53,0,1,0,0,0.0,1.0600395889996435,8,0,0.41073163852723893,1,2021-01-15 02:18:41.828151
0,53,0,1,0,0,0.0,1.1840241000027163,8,1,0.41073163852723893,1,2021-01-15 02:18:41.828151
1,53,0,0,0,0,0.0,1.2930266580005991,8,0,0.41073163852723893,1,2021-01-15 02:18:41.828151
0,53,0,1,0,0,0.0,1.2045169099947088,9,0,0.41073163852723893,1,2021-01-15 02:18:41.828151
0,53,0,0,0,0,0.0,1.4874994049969246,8,1,0.36905806134499664,1,2021-01-15 02:19:17.644131
1,53,0,0,0,0,0.0,1.2435545719999936,7,0,0.36905806134499664,1,2021-01-15 02:19:17.644131
0,53,0,0,0,0,0.0,1.122018564004975,6,3,0.36905806134499664,1,2021-01-15 02:19:17.644131
0,53,0,1,0,0,0.0,1.0883457660020213,7,2,0.36905806134499664,1,2021-01-15 02:19:17.644131
0,53,0,1,0,0,0.0,1.2236018809999223,8,1,0.36905806134499664,1,2021-01-15 02:19:17.644131
2,53,0,0,0,0,0.0,1.2318940499972086,9,0,0.36905806134499664,1,2021-01-15 02:19:17.644131
0,53,0,0,0,0,0.0,1.092710901000828,9,0,0.36905806134499664,1,2021-01-15 02:19:17.644131
0,53,0,0,0,0,0.0,1.2572790630001691,9,0,0.36905806134499664,1,2021-01-15 02:19:17.644131
0,53,0,0,0,0,0.0,1.2471698189983726,9,0,0.36905806134499664,1,2021-01-15 02:19:17.644131
0,53,0,0,0,0,0.0,1.1058544189945678,8,0,0.36905806134499664,1,2021-01-15 02:19:17.644131
0,53,0,1,0,0,0.0,1.2561953230033396,8,1,0.36905806134499664,1,2021-01-15 02:19:17.644131
0,53,0,1,0,0,0.0,1.248765240998182,8,0,0.36905806134499664,1,2021-01-15 02:19:17.644131
0,53,0,0,0,0,0.0,1.2939416740046,6,1,0.36905806134499664,1,2021-01-15 02:19:17.644131
1,53,0,1,0,0,0.0,1.1321279939948,8,1,0.36905806134499664,1,2021-01-15 02:19:17.644131
0,53,0,1,0,0,0.0,1.2157145780001883,8,1,0.36905806134499664,1,2021-01-15 02:19:17.644131
0,53,0,1,0,0,0.0,1.2223344989979523,8,0,0.36905806134499664,1,2021-01-15 02:19:17.644131
0,53,0,0,0,0,0.0,1.660436974001641,8,1,0.2540588202889789,1,2021-01-15 02:19:52.960726
0,53,0,0,0,0,0.0,1.6789416079991497,9,0,0.2540588202889789,1,2021-01-15 02:19:52.960726
0,53,0,1,0,0,0.0,1.0487836169995717,8,1,0.2540588202889789,1,2021-01-15 02:19:52.960726
0,53,0,0,0,0,0.0,1.2806859069969505,9,0,0.2540588202889789,1,2021-01-15 02:19:52.960726
0,53,0,0,0,0,0.0,1.3355731449992163,8,0,0.2540588202889789,1,2021-01-15 02:19:52.960726
0,53,0,1,0,0,0.0,1.1187987349985633,6,3,0.2540588202889789,1,2021-01-15 02:19:52.960726
0,53,0,0,0,0,0.0,1.159059919998981,6,2,0.2540588202889789,1,2021-01-15 02:19:52.960726
0,53,0,0,0,0,0.0,1.247612545004813,7,1,0.2540588202889789,1,2021-01-15 02:19:52.960726
2,53,0,0,0,0,0.0,1.3237038689985638,9,0,0.2540588202889789,1,2021-01-15 02:19:52.960726
0,53,0,0,0,0,0.0,1.1619782130001113,9,0,0.2540588202889789,1,2021-01-15 02:19:52.960726
0,53,0,1,0,0,0.0,1.1513575399949332,9,0,0.2540588202889789,1,2021-01-15 02:19:52.960726
0,53,0,1,0,0,0.0,1.1753919090042473,7,0,0.2540588202889789,1,2021-01-15 02:19:52.960726
0,53,0,0,0,0,0.0,1.2165406159983831,9,0,0.2540588202889789,1,2021-01-15 02:19:52.960726
0,53,0,0,0,0,0.0,1.2127061330029392,7,0,0.2540588202889789,1,2021-01-15 02:19:52.960726
0,53,0,0,0,0,0.0,1.20565408100083,7,1,0.2540588202889789,1,2021-01-15 02:19:52.960726
0,53,0,1,0,0,0.0,1.1466223949973937,7,0,0.2540588202889789,1,2021-01-15 02:19:52.960726
0,53,0,0,0,0,0.0,1.2496317960030865,8,1,0.2540588202889789,1,2021-01-15 02:19:52.960726
0,53,0,0,0,0,0.0,1.2389613830018789,8,0,0.2540588202889789,1,2021-01-15 02:19:52.960726
0,53,0,0,0,0,0.0,1.2231627380024293,8,1,0.2540588202889789,1,2021-01-15 02:19:52.960726
1,53,0,0,0,0,0.0,1.3761071089975303,3,0,0.2540588202889789,1,2021-01-15 02:19:52.960726
0,53,0,0,0,0,0.0,1.2448584680023487,9,0,1.2698481586237993,1,2021-01-15 02:20:28.632636
0,53,0,0,0,0,0.0,1.2646698759999708,8,1,1.2698481586237993,1,2021-01-15 02:20:28.632636
0,53,0,0,0,0,0.0,1.30294837999827,8,0,1.2698481586237993,1,2021-01-15 02:20:28.632636
0,53,0,0,0,0,0.0,1.3031220069970004,8,1,1.2698481586237993,1,2021-01-15 02:20:28.632636
0,53,0,0,0,0,0.0,1.3115554320029332,9,0,1.2698481586237993,1,2021-01-15 02:20:28.632636
0,53,0,0,0,0,0.0,1.2597985960019287,9,0,1.2698481586237993,1,2021-01-15 02:20:28.632636
0,53,0,0,0,0,0.0,1.2440624439987005,9,0,1.2698481586237993,1,2021-01-15 02:20:28.632636
0,53,0,1,0,0,0.0,0.9733900869978243,7,2,1.2698481586237993,1,2021-01-15 02:20:28.632636
0,53,0,0,0,0,0.0,1.32053776900284,7,1,1.2698481586237993,1,2021-01-15 02:20:28.632636
1,53,0,1,0,0,0.0,1.1572576350008603,7,1,1.2698481586237993,1,2021-01-15 02:20:28.632636
0,53,0,1,0,0,0.0,1.0376891480045742,9,0,1.2698481586237993,1,2021-01-15 02:20:28.632636
0,53,0,1,0,0,0.0,1.107305832003476,9,0,1.2698481586237993,1,2021-01-15 02:20:28.632636
0,53,0,1,0,0,0.0,1.2764166830020258,8,0,1.2698481586237993,1,2021-01-15 02:20:28.632636
0,53,0,0,0,0,0.0,1.5015126799989957,9,0,1.2698481586237993,1,2021-01-15 02:20:28.632636
0,53,0,1,0,0,0.0,1.4990209669995238,4,1,1.2698481586237993,1,2021-01-15 02:20:28.632636
0,53,0,0,0,0,0.0,1.4144431769964285,2,0,1.2698481586237993,1,2021-01-15 02:20:28.632636
0,53,0,0,0,0,0.0,1.221356558999105,7,1,2.9122668245766334,1,2021-01-15 02:21:05.766081
1,53,0,1,0,0,0.0,1.0086861610034248,8,1,2.9122668245766334,1,2021-01-15 02:21:05.766081
0,53,0,0,0,0,0.0,1.258610018005129,9,0,2.9122668245766334,1,2021-01-15 02:21:05.766081
0,53,0,0,0,0,0.0,1.1630901980024646,8,1,2.9122668245766334,1,2021-01-15 02:21:05.766081
0,53,0,0,0,0,0.0,1.2177281069962191,8,0,2.9122668245766334,1,2021-01-15 02:21:05.766081
0,53,0,1,0,0,0.0,1.104473778999818,8,1,2.9122668245766334,1,2021-01-15 02:21:05.766081
1,53,0,0,0,0,0.0,1.1740316249997704,8,0,2.9122668245766334,1,2021-01-15 02:21:05.766081
0,53,0,1,0,0,0.0,1.1080376479949336,7,2,2.9122668245766334,1,2021-01-15 02:21:05.766081
0,53,0,1,0,0,0.0,1.103525100996194,8,1,2.9122668245766334,1,2021-01-15 02:21:05.766081
1,53,0,0,0,0,0.0,1.244738564004365,9,0,2.9122668245766334,1,2021-01-15 02:21:05.766081
0,53,0,0,0,0,0.0,1.2754082960018422,7,1,2.9122668245766334,1,2021-01-15 02:21:05.766081
0,53,0,1,0,0,0.0,1.8068952489993535,8,0,2.9122668245766334,1,2021-01-15 02:21:05.766081
0,53,0,1,0,0,0.0,1.0719210500028566,6,2,2.9122668245766334,1,2021-01-15 02:21:05.766081
0,53,0,1,0,0,0.0,1.18859052600601,8,1,2.9122668245766334,1,2021-01-15 02:21:05.766081
0,53,0,0,0,0,0.0,1.3776817019970622,9,0,2.9122668245766334,1,2021-01-15 02:21:05.766081
0,53,0,0,0,0,0.0,1.204032259003725,8,1,2.9122668245766334,1,2021-01-15 02:21:05.766081
0,53,0,1,0,0,0.0,1.2574466949954513,6,1,2.9122668245766334,1,2021-01-15 02:21:05.766081
1,53,0,0,0,0,0.0,1.3469253009970998,9,0,2.9122668245766334,1,2021-01-15 02:21:05.766081
0,53,0,0,0,0,0.0,1.5739236340014031,9,0,0.7285617158343789,1,2021-01-15 02:21:44.979948
0,53,0,1,0,0,0.0,0.8516771530048572,8,1,0.7285617158343789,1,2021-01-15 02:21:44.979948
0,53,0,1,0,0,0.0,1.2648144389968365,9,0,0.7285617158343789,1,2021-01-15 02:21:44.979948
0,53,0,1,0,0,0.0,1.1497679550011526,8,1,0.7285617158343789,1,2021-01-15 02:21:44.979948
0,53,0,0,0,0,0.0,1.2465215730044292,9,0,0.7285617158343789,1,2021-01-15 02:21:44.979948
0,53,0,0,0,0,0.0,1.2729745079996064,8,0,0.7285617158343789,1,2021-01-15 02:21:44.979948
0,53,0,0,0,0,0.0,1.386005976004526,9,1,0.7285617158343789,1,2021-01-15 02:21:44.979948
0,53,0,1,0,0,0.0,1.1946244959981414,10,0,0.7285617158343789,1,2021-01-15 02:21:44.979948
0,53,0,1,0,0,0.0,1.2653150340047432,8,0,0.7285617158343789,1,2021-01-15 02:21:44.979948
0,53,0,1,0,0,0.0,1.137502254001447,8,1,0.7285617158343789,1,2021-01-15 02:21:44.979948
0,54,0,1,0,0,0.0,1.2747623730028863,7,0,0.7285617158343789,1,2021-01-15 02:21:44.979948
0,53,0,1,0,0,0.0,1.1667577709959005,10,0,0.8230076103265354,1,2021-01-15 02:22:21.289556
0,53,0,1,0,0,0.0,1.0892126299950178,9,0,0.8230076103265354,1,2021-01-15 02:22:21.289556
0,53,0,0,0,0,0.0,1.407546659000218,10,0,0.8230076103265354,1,2021-01-15 02:22:21.289556
0,53,0,1,0,0,0.0,1.1790753550012596,9,0,0.8230076103265354,1,2021-01-15 02:22:21.289556
0,53,0,1,0,0,0.0,1.1794460710007115,9,0,0.8230076103265354,1,2021-01-15 02:22:21.289556
0,53,0,0,0,0,0.0,1.2675484799983678,7,1,0.8230076103265354,1,2021-01-15 02:22:21.289556
0,53,0,0,0,0,0.0,1.3644308509974508,9,0,0.8230076103265354,1,2021-01-15 02:22:21.289556
0,53,0,1,0,0,0.0,1.28559617800056,10,0,0.8230076103265354,1,2021-01-15 02:22:21.289556
0,53,0,1,0,0,0.0,1.0251720050000586,7,0,2.1546010828867033,1,2021-01-15 02:22:57.367226
0,53,0,1,0,0,0.0,1.1404288689955138,9,1,2.1546010828867033,1,2021-01-15 02:22:57.367226
1,53,0,1,0,0,0.0,1.1081195169972489,9,0,2.1546010828867033,1,2021-01-15 02:22:57.367226
0,53,0,1,0,0,0.0,1.0235474900036934,8,1,2.1546010828867033,1,2021-01-15 02:22:57.367226
0,53,0,1,0,0,0.0,1.0426436010020552,8,0,2.1546010828867033,1,2021-01-15 02:22:57.367226
0,53,0,1,0,0,0.0,1.0819157610021648,8,1,2.1546010828867033,1,2021-01-15 02:22:57.367226
0,53,0,0,0,0,0.0,1.2330465550039662,9,0,2.1546010828867033,1,2021-01-15 02:22:57.367226
0,53,0,1,0,0,0.0,1.1258639600055176,6,1,2.1546010828867033,1,2021-01-15 02:22:57.367226
0,53,0,0,0,0,0.0,1.238476137004909,8,0,2.1546010828867033,1,2021-01-15 02:22:57.367226
0,53,0,1,0,0,0.0,1.1596375859953696,7,0,2.1546010828867033,1,2021-01-15 02:22:57.367226
0,53,0,0,0,0,0.0,1.259873757000605,7,1,2.1546010828867033,1,2021-01-15 02:22:57.367226
1,53,0,1,0,0,0.0,1.7150512490043184,8,1,2.1546010828867033,1,2021-01-15 02:22:57.367226
1,53,0,1,0,0,0.0,1.1730093829974066,9,0,2.1546010828867033,1,2021-01-15 02:22:57.367226
0,53,0,1,0,0,0.0,1.1586819629956153,6,2,2.1546010828867033,1,2021-01-15 02:22:57.367226
0,53,0,1,0,0,0.0,1.387790660999599,8,1,2.1546010828867033,1,2021-01-15 02:22:57.367226
1,53,0,0,0,0,0.0,1.2389846320002107,9,0,2.1546010828867033,1,2021-01-15 02:22:57.367226
0,53,0,0,0,0,0.0,1.370394124998711,9,0,2.1546010828867033,1,2021-01-15 02:22:57.367226
0,53,0,1,0,0,0.0,1.0776482110013603,9,0,2.1546010828867033,1,2021-01-15 02:22:57.367226
0,53,0,0,0,0,0.0,1.2614902849963983,7,1,2.1546010828867033,1,2021-01-15 02:22:57.367226
0,53,0,0,0,0,0.0,1.2791169789998094,7,1,2.1546010828867033,1,2021-01-15 02:22:57.367226
2,53,0,0,0,0,0.0,1.6517517309985124,9,0,2.1546010828867033,1,2021-01-15 02:22:57.367226
0,53,0,1,0,0,0.0,1.2266244679994998,6,0,2.1546010828867033,1,2021-01-15 02:22:57.367226
0,53,0,0,0,0,0.0,1.3704789179973886,7,1,2.215945243034651,1,2021-01-15 02:23:34.650801
1,53,0,0,0,0,0.0,1.2635954420038615,7,1,2.215945243034651,1,2021-01-15 02:23:34.650801
1,53,0,1,0,0,0.0,1.0961527230028878,9,0,2.215945243034651,1,2021-01-15 02:23:34.650801
0,53,0,0,0,0,0.0,1.1546923920031986,8,0,2.215945243034651,1,2021-01-15 02:23:34.650801
0,53,0,1,0,0,0.0,0.9944843369958107,7,1,2.215945243034651,1,2021-01-15 02:23:34.650801
0,53,0,0,0,0,0.0,1.2648727470004815,8,0,2.215945243034651,1,2021-01-15 02:23:34.650801
0,53,0,0,0,0,0.0,1.178419905998453,6,0,2.215945243034651,1,2021-01-15 02:23:34.650801
0,53,0,1,0,0,0.0,1.3329134070008877,7,1,2.215945243034651,1,2021-01-15 02:23:34.650801
0,53,0,0,0,0,0.0,1.4756929210052476,8,1,2.215945243034651,1,2021-01-15 02:23:34.650801
1,53,0,0,0,0,0.0,1.27473854800337,9,0,2.215945243034651,1,2021-01-15 02:23:34.650801
0,53,0,1,0,0,0.0,1.0790192929998739,6,2,2.215945243034651,1,2021-01-15 02:23:34.650801
0,53,0,1,0,0,0.0,1.0819079000066267,8,1,2.215945243034651,1,2021-01-15 02:23:34.650801
1,53,0,0,0,0,0.0,1.206100861003506,8,0,2.215945243034651,1,2021-01-15 02:23:34.650801
0,53,0,1,0,0,0.0,1.1408229830049095,7,2,2.215945243034651,1,2021-01-15 02:23:34.650801
0,53,0,1,0,0,0.0,1.306431049000821,6,1,2.215945243034651,1,2021-01-15 02:23:34.650801
0,53,0,0,0,0,0.0,1.2223162169975694,9,0,2.215945243034651,1,2021-01-15 02:23:34.650801
0,53,0,1,0,0,0.0,1.1869866630004253,7,0,2.215945243034651,1,2021-01-15 02:23:34.650801
0,53,0,0,0,0,0.0,1.2076402780003264,9,0,2.545584821660005,1,2021-01-15 02:24:11.920777
0,53,0,1,0,0,0.0,1.1140903780033113,9,0,2.545584821660005,1,2021-01-15 02:24:11.920777
0,53,0,0,0,0,0.0,1.2973145139985718,7,2,2.545584821660005,1,2021-01-15 02:24:11.920777
9,53,0,1,0,0,0.0,1.0737665699998615,8,1,2.545584821660005,1,2021-01-15 02:24:11.920777
9,53,0,0,0,0,0.0,1.1392025140012265,9,0,2.545584821660005,1,2021-01-15 02:24:11.920777
0,53,0,1,0,0,0.0,1.034916313001304,10,0,2.545584821660005,1,2021-01-15 02:24:11.920777
0,53,0,1,0,0,0.0,1.058667958001024,5,2,2.545584821660005,1,2021-01-15 02:24:11.920777
0,53,0,0,0,0,0.0,1.2476967030015658,9,1,2.545584821660005,1,2021-01-15 02:24:11.920777
1,53,0,0,0,0,0.0,1.2527405520013417,10,0,2.545584821660005,1,2021-01-15 02:24:11.920777
0,53,0,0,0,0,0.0,1.2786945219995687,9,0,2.545584821660005,1,2021-01-15 02:24:11.920777
0,53,0,0,0,0,0.0,1.5237688630004413,11,0,2.545584821660005,1,2021-01-15 02:24:11.920777
0,53,0,0,0,0,0.0,1.2405998779941,11,0,2.545584821660005,1,2021-01-15 02:24:11.920777
0,53,0,0,0,0,0.0,1.2494666629936546,11,0,2.545584821660005,1,2021-01-15 02:24:11.920777
0,53,0,1,0,0,0.0,1.2028882570011774,10,0,2.545584821660005,1,2021-01-15 02:24:11.920777
0,53,0,1,0,0,0.0,1.1047095969988732,11,0,1.545928987138108,1,2021-01-15 02:24:49.888458
0,53,0,1,0,0,0.0,1.1045157449989347,9,0,1.545928987138108,1,2021-01-15 02:24:49.888458
0,53,0,1,0,0,0.0,1.0786363320003147,9,1,1.545928987138108,1,2021-01-15 02:24:49.888458
0,53,0,0,0,0,0.0,1.317192321002949,11,0,1.545928987138108,1,2021-01-15 02:24:49.888458
0,53,0,1,0,0,0.0,1.2696437279955717,8,0,1.545928987138108,1,2021-01-15 02:24:49.888458
0,53,0,1,0,0,0.0,1.1251100699955714,10,1,1.545928987138108,1,2021-01-15 02:24:49.888458
0,53,0,1,0,0,0.0,1.2118029789999127,10,0,1.545928987138108,1,2021-01-15 02:24:49.888458
0,53,0,1,0,0,0.0,1.570748663994891,11,0,1.545928987138108,1,2021-01-15 02:24:49.888458
0,53,0,0,0,0,0.0,1.5548679900020943,10,1,1.545928987138108,1,2021-01-15 02:24:49.888458
0,53,0,0,0,0,0.0,1.199424694001209,8,2,1.545928987138108,1,2021-01-15 02:24:49.888458
1,53,0,1,0,0,0.0,1.1513728759964579,8,3,1.545928987138108,1,2021-01-15 02:24:49.888458
1,53,0,0,0,0,0.0,1.418562747996475,9,2,1.545928987138108,1,2021-01-15 02:24:49.888458
0,53,0,1,0,0,0.0,1.2979670130007435,9,1,1.545928987138108,1,2021-01-15 02:24:49.888458
0,53,0,0,0,0,0.0,1.3336696449987357,10,0,1.545928987138108,1,2021-01-15 02:24:49.888458
0,53,0,0,0,0,0.0,1.2526484039990464,10,1,0.8519596728981171,1,2021-01-15 02:25:26.804168
0,53,0,0,0,0,0.0,1.3400182900004438,11,0,0.8519596728981171,1,2021-01-15 02:25:26.804168
0,53,0,1,0,0,0.0,1.128926669996872,10,0,0.8519596728981171,1,2021-01-15 02:25:26.804168
0,53,0,0,0,0,0.0,1.3198866419988917,11,0,0.8519596728981171,1,2021-01-15 02:25:26.804168
0,53,0,0,0,0,0.0,1.2000531810044777,9,2,0.8519596728981171,1,2021-01-15 02:25:26.804168
0,53,0,1,0,0,0.0,1.2979519270011224,10,1,0.8519596728981171,1,2021-01-15 02:25:26.804168
3,53,0,0,0,0,0.0,1.2179803260005428,9,1,0.8519596728981171,1,2021-01-15 02:25:26.804168
0,53,0,0,0,0,0.0,1.2996628309992957,11,0,0.8519596728981171,1,2021-01-15 02:25:26.804168
0,53,0,0,0,0,0.0,1.3615035449984134,10,0,0.8519596728981171,1,2021-01-15 02:25:26.804168
0,53,0,1,0,0,0.0,1.130532310999115,11,0,0.8519596728981171,1,2021-01-15 02:25:26.804168
0,53,0,1,0,0,0.0,1.23402571099723,10,0,0.8519596728981171,1,2021-01-15 02:25:26.804168
0,53,0,0,0,0,0.0,1.3176233379999758,10,0,0.8519596728981171,1,2021-01-15 02:25:26.804168
0,53,0,1,0,0,0.0,1.1087726519981516,10,0,0.8519596728981171,1,2021-01-15 02:25:26.804168
0,53,0,1,0,0,0.0,1.1686967479981831,11,0,0.8519596728981171,1,2021-01-15 02:25:26.804168
0,53,0,1,0,0,0.0,1.05138973800058,9,2,0.7723936266179917,1,2021-01-15 02:26:03.000905
0,53,0,0,0,0,0.0,1.2475845959997969,9,1,0.7723936266179917,1,2021-01-15 02:26:03.000905
2,53,0,0,0,0,0.0,1.136461109002994,11,0,0.7723936266179917,1,2021-01-15 02:26:03.000905
0,53,0,1,0,0,0.0,1.116403017003904,11,0,0.7723936266179917,1,2021-01-15 02:26:03.000905
0,53,0,1,0,0,0.0,1.248454711996601,10,1,0.7723936266179917,1,2021-01-15 02:26:03.000905
0,53,0,0,0,0,0.0,1.2735175479974714,8,2,0.7723936266179917,1,2021-01-15 02:26:03.000905
0,53,0,1,0,0,0.0,1.0676641359968926,7,3,0.7723936266179917,1,2021-01-15 02:26:03.000905
1,53,0,0,0,0,0.0,1.5058614340014174,8,2,0.7723936266179917,1,2021-01-15 02:26:03.000905
1,53,0,1,0,0,0.0,1.0705305360024795,8,2,0.7723936266179917,1,2021-01-15 02:26:03.000905
1,53,0,0,0,0,0.0,1.2630096050052089,10,1,0.7723936266179917,1,2021-01-15 02:26:03.000905
1,53,0,0,0,0,0.0,1.2897564450031496,10,1,0.7723936266179917,1,2021-01-15 02:26:03.000905
1,53,0,1,0,0,0.0,1.4563240370043786,10,1,0.7723936266179917,1,2021-01-15 02:26:03.000905
1,53,0,0,0,0,0.0,1.3787741549967905,10,0,0.7723936266179917,1,2021-01-15 02:26:03.000905
0,53,0,1,0,0,0.0,1.301239070999145,11,0,0.7723936266179917,1,2021-01-15 02:26:03.000905
0,53,0,1,0,0,0.0,1.1578018430009251,9,2,0.7723936266179917,1,2021-01-15 02:26:03.000905
0,53,0,1,0,0,0.0,1.2191545449968544,10,1,0.7723936266179917,1,2021-01-15 02:26:03.000905
0,53,0,0,0,0,0.0,1.262111839998397,10,0,0.7723936266179917,1,2021-01-15 02:26:03.000905
0,53,0,1,0,0,0.0,1.0873775450018002,10,1,0.7723936266179917,1,2021-01-15 02:26:03.000905
0,53,0,0,0,0,0.0,1.201984346997051,11,0,0.7723936266179917,1,2021-01-15 02:26:03.000905
0,53,0,0,0,0,0.0,1.397400697998819,10,0,0.7723936266179917,1,2021-01-15 02:26:03.000905
0,53,0,1,0,0,0.0,1.2545338150011958,10,1,0.7723936266179917,1,2021-01-15 02:26:03.000905
0,53,0,1,0,0,0.0,1.2258588309996412,11,0,0.7723936266179917,1,2021-01-15 02:26:03.000905
0,53,0,0,0,0,0.0,1.253263007994974,10,1,2.8167840081260307,1,2021-01-15 02:26:39.365941
0,53,0,0,0,0,0.0,1.138963015000627,11,0,2.8167840081260307,1,2021-01-15 02:26:39.365941
0,53,0,1,0,0,0.0,1.1382755340018775,8,2,2.8167840081260307,1,2021-01-15 02:26:39.365941
0,53,0,0,0,0,0.0,1.1796323070011567,10,1,2.8167840081260307,1,2021-01-15 02:26:39.365941
0,53,0,0,0,0,0.0,1.5089231700039818,11,0,2.8167840081260307,1,2021-01-15 02:26:39.365941
0,53,0,1,0,0,0.0,1.0214923970052041,9,1,2.8167840081260307,1,2021-01-15 02:26:39.365941
0,53,0,0,0,0,0.0,1.3841821669993806,11,0,2.8167840081260307,1,2021-01-15 02:26:39.365941
0,53,0,1,0,0,0.0,1.1218182500015246,7,2,2.8167840081260307,1,2021-01-15 02:26:39.365941
1,53,0,1,0,0,0.0,1.075859008997213,9,1,2.8167840081260307,1,2021-01-15 02:26:39.365941
1,53,0,0,0,0,0.0,1.2732423759953235,10,0,2.8167840081260307,1,2021-01-15 02:26:39.365941
0,53,0,0,0,0,0.0,1.158354491002683,9,0,2.8167840081260307,1,2021-01-15 02:26:39.365941
0,53,0,0,0,0,0.0,1.3284707860002527,11,0,2.8167840081260307,1,2021-01-15 02:26:39.365941
0,53,0,1,0,0,0.0,1.1563809490035055,11,0,2.8167840081260307,1,2021-01-15 02:26:39.365941
0,53,0,1,0,0,0.0,1.2260154070027056,10,1,2.8167840081260307,1,2021-01-15 02:26:39.365941
1,53,0,0,0,0,0.0,1.2257906340018963,11,0,2.8167840081260307,1,2021-01-15 02:26:39.365941
0,53,0,0,0,0,0.0,1.267272992998187,9,1,2.8167840081260307,1,2021-01-15 02:26:39.365941
0,53,0,1,0,0,0.0,1.2428773489955347,10,0,2.8167840081260307,1,2021-01-15 02:26:39.365941
0,53,0,1,0,0,0.0,1.2348975319982856,9,0,2.8167840081260307,1,2021-01-15 02:26:39.365941
0,53,0,0,0,0,0.0,1.7013381409997237,11,1,0.08882161680929662,1,2021-01-15 02:27:17.681583
1,53,0,1,0,0,0.0,0.9749731799965957,11,0,0.08882161680929662,1,2021-01-15 02:27:17.681583
0,53,0,1,0,0,0.0,0.9895550689980155,11,1,0.08882161680929662,1,2021-01-15 02:27:17.681583
0,53,0,1,0,0,0.0,1.082711973998812,12,0,0.08882161680929662,1,2021-01-15 02:27:17.681583
0,53,0,1,0,0,0.0,1.0585950059976312,11,1,0.08882161680929662,1,2021-01-15 02:27:17.681583
0,53,0,0,0,0,0.0,1.096686105003755,12,0,0.08882161680929662,1,2021-01-15 02:27:17.681583
0,53,0,1,0,0,0.0,1.0764080399967497,11,1,0.08882161680929662,1,2021-01-15 02:27:17.681583
0,53,0,0,0,0,0.0,1.210892104994855,12,0,0.08882161680929662,1,2021-01-15 02:27:17.681583
0,53,0,0,0,0,0.0,1.2341051519979374,9,1,0.08882161680929662,1,2021-01-15 02:27:17.681583
0,53,0,1,0,0,0.0,1.1877850200035027,12,0,0.08882161680929662,1,2021-01-15 02:27:17.681583
0,53,0,1,0,0,0.0,1.1773817450011848,12,0,0.08882161680929662,1,2021-01-15 02:27:17.681583
0,53,0,1,0,0,0.0,1.0747194810028304,12,0,0.08882161680929662,1,2021-01-15 02:27:17.681583
0,53,0,0,0,0,0.0,1.1729511820012704,10,1,0.08882161680929662,1,2021-01-15 02:27:17.681583
0,53,0,0,0,0,0.0,1.345751394997933,12,0,0.08882161680929662,1,2021-01-15 02:27:17.681583
0,53,0,1,0,0,0.0,1.1012068330019247,11,1,0.08882161680929662,1,2021-01-15 02:27:17.681583
0,53,0,1,0,0,0.0,1.2324385100000654,11,0,0.08882161680929662,1,2021-01-15 02:27:17.681583
0,53,0,1,0,0,0.0,1.2569687750001322,10,1,0.08882161680929662,1,2021-01-15 02:27:17.681583
0,53,0,0,0,0,0.0,1.1166750120028155,11,1,0.08882161680929662,1,2021-01-15 02:27:17.681583
1,53,0,0,0,0,0.0,1.9561416229989845,11,1,0.08882161680929662,1,2021-01-15 02:27:17.681583
1,53,0,1,0,0,0.0,1.2126968709999346,11,0,0.08882161680929662,1,2021-01-15 02:27:17.681583
0,53,0,1,0,0,0.0,1.028538425998704,12,0,0.08882161680929662,1,2021-01-15 02:27:17.681583
0,53,0,0,0,0,0.0,1.3528560800041305,9,2,0.08882161680929662,1,2021-01-15 02:27:17.681583
1,54,0,1,0,0,0.0,1.1394350750051672,11,1,0.08882161680929662,1,2021-01-15 02:27:17.681583
1,53,0,0,0,0,0.0,1.3149008799955482,12,0,0.08882161680929662,1,2021-01-15 02:27:17.681583
0,53,0,1,0,0,0.0,1.0761522079992574,12,0,0.4431761654936068,1,2021-01-15 02:27:53.726454
0,53,0,1,0,0,0.0,1.0644801430025836,11,0,0.4431761654936068,1,2021-01-15 02:27:53.726454
0,53,0,1,0,0,0.0,1.071146279995446,11,1,0.4431761654936068,1,2021-01-15 02:27:53.726454
1,53,0,1,0,0,0.0,1.053922434002743,10,0,0.4431761654936068,1,2021-01-15 02:27:53.726454
0,53,0,0,0,0,0.0,1.2370124779990874,12,0,0.4431761654936068,1,2021-01-15 02:27:53.726454
0,53,0,0,0,0,0.0,1.4589498349960195,12,0,0.4431761654936068,1,2021-01-15 02:27:53.726454
0,53,0,0,0,0,0.0,1.4176646299965796,12,0,0.4431761654936068,1,2021-01-15 02:27:53.726454
0,53,0,1,0,0,0.0,1.1438809179962846,11,1,0.4431761654936068,1,2021-01-15 02:27:53.726454
0,53,0,1,0,0,0.0,1.1171317199987243,12,0,0.4431761654936068,1,2021-01-15 02:27:53.726454
0,53,0,1,0,0,0.0,1.143892219006375,10,2,0.4431761654936068,1,2021-01-15 02:27:53.726454
0,53,0,0,0,0,0.0,1.2780054890026804,10,1,0.4431761654936068,1,2021-01-15 02:27:53.726454
2,53,0,1,0,0,0.0,1.130414605999249,11,0,0.4431761654936068,1,2021-01-15 02:27:53.726454
0,53,0,0,0,0,0.0,1.4706875769988983,11,1,0.4431761654936068,1,2021-01-15 02:27:53.726454
1,53,0,1,0,0,0.0,1.1421084870016784,12,0,0.4431761654936068,1,2021-01-15 02:27:53.726454
0,53,0,1,0,0,0.0,1.1077880789962364,10,2,5.018096509091575,1,2021-01-15 02:28:29.740176
0,53,0,1,0,0,0.0,1.167724276005174,9,1,5.018096509091575,1,2021-01-15 02:28:29.740176
0,53,0,1,0,0,0.0,1.7444858960006968,12,0,5.018096509091575,1,2021-01-15 02:28:29.740176
0,53,0,0,0,0,0.0,1.5262277259971597,10,2,5.018096509091575,1,2021-01-15 02:28:29.740176
1,53,0,0,0,0,0.0,1.305569595999259,11,1,5.018096509091575,1,2021-01-15 02:28:29.740176
1,53,0,0,0,0,0.0,1.3560127689997898,12,0,5.018096509091575,1,2021-01-15 02:28:29.740176
0,53,0,0,0,0,0.0,1.1017331089969957,11,1,5.018096509091575,1,2021-01-15 02:28:29.740176
1,53,0,0,0,0,0.0,1.1240606720020878,12,0,5.018096509091575,1,2021-01-15 02:28:29.740176
0,53,0,0,0,0,0.0,1.1833327610002016,12,0,5.018096509091575,1,2021-01-15 02:28:29.740176
0,53,0,1,0,0,0.0,1.0619829089991981,10,2,5.018096509091575,1,2021-01-15 02:28:29.740176
0,53,0,1,0,0,0.0,1.0534819620006601,10,1,5.018096509091575,1,2021-01-15 02:28:29.740176
0,53,0,0,0,0,0.0,1.1332783430043492,9,0,5.018096509091575,1,2021-01-15 02:28:29.740176
0,53,0,1,0,0,0.0,1.1158619439956965,12,0,5.018096509091575,1,2021-01-15 02:28:29.740176
0,53,0,1,0,0,0.0,1.0106342979997862,11,1,5.018096509091575,1,2021-01-15 02:28:29.740176
0,53,0,0,0,0,0.0,1.2816923720019986,11,0,5.018096509091575,1,2021-01-15 02:28:29.740176
0,53,0,1,0,0,0.0,1.0704046620012377,11,1,5.018096509091575,1,2021-01-15 02:28:29.740176
0,53,0,0,0,0,0.0,1.2061523930024123,12,0,5.018096509091575,1,2021-01-15 02:28:29.740176
0,53,0,0,0,0,0.0,1.1748428259961656,9,2,5.018096509091575,1,2021-01-15 02:28:29.740176
0,53,0,1,0,0,0.0,1.2061279429981369,8,3,5.018096509091575,1,2021-01-15 02:28:29.740176
0,53,0,0,0,0,0.0,1.2153167350043077,8,2,5.018096509091575,1,2021-01-15 02:28:29.740176
2,53,0,0,0,0,0.0,1.1578723959974013,11,1,5.018096509091575,1,2021-01-15 02:28:29.740176
0,53,0,0,0,0,0.0,1.199311463002232,12,0,5.018096509091575,1,2021-01-15 02:28:29.740176
0,53,0,0,0,0,0.0,1.294489480998891,10,1,5.018096509091575,1,2021-01-15 02:28:29.740176
0,53,0,0,0,0,0.0,1.192193695998867,9,2,5.018096509091575,1,2021-01-15 02:28:29.740176
1,53,0,1,0,0,0.0,1.156394919999002,11,1,5.018096509091575,1,2021-01-15 02:28:29.740176
1,53,0,1,0,0,0.0,1.1564029020009912,11,0,5.018096509091575,1,2021-01-15 02:28:29.740176
0,52,0,1,0,0,0.0,1.6280137639987515,12,0,0.10821264721063562,1,2021-01-15 02:29:10.361049
0,53,0,0,0,0,0.0,1.1445668339947588,12,0,0.10821264721063562,1,2021-01-15 02:29:10.361049
0,53,0,0,0,0,0.0,1.7674061180005083,12,0,0.10821264721063562,1,2021-01-15 02:29:10.361049
0,53,0,1,0,0,0.0,1.094554605006124,12,0,0.10821264721063562,1,2021-01-15 02:29:10.361049
0,53,0,1,0,0,0.0,1.1312280089987325,10,1,0.10821264721063562,1,2021-01-15 02:29:10.361049
0,53,0,1,0,0,0.0,1.6410338380010216,11,0,0.10821264721063562,1,2021-01-15 02:29:10.361049
0,53,0,0,0,0,0.0,1.2588272759967367,10,0,0.10821264721063562,1,2021-01-15 02:29:10.361049
0,53,0,1,0,0,0.0,1.269966829000623,11,1,0.10821264721063562,1,2021-01-15 02:29:10.361049
1,53,0,1,0,0,0.0,1.1663683100050548,11,1,0.10821264721063562,1,2021-01-15 02:29:10.361049
1,53,0,1,0,0,0.0,1.2376738989987643,12,0,0.10821264721063562,1,2021-01-15 02:29:10.361049
0,53,0,0,0,0,0.0,1.3645094809980947,11,1,0.10821264721063562,1,2021-01-15 02:29:10.361049
1,53,0,0,0,0,0.0,1.215443259003223,10,0,0.10821264721063562,1,2021-01-15 02:29:10.361049
0,53,0,1,0,0,0.0,1.1711996840022039,12,0,0.10821264721063562,1,2021-01-15 02:29:10.361049
0,53,0,1,0,0,0.0,1.1813184679995175,10,0,0.10821264721063562,1,2021-01-15 02:29:10.361049
0,53,0,1,0,0,0.0,1.178014422999695,12,0,0.5794356138863371,1,2021-01-15 02:29:47.781487
0,53,0,1,0,0,0.0,1.0980498290009564,12,0,0.5794356138863371,1,2021-01-15 02:29:47.781487
0,53,0,0,0,0,0.0,1.2048322400005418,11,1,0.5794356138863371,1,2021-01-15 02:29:47.781487
1,53,0,0,0,0,0.0,1.2273687490014709,11,1,0.5794356138863371,1,2021-01-15 02:29:47.781487
3,53,0,0,0,0,0.0,1.2284974309950485,12,0,0.5794356138863371,1,2021-01-15 02:29:47.781487
0,53,0,0,0,0,0.0,1.1233482270035893,11,1,0.5794356138863371,1,2021-01-15 02:29:47.781487
1,53,0,1,0,0,0.0,1.1517504429939436,11,0,0.5794356138863371,1,2021-01-15 02:29:47.781487
0,53,0,1,0,0,0.0,1.3096495770005276,12,0,0.5794356138863371,1,2021-01-15 02:29:47.781487
0,53,0,1,0,0,0.0,1.0500187459983863,7,4,0.5794356138863371,1,2021-01-15 02:29:47.781487
0,53,0,0,0,0,0.0,1.1310994800005574,7,3,0.5794356138863371,1,2021-01-15 02:29:47.781487
0,53,0,1,0,0,0.0,1.1358855059952475,10,2,0.5794356138863371,1,2021-01-15 02:29:47.781487
0,53,0,1,0,0,0.0,1.2314250400013407,9,3,0.5794356138863371,1,2021-01-15 02:29:47.781487
0,53,0,0,0,0,0.0,1.3345069420029176,10,2,0.5794356138863371,1,2021-01-15 02:29:47.781487
1,53,0,1,0,0,0.0,1.0379849829987506,9,2,0.5794356138863371,1,2021-01-15 02:29:47.781487
1,53,0,1,0,0,0.0,1.091079762998561,9,1,0.5794356138863371,1,2021-01-15 02:29:47.781487
2,53,0,0,0,0,0.0,1.2646944469961454,11,1,0.5794356138863371,1,2021-01-15 02:29:47.781487
0,53,0,1,0,0,0.0,1.095874234000803,11,1,0.5794356138863371,1,2021-01-15 02:29:47.781487
0,53,0,1,0,0,0.0,1.1482510770001682,10,0,0.5794356138863371,1,2021-01-15 02:29:47.781487
0,53,0,0,0,0,0.0,1.27971586700005,12,0,0.5794356138863371,1,2021-01-15 02:29:47.781487
0,53,0,1,0,0,0.0,1.1620991320014582,11,1,0.5794356138863371,1,2021-01-15 02:29:47.781487
0,53,0,0,0,0,0.0,1.2850351329980185,12,0,0.5794356138863371,1,2021-01-15 02:29:47.781487
0,53,0,0,0,0,0.0,1.471624393001548,11,0,0.5794356138863371,1,2021-01-15 02:29:47.781487
0,53,0,1,0,0,0.0,1.0174523620007676,9,3,0.7744299692897969,1,2021-01-15 02:30:23.586006
0,53,0,1,0,0,0.0,1.1605740369996056,9,2,0.7744299692897969,1,2021-01-15 02:30:23.586006
0,53,0,1,0,0,0.0,1.065150549999089,9,1,0.7744299692897969,1,2021-01-15 02:30:23.586006
0,53,0,1,0,0,0.0,1.107971320998331,12,0,0.7744299692897969,1,2021-01-15 02:30:23.586006
0,53,0,0,0,0,0.0,1.417334005003795,12,0,0.7744299692897969,1,2021-01-15 02:30:23.586006
0,53,0,0,0,0,0.0,1.1595202219978091,11,1,0.7744299692897969,1,2021-01-15 02:30:23.586006
0,53,0,1,0,0,0.0,1.1195892519972404,10,1,0.7744299692897969,1,2021-01-15 02:30:23.586006
8,53,0,1,0,0,0.0,1.2265488990015,10,0,0.7744299692897969,1,2021-01-15 02:30:23.586006
0,53,0,1,0,0,0.0,1.186164593003923,11,0,0.7744299692897969,1,2021-01-15 02:30:23.586006
0,53,0,1,0,0,0.0,1.158862226002384,12,0,0.7744299692897969,1,2021-01-15 02:30:23.586006
0,53,0,1,0,0,0.0,1.2493007099983515,10,0,0.7744299692897969,1,2021-01-15 02:30:23.586006
0,53,0,1,0,0,0.0,1.018262201003381,10,2,0.7744299692897969,1,2021-01-15 02:30:23.586006
0,53,0,1,0,0,0.0,1.124522378006077,10,2,0.7744299692897969,1,2021-01-15 02:30:23.586006
1,53,0,0,0,0,0.0,1.1989578390057432,10,1,0.7744299692897969,1,2021-01-15 02:30:23.586006
0,53,0,1,0,0,0.0,1.2237872559999232,12,0,0.7744299692897969,1,2021-01-15 02:30:23.586006
0,53,0,0,0,0,0.0,1.2647560519981198,12,0,0.7744299692897969,1,2021-01-15 02:30:23.586006
0,53,0,0,0,0,0.0,1.3029027179945842,12,0,0.7744299692897969,1,2021-01-15 02:30:23.586006
0,53,0,1,0,0,0.0,1.2712099149939604,5,0,0.7744299692897969,1,2021-01-15 02:30:23.586006
0,53,0,0,0,0,0.0,1.290425769999274,11,1,0.5856409156094643,1,2021-01-15 02:30:59.854029
0,53,0,0,0,0,0.0,1.4754533339946647,13,0,0.5856409156094643,1,2021-01-15 02:30:59.854029
0,53,0,1,0,0,0.0,1.0557693529990502,13,0,0.5856409156094643,1,2021-01-15 02:30:59.854029
0,53,0,1,0,0,0.0,1.1942736309938482,12,1,0.5856409156094643,1,2021-01-15 02:30:59.854029
1,53,0,1,0,0,0.0,1.11115284999687,13,0,0.5856409156094643,1,2021-01-15 02:30:59.854029
0,53,0,1,0,0,0.0,0.9643056960048852,11,2,0.5856409156094643,1,2021-01-15 02:30:59.854029
0,53,0,1,0,0,0.0,1.0894788479999988,12,1,0.5856409156094643,1,2021-01-15 02:30:59.854029
0,53,0,0,0,0,0.0,1.0761481699955766,12,0,0.5856409156094643,1,2021-01-15 02:30:59.854029
0,53,0,1,0,0,0.0,1.1880711220001103,12,1,0.5856409156094643,1,2021-01-15 02:30:59.854029
1,53,0,0,0,0,0.0,1.0571954429979087,13,0,0.5856409156094643,1,2021-01-15 02:30:59.854029
0,53,0,1,0,0,0.0,1.323865587997716,12,1,0.5856409156094643,1,2021-01-15 02:30:59.854029
0,53,0,1,0,0,0.0,1.0723773509962484,10,2,0.5856409156094643,1,2021-01-15 02:30:59.854029
0,53,0,1,0,0,0.0,1.1727491250057938,11,1,0.5856409156094643,1,2021-01-15 02:30:59.854029
0,53,0,0,0,0,0.0,1.2309875559949432,13,0,0.5856409156094643,1,2021-01-15 02:30:59.854029
0,53,0,1,0,0,0.0,1.1886521990018082,11,1,0.5856409156094643,1,2021-01-15 02:30:59.854029
0,53,0,1,0,0,0.0,1.121231639997859,11,1,0.5856409156094643,1,2021-01-15 02:30:59.854029
0,53,0,1,0,0,0.0,1.1407502290021512,13,0,0.5856409156094643,1,2021-01-15 02:30:59.854029
0,53,0,1,0,0,0.0,1.1281247489969246,12,1,0.5856409156094643,1,2021-01-15 02:30:59.854029
0,53,0,0,0,0,0.0,1.2781398399965838,13,0,0.5856409156094643,1,2021-01-15 02:30:59.854029
0,53,0,1,0,0,0.0,1.2017539129956276,12,0,0.5856409156094643,1,2021-01-15 02:30:59.854029
0,52,0,0,0,0,0.0,1.334840144001646,13,0,1.1622156349928372,1,2021-01-15 02:31:35.064113
0,53,0,1,0,0,0.0,1.036544540002069,12,0,1.1622156349928372,1,2021-01-15 02:31:35.064113
0,53,0,0,0,0,0.0,1.3647293009998975,12,1,1.1622156349928372,1,2021-01-15 02:31:35.064113
0,53,0,0,0,0,0.0,1.2860976649972145,11,1,1.1622156349928372,1,2021-01-15 02:31:35.064113
1,53,0,0,0,0,0.0,1.1661175039989757,10,1,1.1622156349928372,1,2021-01-15 02:31:35.064113
1,53,0,0,0,0,0.0,1.3116541620038333,11,1,1.1622156349928372,1,2021-01-15 02:31:35.064113
1,53,0,1,0,0,0.0,1.1623612100011087,12,0,1.1622156349928372,1,2021-01-15 02:31:35.064113
0,53,0,1,0,0,0.0,1.0726250299994717,10,1,1.1622156349928372,1,2021-01-15 02:31:35.064113
0,53,0,0,0,0,0.0,1.4209613259954494,13,0,1.1622156349928372,1,2021-01-15 02:31:35.064113
0,53,0,0,0,0,0.0,1.2952207720009028,13,0,1.1622156349928372,1,2021-01-15 02:31:35.064113
0,53,0,1,0,0,0.0,1.0374708449962782,11,0,1.1622156349928372,1,2021-01-15 02:31:35.064113
0,53,0,0,0,0,0.0,1.3353290140003082,11,1,1.1622156349928372,1,2021-01-15 02:31:35.064113
1,53,0,0,0,0,0.0,1.3610829700046452,11,1,1.1622156349928372,1,2021-01-15 02:31:35.064113
1,53,0,0,0,0,0.0,1.3836184470055741,7,0,1.1622156349928372,1,2021-01-15 02:31:35.064113
0,52,0,0,0,0,0.0,1.1020296010028687,12,1,0.7034029403990443,1,2021-01-15 02:32:11.292597
8,53,0,0,0,0,0.0,1.2926789820048725,12,0,0.7034029403990443,1,2021-01-15 02:32:11.292597
0,53,0,0,0,0,0.0,1.2684522760027903,13,0,0.7034029403990443,1,2021-01-15 02:32:11.292597
0,53,0,1,0,0,0.0,0.9457821280011558,11,2,0.7034029403990443,1,2021-01-15 02:32:11.292597
0,53,0,0,0,0,0.0,1.259429983998416,9,1,0.7034029403990443,1,2021-01-15 02:32:11.292597
1,53,0,0,0,0,0.0,1.3408766349966754,11,0,0.7034029403990443,1,2021-01-15 02:32:11.292597
0,53,0,0,0,0,0.0,1.1929768650006736,10,1,0.7034029403990443,1,2021-01-15 02:32:11.292597
0,53,0,1,0,0,0.0,1.0568509039949276,13,0,0.7034029403990443,1,2021-01-15 02:32:11.292597
0,53,0,1,0,0,0.0,1.1195349729969166,12,1,0.7034029403990443,1,2021-01-15 02:32:11.292597
0,53,0,0,0,0,0.0,1.234814704002929,11,1,0.7034029403990443,1,2021-01-15 02:32:11.292597
1,53,0,1,0,0,0.0,1.093064045002393,12,1,0.7034029403990443,1,2021-01-15 02:32:11.292597
1,53,0,1,0,0,0.0,0.9748125100013567,13,0,0.7034029403990443,1,2021-01-15 02:32:11.292597
0,53,0,0,0,0,0.0,1.2234849489977933,10,2,0.7034029403990443,1,2021-01-15 02:32:11.292597
1,53,0,1,0,0,0.0,1.0779192899935879,12,1,0.7034029403990443,1,2021-01-15 02:32:11.292597
1,53,0,0,0,0,0.0,1.2457206750041223,13,0,0.7034029403990443,1,2021-01-15 02:32:11.292597
0,53,0,0,0,0,0.0,1.5649971489983727,13,0,0.7034029403990443,1,2021-01-15 02:32:11.292597
0,53,0,0,0,0,0.0,1.2489027709962102,13,0,0.7034029403990443,1,2021-01-15 02:32:11.292597
0,53,0,0,0,0,0.0,1.4039558730000863,13,0,0.7034029403990443,1,2021-01-15 02:32:11.292597
0,53,0,0,0,0,0.0,1.2588526090039522,13,0,0.7034029403990443,1,2021-01-15 02:32:11.292597
0,53,0,0,0,0,0.0,1.2797753699996974,13,0,0.11392574335958626,1,2021-01-15 02:32:46.844417
0,53,0,0,0,0,0.0,1.4002953230010462,13,0,0.11392574335958626,1,2021-01-15 02:32:46.844417
0,53,0,0,0,0,0.0,1.3449355740012834,12,1,0.11392574335958626,1,2021-01-15 02:32:46.844417
9,53,0,1,0,0,0.0,1.0597972300020047,13,0,0.11392574335958626,1,2021-01-15 02:32:46.844417
0,53,0,1,0,0,0.0,1.0656942590067047,13,0,0.11392574335958626,1,2021-01-15 02:32:46.844417
0,53,0,1,0,0,0.0,1.0383555570006138,13,0,0.11392574335958626,1,2021-01-15 02:32:46.844417
0,53,0,1,0,0,0.0,1.155368362000445,12,0,0.11392574335958626,1,2021-01-15 02:32:46.844417
0,53,0,0,0,0,0.0,1.1545661319978535,13,0,0.11392574335958626,1,2021-01-15 02:32:46.844417
0,53,0,1,0,0,0.0,1.0776494730016566,12,1,0.11392574335958626,1,2021-01-15 02:32:46.844417
0,53,0,0,0,0,0.0,1.2100017959965044,13,0,0.11392574335958626,1,2021-01-15 02:32:46.844417
0,53,0,0,0,0,0.0,1.1942057829946862,12,1,0.11392574335958626,1,2021-01-15 02:32:46.844417
0,53,0,1,0,0,0.0,1.2417500909941737,11,0,0.11392574335958626,1,2021-01-15 02:32:46.844417
0,53,0,0,0,0,0.0,1.267776713000785,12,1,0.11392574335958626,1,2021-01-15 02:32:46.844417
0,53,0,0,0,0,0.0,1.3737374329939485,13,0,0.11392574335958626,1,2021-01-15 02:32:46.844417
0,53,0,0,0,0,0.0,1.192556470996351,12,1,4.032177541067932,1,2021-01-15 02:33:22.250971
0,53,0,0,0,0,0.0,1.2627974429997266,13,0,4.032177541067932,1,2021-01-15 02:33:22.250971
0,53,0,1,0,0,0.0,1.1859760209990782,12,1,4.032177541067932,1,2021-01-15 02:33:22.250971
6,53,0,0,0,0,0.0,1.1473251979987253,13,0,4.032177541067932,1,2021-01-15 02:33:22.250971
0,53,0,1,0,0,0.0,1.119921951998549,13,0,4.032177541067932,1,2021-01-15 02:33:22.250971
0,53,0,1,0,0,0.0,1.1672070559943677,13,0,4.032177541067932,1,2021-01-15 02:33:22.250971
0,53,0,0,0,0,0.0,1.2200785969980643,12,0,4.032177541067932,1,2021-01-15 02:33:22.250971
0,53,0,1,0,0,0.0,1.0144518689994584,13,0,4.032177541067932,1,2021-01-15 02:33:22.250971
0,53,0,1,0,0,0.0,1.2758723570004804,12,1,4.032177541067932,1,2021-01-15 02:33:22.250971
0,53,0,0,0,0,0.0,1.3940881779999472,13,0,4.032177541067932,1,2021-01-15 02:33:22.250971
0,53,0,1,0,0,0.0,1.8831517150028958,13,0,4.032177541067932,1,2021-01-15 02:33:22.250971
0,52,0,0,0,0,0.0,1.2909713439948973,13,0,0.5361111766851768,1,2021-01-15 02:34:02.253243
0,53,0,1,0,0,0.0,1.1321407630020985,13,0,0.5361111766851768,1,2021-01-15 02:34:02.253243
0,53,0,1,0,0,0.0,0.9744799610052723,12,0,0.5361111766851768,1,2021-01-15 02:34:02.253243
0,53,0,0,0,0,0.0,1.130863844002306,12,0,0.5361111766851768,1,2021-01-15 02:34:02.253243
0,53,0,0,0,0,0.0,1.2975408970014541,13,0,0.5361111766851768,1,2021-01-15 02:34:02.253243
0,53,0,1,0,0,0.0,1.1054238609940512,13,0,0.5361111766851768,1,2021-01-15 02:34:02.253243
0,53,0,1,0,0,0.0,1.096588550004526,11,2,0.5361111766851768,1,2021-01-15 02:34:02.253243
0,53,0,0,0,0,0.0,1.2171228969964432,12,1,0.5361111766851768,1,2021-01-15 02:34:02.253243
2,53,0,0,0,0,0.0,1.2457424919994082,13,0,0.5361111766851768,1,2021-01-15 02:34:02.253243
0,53,0,0,0,0,0.0,1.1704813210017164,11,2,0.5361111766851768,1,2021-01-15 02:34:02.253243
0,53,0,1,0,0,0.0,1.0496038700002828,12,1,0.5361111766851768,1,2021-01-15 02:34:02.253243
1,53,0,1,0,0,0.0,1.2109927860001335,13,0,0.5361111766851768,1,2021-01-15 02:34:02.253243
0,53,0,0,0,0,0.0,1.1392918970013852,11,1,0.5361111766851768,1,2021-01-15 02:34:02.253243
0,53,0,1,0,0,0.0,1.517226481999387,13,0,0.5361111766851768,1,2021-01-15 02:34:02.253243
0,53,0,0,0,0,0.0,1.3877071030001389,12,1,0.5361111766851768,1,2021-01-15 02:34:02.253243
0,53,0,1,0,0,0.0,1.6980651470003068,13,0,0.5361111766851768,1,2021-01-15 02:34:02.253243
0,53,0,1,0,0,0.0,1.3559027800001786,12,1,0.5361111766851768,1,2021-01-15 02:34:02.253243
1,53,0,0,0,0,0.0,1.4800586249984917,13,0,0.5361111766851768,1,2021-01-15 02:34:02.253243
