0,50,0,0,0,0,0.0,1.4896462159231305,7,0,0.05153685513366915,1,2021-06-20 11:32:05.572327
0,50,0,0,0,0,0.0,1.540657282806933,10,0,0.019572645594862173,1,2021-06-20 12:01:22.538201
0,50,0,0,0,0,0.0,1.8677360247820616,10,0,0.18136758820959195,1,2021-06-20 12:12:40.281023
0,50,0,0,0,0,0.0,1.666256313212216,11,0,0.2633644097300096,1,2021-06-20 12:32:34.862306
0,51,0,1,0,0,0.0,1.585354552604258,13,0,0.2633644097300096,1,2021-06-20 12:32:34.862306
0,50,0,1,0,0,0.0,1.5742518473416567,9,0,0.1459790264235274,1,2021-06-20 12:49:27.940033
0,50,0,0,0,0,0.0,1.6102063246071339,1,0,0.2056019654773667,1,2021-06-20 13:01:28.409789
0,50,0,1,0,0,0.0,1.5235174484550953,9,0,0.10798454871850793,1,2021-06-20 13:45:45.997054
0,51,0,1,0,0,0.0,1.4401940749958158,10,0,0.10798454871850793,1,2021-06-20 13:45:45.997054
0,50,0,0,0,0,0.0,1.8306720023974776,9,1,0.037095966452365826,1,2021-06-20 13:47:43.975609
0,50,0,0,0,0,0.0,1.9211705764755607,8,0,0.037095966452365826,1,2021-06-20 13:47:43.975609
