#g++ -o try5 main.cpp common.h database.hpp setup.hpp heterogenous_container.hpp connector.h -Wdelete-incomplete -O3 -fpermissive -fopenmp -std=c++17 -Wall
#g++ -shared -o libConnect.so -fPIC connector.cpp main.cpp common.h database.hpp setup.hpp -std=c++17
g++ -shared -o libConnect.so -fPIC main.cpp common.h database.hpp setup.hpp heterogenous_container.hpp connector.cpp -Wdelete-incomplete -O3 -fpermissive -fopenmp -std=c++17 
In file included from setup.hpp:4:0,
                 from main.cpp:11:
database.hpp: In constructor ‘dataBase::dataBase(std::pair<std::__cxx11::basic_string<char>, std::__cxx11::basic_string<char> >*, int)’:
database.hpp:130:32: error: ‘NO_BLOCK_GROUPS’ was not declared in this scope
     for(int i = 0; i < col_num*NO_BLOCK_GROUPS; i++){
                                ^~~~~~~~~~~~~~~
database.hpp:130:32: note: suggested alternative: ‘NO_BLOCKS’
     for(int i = 0; i < col_num*NO_BLOCK_GROUPS; i++){
                                ^~~~~~~~~~~~~~~
                                NO_BLOCKS
database.hpp: In constructor ‘dataBase::dataBase(char**, char**, int, int)’:
database.hpp:174:35: error: request for member ‘c_str’ in ‘*(col_types + ((sizetype)(((long unsigned int)(i % col_num)) * 8)))’, which is of non-class type ‘char*’
       type = col_types[i%col_num].c_str();
                                   ^~~~~
database.hpp: In function ‘void db::declare_dB(char**, char**, int)’:
database.hpp:215:61: error: no matching function for call to ‘dataBase::dataBase(char**&, char**&, int&)’
     dataBase dB = new dataBase(col_types, col_names, col_num);
                                                             ^
database.hpp:168:3: note: candidate: dataBase::dataBase(char**, char**, int, int)
   dataBase(char** col_types, char** col_names, int col_num, int NO_BLOCK_GROUPS)
   ^~~~~~~~
database.hpp:168:3: note:   candidate expects 4 arguments, 3 provided
database.hpp:125:3: note: candidate: dataBase::dataBase(std::pair<std::__cxx11::basic_string<char>, std::__cxx11::basic_string<char> >*, int)
   dataBase(type_num_col* type_indexes, int col_num)
   ^~~~~~~~
database.hpp:125:3: note:   candidate expects 2 arguments, 3 provided
database.hpp:122:8: note: candidate: constexpr dataBase::dataBase(const dataBase&)
 struct dataBase{
        ^~~~~~~~
database.hpp:122:8: note:   candidate expects 1 argument, 3 provided
database.hpp:122:8: note: candidate: constexpr dataBase::dataBase(dataBase&&)
database.hpp:122:8: note:   candidate expects 1 argument, 3 provided
In file included from main.cpp:11:0:
setup.hpp: In function ‘char* returnQ_S(char*)’:
setup.hpp:374:13: warning: ISO C++ forbids converting a string constant to ‘char*’ [-Wwrite-strings]
   char* q = "Hi there you Python";
             ^~~~~~~~~~~~~~~~~~~~~
main.cpp: In function ‘void initiate()’:
main.cpp:175:10: warning: return-statement with a value, in function returning 'void' [-fpermissive]
   return 0;
          ^
database.hpp: In constructor ‘dataBase::dataBase(std::pair<std::__cxx11::basic_string<char>, std::__cxx11::basic_string<char> >*, int)’:
database.hpp:130:32: error: ‘NO_BLOCK_GROUPS’ was not declared in this scope
     for(int i = 0; i < col_num*NO_BLOCK_GROUPS; i++){
                                ^~~~~~~~~~~~~~~
database.hpp:130:32: note: suggested alternative: ‘NO_BLOCKS’
     for(int i = 0; i < col_num*NO_BLOCK_GROUPS; i++){
                                ^~~~~~~~~~~~~~~
                                NO_BLOCKS
database.hpp: In constructor ‘dataBase::dataBase(char**, char**, int, int)’:
database.hpp:174:35: error: request for member ‘c_str’ in ‘*(col_types + ((sizetype)(((long unsigned int)(i % col_num)) * 8)))’, which is of non-class type ‘char*’
       type = col_types[i%col_num].c_str();
                                   ^~~~~
database.hpp: In function ‘void db::declare_dB(char**, char**, int)’:
database.hpp:215:61: error: no matching function for call to ‘dataBase::dataBase(char**&, char**&, int&)’
     dataBase dB = new dataBase(col_types, col_names, col_num);
                                                             ^
database.hpp:168:3: note: candidate: dataBase::dataBase(char**, char**, int, int)
   dataBase(char** col_types, char** col_names, int col_num, int NO_BLOCK_GROUPS)
   ^~~~~~~~
database.hpp:168:3: note:   candidate expects 4 arguments, 3 provided
database.hpp:125:3: note: candidate: dataBase::dataBase(std::pair<std::__cxx11::basic_string<char>, std::__cxx11::basic_string<char> >*, int)
   dataBase(type_num_col* type_indexes, int col_num)
   ^~~~~~~~
database.hpp:125:3: note:   candidate expects 2 arguments, 3 provided
database.hpp:122:8: note: candidate: constexpr dataBase::dataBase(const dataBase&)
 struct dataBase{
        ^~~~~~~~
database.hpp:122:8: note:   candidate expects 1 argument, 3 provided
database.hpp:122:8: note: candidate: constexpr dataBase::dataBase(dataBase&&)
database.hpp:122:8: note:   candidate expects 1 argument, 3 provided
In file included from setup.hpp:4:0:
database.hpp: In constructor ‘dataBase::dataBase(std::pair<std::__cxx11::basic_string<char>, std::__cxx11::basic_string<char> >*, int)’:
database.hpp:130:32: error: ‘NO_BLOCK_GROUPS’ was not declared in this scope
     for(int i = 0; i < col_num*NO_BLOCK_GROUPS; i++){
                                ^~~~~~~~~~~~~~~
database.hpp:130:32: note: suggested alternative: ‘NO_BLOCKS’
     for(int i = 0; i < col_num*NO_BLOCK_GROUPS; i++){
                                ^~~~~~~~~~~~~~~
                                NO_BLOCKS
database.hpp: In constructor ‘dataBase::dataBase(char**, char**, int, int)’:
database.hpp:174:35: error: request for member ‘c_str’ in ‘*(col_types + ((sizetype)(((long unsigned int)(i % col_num)) * 8)))’, which is of non-class type ‘char*’
       type = col_types[i%col_num].c_str();
                                   ^~~~~
database.hpp: In function ‘void db::declare_dB(char**, char**, int)’:
database.hpp:215:61: error: no matching function for call to ‘dataBase::dataBase(char**&, char**&, int&)’
     dataBase dB = new dataBase(col_types, col_names, col_num);
                                                             ^
database.hpp:168:3: note: candidate: dataBase::dataBase(char**, char**, int, int)
   dataBase(char** col_types, char** col_names, int col_num, int NO_BLOCK_GROUPS)
   ^~~~~~~~
database.hpp:168:3: note:   candidate expects 4 arguments, 3 provided
database.hpp:125:3: note: candidate: dataBase::dataBase(std::pair<std::__cxx11::basic_string<char>, std::__cxx11::basic_string<char> >*, int)
   dataBase(type_num_col* type_indexes, int col_num)
   ^~~~~~~~
database.hpp:125:3: note:   candidate expects 2 arguments, 3 provided
database.hpp:122:8: note: candidate: constexpr dataBase::dataBase(const dataBase&)
 struct dataBase{
        ^~~~~~~~
database.hpp:122:8: note:   candidate expects 1 argument, 3 provided
database.hpp:122:8: note: candidate: constexpr dataBase::dataBase(dataBase&&)
database.hpp:122:8: note:   candidate expects 1 argument, 3 provided
setup.hpp: In function ‘char* returnQ_S(char*)’:
setup.hpp:374:13: warning: ISO C++ forbids converting a string constant to ‘char*’ [-Wwrite-strings]
   char* q = "Hi there you Python";
             ^~~~~~~~~~~~~~~~~~~~~
connector.cpp:10:71: error: expected identifier before ‘,’ token
 extern "C" void declare_dB_object(char** col_types, char** col_names, , int col_Num, int NO_BLOCK_GROUPS)
                                                                       ^
connector.cpp: In function ‘void declare_dB_object(char**, char**, int, int, int)’:
connector.cpp:10:17: error: conflicting declaration of C function ‘void declare_dB_object(char**, char**, int, int, int)’
 extern "C" void declare_dB_object(char** col_types, char** col_names, , int col_Num, int NO_BLOCK_GROUPS)
                 ^~~~~~~~~~~~~~~~~
In file included from connector.cpp:2:0:
connector.h:7:17: note: previous declaration ‘void declare_dB_object(char**, char**, int, int)’
 extern "C" void declare_dB_object(char** col_types, char** col_names, int col_num, int NO_BLOCK_GROUPS);
                 ^~~~~~~~~~~~~~~~~
connector.cpp:12:36: error: ‘col_num’ was not declared in this scope
   declare_dB(col_types, col_names, col_num, NO_BLOCK_GROUPS);
                                    ^~~~~~~
connector.cpp:12:36: note: suggested alternative: ‘col_Num’
   declare_dB(col_types, col_names, col_num, NO_BLOCK_GROUPS);
                                    ^~~~~~~
                                    col_Num
connector.cpp:12:3: error: ‘declare_dB’ was not declared in this scope
   declare_dB(col_types, col_names, col_num, NO_BLOCK_GROUPS);
   ^~~~~~~~~~
Makefile:2: recipe for target 'mainmake' failed
make: *** [mainmake] Error 1
